<?xml version="1.0" encoding="UTF-8"?>
<gpx xmlns="http://www.topografix.com/GPX/1/0" xmlns:xsi="http://www.w3.org/2001/XMLSchema-instance" xsi:schemaLocation="http://www.topografix.com/GPX/1/0 http://www.topografix.com/GPX/1/0/gpx.xsd" version="1.0" creator="http://ridewithgps.com/">
<author>RideWithGPS LLC</author>
<url>http://ridewithgps.com/routes/7425167</url>
<time>2015-04-07T20:55:17Z</time>
<trk>
<name>Flèche NW Eugene to Olympia 2015</name>
<trkseg>
<trkpt lat="44.05462" lon="-123.09577">
<ele>129.7</ele></trkpt>
<trkpt lat="44.0543" lon="-123.0881">
<ele>130.8</ele></trkpt>
<trkpt lat="44.05535" lon="-123.08811">
<ele>132.2</ele></trkpt>
<trkpt lat="44.05555" lon="-123.08505">
<ele>130.2</ele></trkpt>
<trkpt lat="44.06251" lon="-123.07956">
<ele>128.5</ele></trkpt>
<trkpt lat="44.06987" lon="-123.06968">
<ele>129.2</ele></trkpt>
<trkpt lat="44.09623" lon="-123.06741">
<ele>127.6</ele></trkpt>
<trkpt lat="44.10596" lon="-123.05645">
<ele>127.9</ele></trkpt>
<trkpt lat="44.11055" lon="-123.04827">
<ele>125.4</ele></trkpt>
<trkpt lat="44.1137" lon="-123.04695">
<ele>130.1</ele></trkpt>
<trkpt lat="44.12263" lon="-123.05721">
<ele>124.3</ele></trkpt>
<trkpt lat="44.14076" lon="-123.06818">
<ele>121.4</ele></trkpt>
<trkpt lat="44.14123" lon="-123.07224">
<ele>119.7</ele></trkpt>
<trkpt lat="44.205" lon="-123.07183">
<ele>109.7</ele></trkpt>
<trkpt lat="44.21055" lon="-123.06715">
<ele>108.3</ele></trkpt>
<trkpt lat="44.23446" lon="-123.07015">
<ele>104.8</ele></trkpt>
<trkpt lat="44.24046" lon="-123.07006">
<ele>105.0</ele></trkpt>
<trkpt lat="44.24277" lon="-123.06717">
<ele>104.3</ele></trkpt>
<trkpt lat="44.27975" lon="-123.06827">
<ele>98.6</ele></trkpt>
<trkpt lat="44.28206" lon="-122.9945">
<ele>133.5</ele></trkpt>
<trkpt lat="44.30382" lon="-122.99381">
<ele>151.3</ele></trkpt>
<trkpt lat="44.30988" lon="-122.99092">
<ele>131.0</ele></trkpt>
<trkpt lat="44.33254" lon="-122.99311">
<ele>221.8</ele></trkpt>
<trkpt lat="44.34683" lon="-122.98455">
<ele>123.4</ele></trkpt>
<trkpt lat="44.38709" lon="-122.98564">
<ele>101.8</ele></trkpt>
<trkpt lat="44.38705" lon="-122.98435">
<ele>101.9</ele></trkpt>
<trkpt lat="44.39864" lon="-122.98508">
<ele>107.8</ele></trkpt>
<trkpt lat="44.40211" lon="-122.98322">
<ele>113.0</ele></trkpt>
<trkpt lat="44.41043" lon="-122.98325">
<ele>109.0</ele></trkpt>
<trkpt lat="44.42134" lon="-122.98699">
<ele>118.0</ele></trkpt>
<trkpt lat="44.43488" lon="-122.99471">
<ele>115.9</ele></trkpt>
<trkpt lat="44.45044" lon="-122.98872">
<ele>116.1</ele></trkpt>
<trkpt lat="44.45565" lon="-122.98918">
<ele>93.0</ele></trkpt>
<trkpt lat="44.45758" lon="-122.99184">
<ele>89.8</ele></trkpt>
<trkpt lat="44.45996" lon="-122.99194">
<ele>88.0</ele></trkpt>
<trkpt lat="44.46749" lon="-122.9884">
<ele>87.6</ele></trkpt>
<trkpt lat="44.47205" lon="-122.98844">
<ele>86.9</ele></trkpt>
<trkpt lat="44.49716" lon="-122.98842">
<ele>92.8</ele></trkpt>
<trkpt lat="44.4979" lon="-122.99833">
<ele>99.8</ele></trkpt>
<trkpt lat="44.50412" lon="-122.99836">
<ele>100.4</ele></trkpt>
<trkpt lat="44.50762" lon="-122.99625">
<ele>105.0</ele></trkpt>
<trkpt lat="44.54521" lon="-122.99445">
<ele>89.2</ele></trkpt>
<trkpt lat="44.54548" lon="-122.98876">
<ele>92.7</ele></trkpt>
<trkpt lat="44.55466" lon="-122.98795">
<ele>91.1</ele></trkpt>
<trkpt lat="44.62964" lon="-122.98787">
<ele>77.4</ele></trkpt>
<trkpt lat="44.62963" lon="-122.98222">
<ele>78.7</ele></trkpt>
<trkpt lat="44.63785" lon="-122.98314">
<ele>77.4</ele></trkpt>
<trkpt lat="44.64096" lon="-122.98161">
<ele>79.3</ele></trkpt>
<trkpt lat="44.64436" lon="-122.97999">
<ele>79.4</ele></trkpt>
<trkpt lat="44.64388" lon="-122.9781">
<ele>79.8</ele></trkpt>
<trkpt lat="44.65633" lon="-122.97195">
<ele>76.8</ele></trkpt>
<trkpt lat="44.66062" lon="-122.98017">
<ele>75.7</ele></trkpt>
<trkpt lat="44.66733" lon="-122.98705">
<ele>73.7</ele></trkpt>
<trkpt lat="44.66905" lon="-122.99239">
<ele>74.5</ele></trkpt>
<trkpt lat="44.66923" lon="-123.01933">
<ele>82.6</ele></trkpt>
<trkpt lat="44.67758" lon="-123.02271">
<ele>104.5</ele></trkpt>
<trkpt lat="44.68489" lon="-123.02174">
<ele>113.8</ele></trkpt>
<trkpt lat="44.68896" lon="-123.02548">
<ele>117.5</ele></trkpt>
<trkpt lat="44.69898" lon="-123.02783">
<ele>108.5</ele></trkpt>
<trkpt lat="44.70906" lon="-123.03365">
<ele>68.3</ele></trkpt>
<trkpt lat="44.71729" lon="-123.00845">
<ele>74.2</ele></trkpt>
<trkpt lat="44.72412" lon="-123.00846">
<ele>72.5</ele></trkpt>
<trkpt lat="44.73063" lon="-123.00305">
<ele>75.0</ele></trkpt>
<trkpt lat="44.73664" lon="-122.98975">
<ele>78.8</ele></trkpt>
<trkpt lat="44.73667" lon="-122.98537">
<ele>79.2</ele></trkpt>
<trkpt lat="44.74819" lon="-122.9819">
<ele>100.3</ele></trkpt>
<trkpt lat="44.75643" lon="-122.97571">
<ele>105.3</ele></trkpt>
<trkpt lat="44.7634" lon="-122.96545">
<ele>122.8</ele></trkpt>
<trkpt lat="44.76352" lon="-122.9602">
<ele>159.6</ele></trkpt>
<trkpt lat="44.76501" lon="-122.95839">
<ele>153.0</ele></trkpt>
<trkpt lat="44.78276" lon="-122.9517">
<ele>113.3</ele></trkpt>
<trkpt lat="44.79174" lon="-122.95852">
<ele>133.8</ele></trkpt>
<trkpt lat="44.79369" lon="-122.9625">
<ele>117.7</ele></trkpt>
<trkpt lat="44.80152" lon="-122.96309">
<ele>108.5</ele></trkpt>
<trkpt lat="44.80558" lon="-122.96931">
<ele>107.1</ele></trkpt>
<trkpt lat="44.81905" lon="-122.97208">
<ele>97.9</ele></trkpt>
<trkpt lat="44.8212" lon="-122.9684">
<ele>93.9</ele></trkpt>
<trkpt lat="44.82275" lon="-122.95786">
<ele>93.3</ele></trkpt>
<trkpt lat="44.84148" lon="-122.95784">
<ele>84.6</ele></trkpt>
<trkpt lat="44.84241" lon="-122.95253">
<ele>88.0</ele></trkpt>
<trkpt lat="44.85923" lon="-122.96122">
<ele>80.5</ele></trkpt>
<trkpt lat="44.8683" lon="-122.95964">
<ele>80.5</ele></trkpt>
<trkpt lat="44.87144" lon="-122.9684">
<ele>79.6</ele></trkpt>
<trkpt lat="44.87492" lon="-122.96944">
<ele>91.4</ele></trkpt>
<trkpt lat="44.88164" lon="-122.97796">
<ele>71.7</ele></trkpt>
<trkpt lat="44.88942" lon="-122.98333">
<ele>70.5</ele></trkpt>
<trkpt lat="44.89162" lon="-122.98983">
<ele>70.6</ele></trkpt>
<trkpt lat="44.89525" lon="-122.99196">
<ele>67.6</ele></trkpt>
<trkpt lat="44.8978" lon="-123.00076">
<ele>67.4</ele></trkpt>
<trkpt lat="44.90388" lon="-123.00853">
<ele>63.8</ele></trkpt>
<trkpt lat="44.91024" lon="-123.01028">
<ele>59.4</ele></trkpt>
<trkpt lat="44.93517" lon="-123.01066">
<ele>56.0</ele></trkpt>
<trkpt lat="44.93921" lon="-123.02588">
<ele>52.6</ele></trkpt>
<trkpt lat="44.94225" lon="-123.02475">
<ele>51.1</ele></trkpt>
<trkpt lat="44.94305" lon="-123.02626">
<ele>51.0</ele></trkpt>
<trkpt lat="44.94779" lon="-123.04546">
<ele>43.0</ele></trkpt>
<trkpt lat="44.9458" lon="-123.04944">
<ele>43.9</ele></trkpt>
<trkpt lat="44.96666" lon="-123.05842">
<ele>54.6</ele></trkpt>
<trkpt lat="44.97444" lon="-123.06803">
<ele>44.9</ele></trkpt>
<trkpt lat="44.97796" lon="-123.07566">
<ele>75.8</ele></trkpt>
<trkpt lat="44.98018" lon="-123.07696">
<ele>72.6</ele></trkpt>
<trkpt lat="45.01139" lon="-123.07894">
<ele>53.7</ele></trkpt>
<trkpt lat="45.01606" lon="-123.08015">
<ele>53.8</ele></trkpt>
<trkpt lat="45.02107" lon="-123.08511">
<ele>53.7</ele></trkpt>
<trkpt lat="45.02797" lon="-123.08698">
<ele>54.1</ele></trkpt>
<trkpt lat="45.04213" lon="-123.08129">
<ele>53.8</ele></trkpt>
<trkpt lat="45.05121" lon="-123.0839">
<ele>52.1</ele></trkpt>
<trkpt lat="45.05479" lon="-123.0809">
<ele>53.6</ele></trkpt>
<trkpt lat="45.05772" lon="-123.09005">
<ele>66.1</ele></trkpt>
<trkpt lat="45.05932" lon="-123.09112">
<ele>62.5</ele></trkpt>
<trkpt lat="45.06339" lon="-123.08967">
<ele>47.8</ele></trkpt>
<trkpt lat="45.07501" lon="-123.09209">
<ele>54.6</ele></trkpt>
<trkpt lat="45.09702" lon="-123.09273">
<ele>50.0</ele></trkpt>
<trkpt lat="45.11107" lon="-123.09716">
<ele>47.8</ele></trkpt>
<trkpt lat="45.12306" lon="-123.0958">
<ele>47.0</ele></trkpt>
<trkpt lat="45.13862" lon="-123.09887">
<ele>47.0</ele></trkpt>
<trkpt lat="45.16138" lon="-123.08961">
<ele>47.4</ele></trkpt>
<trkpt lat="45.16836" lon="-123.08912">
<ele>48.5</ele></trkpt>
<trkpt lat="45.16851" lon="-123.092">
<ele>48.3</ele></trkpt>
<trkpt lat="45.1844" lon="-123.08588">
<ele>47.7</ele></trkpt>
<trkpt lat="45.19918" lon="-123.08754">
<ele>47.0</ele></trkpt>
<trkpt lat="45.20511" lon="-123.08359">
<ele>49.0</ele></trkpt>
<trkpt lat="45.20818" lon="-123.08365">
<ele>48.6</ele></trkpt>
<trkpt lat="45.21509" lon="-123.08574">
<ele>49.2</ele></trkpt>
<trkpt lat="45.21698" lon="-123.08427">
<ele>51.1</ele></trkpt>
<trkpt lat="45.21964" lon="-123.08824">
<ele>51.2</ele></trkpt>
<trkpt lat="45.22177" lon="-123.10241">
<ele>48.2</ele></trkpt>
<trkpt lat="45.22168" lon="-123.10685">
<ele>48.1</ele></trkpt>
<trkpt lat="45.23665" lon="-123.11452">
<ele>43.7</ele></trkpt>
<trkpt lat="45.24276" lon="-123.11235">
<ele>50.5</ele></trkpt>
<trkpt lat="45.24376" lon="-123.11679">
<ele>51.1</ele></trkpt>
<trkpt lat="45.2654" lon="-123.11136">
<ele>54.4</ele></trkpt>
<trkpt lat="45.26756" lon="-123.10564">
<ele>62.8</ele></trkpt>
<trkpt lat="45.27487" lon="-123.09834">
<ele>53.8</ele></trkpt>
<trkpt lat="45.28986" lon="-123.09778">
<ele>86.7</ele></trkpt>
<trkpt lat="45.29604" lon="-123.10237">
<ele>75.1</ele></trkpt>
<trkpt lat="45.31159" lon="-123.08922">
<ele>67.7</ele></trkpt>
<trkpt lat="45.32033" lon="-123.0913">
<ele>64.9</ele></trkpt>
<trkpt lat="45.32103" lon="-123.07896">
<ele>70.3</ele></trkpt>
<trkpt lat="45.33297" lon="-123.07925">
<ele>57.5</ele></trkpt>
<trkpt lat="45.34099" lon="-123.09017">
<ele>60.2</ele></trkpt>
<trkpt lat="45.35723" lon="-123.09991">
<ele>59.9</ele></trkpt>
<trkpt lat="45.36696" lon="-123.10166">
<ele>61.2</ele></trkpt>
<trkpt lat="45.37622" lon="-123.09946">
<ele>67.6</ele></trkpt>
<trkpt lat="45.3816" lon="-123.09488">
<ele>72.8</ele></trkpt>
<trkpt lat="45.40357" lon="-123.10301">
<ele>68.5</ele></trkpt>
<trkpt lat="45.4201" lon="-123.10515">
<ele>61.5</ele></trkpt>
<trkpt lat="45.42994" lon="-123.11069">
<ele>69.7</ele></trkpt>
<trkpt lat="45.43211" lon="-123.11483">
<ele>64.7</ele></trkpt>
<trkpt lat="45.43222" lon="-123.11964">
<ele>61.9</ele></trkpt>
<trkpt lat="45.44065" lon="-123.12258">
<ele>56.5</ele></trkpt>
<trkpt lat="45.44753" lon="-123.12259">
<ele>54.9</ele></trkpt>
<trkpt lat="45.44805" lon="-123.11897">
<ele>59.2</ele></trkpt>
<trkpt lat="45.45292" lon="-123.11847">
<ele>62.7</ele></trkpt>
<trkpt lat="45.45371" lon="-123.11463">
<ele>56.4</ele></trkpt>
<trkpt lat="45.46252" lon="-123.11245">
<ele>61.3</ele></trkpt>
<trkpt lat="45.47498" lon="-123.12405">
<ele>51.7</ele></trkpt>
<trkpt lat="45.47976" lon="-123.10541">
<ele>56.3</ele></trkpt>
<trkpt lat="45.48626" lon="-123.09509">
<ele>60.4</ele></trkpt>
<trkpt lat="45.48945" lon="-123.09262">
<ele>54.6</ele></trkpt>
<trkpt lat="45.4992" lon="-123.08866">
<ele>46.9</ele></trkpt>
<trkpt lat="45.50625" lon="-123.09141">
<ele>47.5</ele></trkpt>
<trkpt lat="45.51702" lon="-123.09123">
<ele>52.8</ele></trkpt>
<trkpt lat="45.51703" lon="-123.09564">
<ele>52.0</ele></trkpt>
<trkpt lat="45.51793" lon="-123.11211">
<ele>58.4</ele></trkpt>
<trkpt lat="45.52388" lon="-123.11202">
<ele>59.0</ele></trkpt>
<trkpt lat="45.52392" lon="-123.12162">
<ele>66.5</ele></trkpt>
<trkpt lat="45.52762" lon="-123.12148">
<ele>59.6</ele></trkpt>
<trkpt lat="45.53505" lon="-123.13177">
<ele>72.0</ele></trkpt>
<trkpt lat="45.54239" lon="-123.13419">
<ele>64.9</ele></trkpt>
<trkpt lat="45.55011" lon="-123.13326">
<ele>82.8</ele></trkpt>
<trkpt lat="45.55195" lon="-123.1361">
<ele>80.7</ele></trkpt>
<trkpt lat="45.56379" lon="-123.14187">
<ele>53.1</ele></trkpt>
<trkpt lat="45.57132" lon="-123.13826">
<ele>51.0</ele></trkpt>
<trkpt lat="45.58946" lon="-123.14937">
<ele>55.5</ele></trkpt>
<trkpt lat="45.59626" lon="-123.14694">
<ele>67.1</ele></trkpt>
<trkpt lat="45.59549" lon="-123.12492">
<ele>58.9</ele></trkpt>
<trkpt lat="45.59267" lon="-123.12448">
<ele>55.8</ele></trkpt>
<trkpt lat="45.59276" lon="-123.11442">
<ele>60.0</ele></trkpt>
<trkpt lat="45.6219" lon="-123.11386">
<ele>64.4</ele></trkpt>
<trkpt lat="45.64657" lon="-123.13624">
<ele>64.5</ele></trkpt>
<trkpt lat="45.6615" lon="-123.16112">
<ele>71.6</ele></trkpt>
<trkpt lat="45.67954" lon="-123.17342">
<ele>82.9</ele></trkpt>
<trkpt lat="45.68806" lon="-123.18626">
<ele>112.4</ele></trkpt>
<trkpt lat="45.69641" lon="-123.1814">
<ele>132.0</ele></trkpt>
<trkpt lat="45.69985" lon="-123.1886">
<ele>152.1</ele></trkpt>
<trkpt lat="45.71406" lon="-123.18325">
<ele>171.6</ele></trkpt>
<trkpt lat="45.71821" lon="-123.18708">
<ele>201.3</ele></trkpt>
<trkpt lat="45.7249" lon="-123.18586">
<ele>203.1</ele></trkpt>
<trkpt lat="45.73304" lon="-123.19176">
<ele>233.7</ele></trkpt>
<trkpt lat="45.73559" lon="-123.19552">
<ele>264.7</ele></trkpt>
<trkpt lat="45.7452" lon="-123.19395">
<ele>279.6</ele></trkpt>
<trkpt lat="45.74601" lon="-123.19977">
<ele>284.2</ele></trkpt>
<trkpt lat="45.74919" lon="-123.20311">
<ele>293.3</ele></trkpt>
<trkpt lat="45.75319" lon="-123.20311">
<ele>292.9</ele></trkpt>
<trkpt lat="45.75798" lon="-123.20605">
<ele>279.9</ele></trkpt>
<trkpt lat="45.75714" lon="-123.20138">
<ele>270.5</ele></trkpt>
<trkpt lat="45.75825" lon="-123.19988">
<ele>248.5</ele></trkpt>
<trkpt lat="45.76638" lon="-123.21109">
<ele>264.5</ele></trkpt>
<trkpt lat="45.77048" lon="-123.20967">
<ele>250.5</ele></trkpt>
<trkpt lat="45.77315" lon="-123.21254">
<ele>245.3</ele></trkpt>
<trkpt lat="45.77966" lon="-123.21483">
<ele>237.5</ele></trkpt>
<trkpt lat="45.78312" lon="-123.2132">
<ele>240.5</ele></trkpt>
<trkpt lat="45.79667" lon="-123.22419">
<ele>218.8</ele></trkpt>
<trkpt lat="45.80392" lon="-123.22545">
<ele>213.6</ele></trkpt>
<trkpt lat="45.81076" lon="-123.23047">
<ele>208.4</ele></trkpt>
<trkpt lat="45.82217" lon="-123.23381">
<ele>204.1</ele></trkpt>
<trkpt lat="45.83372" lon="-123.22636">
<ele>198.3</ele></trkpt>
<trkpt lat="45.8404" lon="-123.21708">
<ele>191.3</ele></trkpt>
<trkpt lat="45.84251" lon="-123.20425">
<ele>194.8</ele></trkpt>
<trkpt lat="45.84591" lon="-123.19955">
<ele>192.3</ele></trkpt>
<trkpt lat="45.8556" lon="-123.19721">
<ele>191.4</ele></trkpt>
<trkpt lat="45.85627" lon="-123.19395">
<ele>185.6</ele></trkpt>
<trkpt lat="45.85868" lon="-123.19404">
<ele>190.7</ele></trkpt>
<trkpt lat="45.85731" lon="-123.17565">
<ele>191.5</ele></trkpt>
<trkpt lat="45.85837" lon="-123.17225">
<ele>184.4</ele></trkpt>
<trkpt lat="45.86657" lon="-123.17371">
<ele>184.9</ele></trkpt>
<trkpt lat="45.8745" lon="-123.17006">
<ele>184.2</ele></trkpt>
<trkpt lat="45.88649" lon="-123.14946">
<ele>181.5</ele></trkpt>
<trkpt lat="45.89434" lon="-123.15833">
<ele>182.3</ele></trkpt>
<trkpt lat="45.89986" lon="-123.15527">
<ele>180.0</ele></trkpt>
<trkpt lat="45.90251" lon="-123.14276">
<ele>177.2</ele></trkpt>
<trkpt lat="45.90727" lon="-123.1414">
<ele>178.7</ele></trkpt>
<trkpt lat="45.91164" lon="-123.14409">
<ele>174.0</ele></trkpt>
<trkpt lat="45.91428" lon="-123.1439">
<ele>172.3</ele></trkpt>
<trkpt lat="45.92313" lon="-123.14084">
<ele>183.1</ele></trkpt>
<trkpt lat="45.93053" lon="-123.15929">
<ele>173.1</ele></trkpt>
<trkpt lat="45.93536" lon="-123.16465">
<ele>175.2</ele></trkpt>
<trkpt lat="45.93979" lon="-123.16637">
<ele>174.1</ele></trkpt>
<trkpt lat="45.94504" lon="-123.16182">
<ele>176.0</ele></trkpt>
<trkpt lat="45.94913" lon="-123.15086">
<ele>194.0</ele></trkpt>
<trkpt lat="45.94968" lon="-123.14518">
<ele>194.5</ele></trkpt>
<trkpt lat="45.95038" lon="-123.1303">
<ele>217.1</ele></trkpt>
<trkpt lat="45.94852" lon="-123.11901">
<ele>239.8</ele></trkpt>
<trkpt lat="45.94941" lon="-123.10787">
<ele>257.9</ele></trkpt>
<trkpt lat="45.94476" lon="-123.09099">
<ele>287.9</ele></trkpt>
<trkpt lat="45.93421" lon="-123.07483">
<ele>309.6</ele></trkpt>
<trkpt lat="45.92965" lon="-123.07128">
<ele>329.4</ele></trkpt>
<trkpt lat="45.92894" lon="-123.0665">
<ele>344.4</ele></trkpt>
<trkpt lat="45.93176" lon="-123.05904">
<ele>374.2</ele></trkpt>
<trkpt lat="45.93934" lon="-123.06207">
<ele>349.4</ele></trkpt>
<trkpt lat="45.94261" lon="-123.0591">
<ele>327.6</ele></trkpt>
<trkpt lat="45.94316" lon="-123.04887">
<ele>280.6</ele></trkpt>
<trkpt lat="45.94958" lon="-123.03569">
<ele>242.9</ele></trkpt>
<trkpt lat="45.96523" lon="-123.03928">
<ele>231.6</ele></trkpt>
<trkpt lat="45.97531" lon="-123.04672">
<ele>209.6</ele></trkpt>
<trkpt lat="45.99095" lon="-123.03765">
<ele>203.9</ele></trkpt>
<trkpt lat="46.00148" lon="-123.03989">
<ele>259.2</ele></trkpt>
<trkpt lat="46.00135" lon="-123.03182">
<ele>259.3</ele></trkpt>
<trkpt lat="46.00341" lon="-123.02846">
<ele>272.9</ele></trkpt>
<trkpt lat="46.00827" lon="-123.02827">
<ele>290.9</ele></trkpt>
<trkpt lat="46.01156" lon="-123.0317">
<ele>298.4</ele></trkpt>
<trkpt lat="46.01172" lon="-123.01821">
<ele>299.0</ele></trkpt>
<trkpt lat="46.01289" lon="-123.01616">
<ele>286.5</ele></trkpt>
<trkpt lat="46.02613" lon="-123.01124">
<ele>255.1</ele></trkpt>
<trkpt lat="46.03595" lon="-123.00102">
<ele>224.2</ele></trkpt>
<trkpt lat="46.04558" lon="-122.99939">
<ele>227.3</ele></trkpt>
<trkpt lat="46.05084" lon="-122.99047">
<ele>198.9</ele></trkpt>
<trkpt lat="46.05351" lon="-122.98237">
<ele>188.2</ele></trkpt>
<trkpt lat="46.06127" lon="-122.97312">
<ele>179.9</ele></trkpt>
<trkpt lat="46.06429" lon="-122.96554">
<ele>178.9</ele></trkpt>
<trkpt lat="46.07101" lon="-122.96498">
<ele>170.5</ele></trkpt>
<trkpt lat="46.08132" lon="-122.95813">
<ele>170.1</ele></trkpt>
<trkpt lat="46.08407" lon="-122.9595">
<ele>142.9</ele></trkpt>
<trkpt lat="46.08859" lon="-122.95653">
<ele>113.3</ele></trkpt>
<trkpt lat="46.08851" lon="-122.94912">
<ele>53.9</ele></trkpt>
<trkpt lat="46.09025" lon="-122.9455">
<ele>28.9</ele></trkpt>
<trkpt lat="46.09491" lon="-122.96349">
<ele>5.0</ele></trkpt>
<trkpt lat="46.09593" lon="-122.96851">
<ele>11.9</ele></trkpt>
<trkpt lat="46.09707" lon="-122.96881">
<ele>15.1</ele></trkpt>
<trkpt lat="46.11644" lon="-122.95056">
<ele>4.1</ele></trkpt>
<trkpt lat="46.11672" lon="-122.9295">
<ele>3.6</ele></trkpt>
<trkpt lat="46.12587" lon="-122.92474">
<ele>4.1</ele></trkpt>
<trkpt lat="46.13684" lon="-122.92193">
<ele>6.5</ele></trkpt>
<trkpt lat="46.14543" lon="-122.91548">
<ele>7.2</ele></trkpt>
<trkpt lat="46.14516" lon="-122.90801">
<ele>12.2</ele></trkpt>
<trkpt lat="46.14581" lon="-122.91199">
<ele>10.4</ele></trkpt>
<trkpt lat="46.15006" lon="-122.91085">
<ele>7.2</ele></trkpt>
<trkpt lat="46.15932" lon="-122.91262">
<ele>7.1</ele></trkpt>
<trkpt lat="46.17452" lon="-122.91018">
<ele>9.6</ele></trkpt>
<trkpt lat="46.17691" lon="-122.90736">
<ele>16.7</ele></trkpt>
<trkpt lat="46.17684" lon="-122.90121">
<ele>21.5</ele></trkpt>
<trkpt lat="46.18627" lon="-122.89426">
<ele>27.0</ele></trkpt>
<trkpt lat="46.18859" lon="-122.8935">
<ele>22.4</ele></trkpt>
<trkpt lat="46.19151" lon="-122.89438">
<ele>29.9</ele></trkpt>
<trkpt lat="46.19295" lon="-122.89638">
<ele>10.6</ele></trkpt>
<trkpt lat="46.19735" lon="-122.89507">
<ele>13.7</ele></trkpt>
<trkpt lat="46.20037" lon="-122.89813">
<ele>8.7</ele></trkpt>
<trkpt lat="46.21109" lon="-122.8997">
<ele>34.7</ele></trkpt>
<trkpt lat="46.23689" lon="-122.88865">
<ele>17.8</ele></trkpt>
<trkpt lat="46.24631" lon="-122.88791">
<ele>23.6</ele></trkpt>
<trkpt lat="46.25389" lon="-122.88462">
<ele>13.7</ele></trkpt>
<trkpt lat="46.2601" lon="-122.8889">
<ele>20.0</ele></trkpt>
<trkpt lat="46.26803" lon="-122.90516">
<ele>16.7</ele></trkpt>
<trkpt lat="46.27262" lon="-122.90672">
<ele>16.5</ele></trkpt>
<trkpt lat="46.2805" lon="-122.90785">
<ele>21.5</ele></trkpt>
<trkpt lat="46.28583" lon="-122.90097">
<ele>35.1</ele></trkpt>
<trkpt lat="46.28833" lon="-122.90397">
<ele>18.1</ele></trkpt>
<trkpt lat="46.29315" lon="-122.90374">
<ele>16.9</ele></trkpt>
<trkpt lat="46.29923" lon="-122.90897">
<ele>27.8</ele></trkpt>
<trkpt lat="46.30595" lon="-122.91122">
<ele>29.5</ele></trkpt>
<trkpt lat="46.31878" lon="-122.90878">
<ele>26.0</ele></trkpt>
<trkpt lat="46.33188" lon="-122.91969">
<ele>29.2</ele></trkpt>
<trkpt lat="46.33793" lon="-122.92198">
<ele>25.4</ele></trkpt>
<trkpt lat="46.34181" lon="-122.92754">
<ele>38.4</ele></trkpt>
<trkpt lat="46.36509" lon="-122.92637">
<ele>32.6</ele></trkpt>
<trkpt lat="46.36807" lon="-122.92806">
<ele>22.6</ele></trkpt>
<trkpt lat="46.377" lon="-122.92792">
<ele>21.6</ele></trkpt>
<trkpt lat="46.38326" lon="-122.93125">
<ele>22.1</ele></trkpt>
<trkpt lat="46.39267" lon="-122.93058">
<ele>21.2</ele></trkpt>
<trkpt lat="46.39469" lon="-122.92528">
<ele>23.0</ele></trkpt>
<trkpt lat="46.40187" lon="-122.92381">
<ele>23.9</ele></trkpt>
<trkpt lat="46.40233" lon="-122.91435">
<ele>22.4</ele></trkpt>
<trkpt lat="46.40873" lon="-122.90458">
<ele>23.3</ele></trkpt>
<trkpt lat="46.4119" lon="-122.89578">
<ele>25.8</ele></trkpt>
<trkpt lat="46.41498" lon="-122.88545">
<ele>26.3</ele></trkpt>
<trkpt lat="46.41429" lon="-122.87983">
<ele>51.3</ele></trkpt>
<trkpt lat="46.41569" lon="-122.87622">
<ele>54.3</ele></trkpt>
<trkpt lat="46.41627" lon="-122.86492">
<ele>57.9</ele></trkpt>
<trkpt lat="46.42236" lon="-122.85635">
<ele>60.4</ele></trkpt>
<trkpt lat="46.42197" lon="-122.84225">
<ele>52.2</ele></trkpt>
<trkpt lat="46.42294" lon="-122.84042">
<ele>32.2</ele></trkpt>
<trkpt lat="46.43721" lon="-122.83605">
<ele>35.2</ele></trkpt>
<trkpt lat="46.43961" lon="-122.8473">
<ele>36.4</ele></trkpt>
<trkpt lat="46.44374" lon="-122.84748">
<ele>51.3</ele></trkpt>
<trkpt lat="46.4567" lon="-122.84315">
<ele>87.5</ele></trkpt>
<trkpt lat="46.47453" lon="-122.81909">
<ele>105.9</ele></trkpt>
<trkpt lat="46.47915" lon="-122.81504">
<ele>106.4</ele></trkpt>
<trkpt lat="46.49228" lon="-122.81514">
<ele>106.3</ele></trkpt>
<trkpt lat="46.50025" lon="-122.81859">
<ele>107.5</ele></trkpt>
<trkpt lat="46.52077" lon="-122.81237">
<ele>119.6</ele></trkpt>
<trkpt lat="46.52518" lon="-122.81599">
<ele>139.0</ele></trkpt>
<trkpt lat="46.52743" lon="-122.82152">
<ele>152.4</ele></trkpt>
<trkpt lat="46.55214" lon="-122.82346">
<ele>165.8</ele></trkpt>
<trkpt lat="46.55897" lon="-122.83457">
<ele>159.8</ele></trkpt>
<trkpt lat="46.56441" lon="-122.83493">
<ele>154.4</ele></trkpt>
<trkpt lat="46.57815" lon="-122.8409">
<ele>101.9</ele></trkpt>
<trkpt lat="46.59718" lon="-122.85654">
<ele>93.3</ele></trkpt>
<trkpt lat="46.60522" lon="-122.86817">
<ele>81.5</ele></trkpt>
<trkpt lat="46.61158" lon="-122.88213">
<ele>84.0</ele></trkpt>
<trkpt lat="46.62705" lon="-122.90453">
<ele>77.7</ele></trkpt>
<trkpt lat="46.6349" lon="-122.92265">
<ele>71.2</ele></trkpt>
<trkpt lat="46.64377" lon="-122.93182">
<ele>74.2</ele></trkpt>
<trkpt lat="46.65276" lon="-122.95064">
<ele>72.5</ele></trkpt>
<trkpt lat="46.66744" lon="-122.97145">
<ele>60.9</ele></trkpt>
<trkpt lat="46.67463" lon="-122.97023">
<ele>59.3</ele></trkpt>
<trkpt lat="46.68056" lon="-122.95755">
<ele>57.9</ele></trkpt>
<trkpt lat="46.68418" lon="-122.95528">
<ele>57.2</ele></trkpt>
<trkpt lat="46.70647" lon="-122.95406">
<ele>55.9</ele></trkpt>
<trkpt lat="46.70901" lon="-122.95733">
<ele>56.2</ele></trkpt>
<trkpt lat="46.72163" lon="-122.95217">
<ele>58.1</ele></trkpt>
<trkpt lat="46.7491" lon="-122.95362">
<ele>62.4</ele></trkpt>
<trkpt lat="46.75325" lon="-122.94994">
<ele>64.8</ele></trkpt>
<trkpt lat="46.75431" lon="-122.937">
<ele>62.6</ele></trkpt>
<trkpt lat="46.76537" lon="-122.92892">
<ele>71.0</ele></trkpt>
<trkpt lat="46.76883" lon="-122.92413">
<ele>70.1</ele></trkpt>
<trkpt lat="46.77482" lon="-122.92176">
<ele>67.3</ele></trkpt>
<trkpt lat="46.7783" lon="-122.91693">
<ele>64.9</ele></trkpt>
<trkpt lat="46.77972" lon="-122.91024">
<ele>67.3</ele></trkpt>
<trkpt lat="46.79069" lon="-122.89851">
<ele>72.1</ele></trkpt>
<trkpt lat="46.79874" lon="-122.89468">
<ele>98.0</ele></trkpt>
<trkpt lat="46.79922" lon="-122.89066">
<ele>98.9</ele></trkpt>
<trkpt lat="46.79543" lon="-122.87571">
<ele>82.5</ele></trkpt>
<trkpt lat="46.79889" lon="-122.87">
<ele>80.2</ele></trkpt>
<trkpt lat="46.80755" lon="-122.86294">
<ele>77.0</ele></trkpt>
<trkpt lat="46.81955" lon="-122.86247">
<ele>80.3</ele></trkpt>
<trkpt lat="46.82037" lon="-122.86435">
<ele>80.5</ele></trkpt>
<trkpt lat="46.81956" lon="-122.86174">
<ele>80.0</ele></trkpt>
<trkpt lat="46.84714" lon="-122.86026">
<ele>90.7</ele></trkpt>
<trkpt lat="46.85673" lon="-122.85475">
<ele>86.7</ele></trkpt>
<trkpt lat="46.85971" lon="-122.84655">
<ele>85.4</ele></trkpt>
<trkpt lat="46.87482" lon="-122.84434">
<ele>118.7</ele></trkpt>
<trkpt lat="46.89746" lon="-122.85625">
<ele>74.6</ele></trkpt>
<trkpt lat="46.90977" lon="-122.86023">
<ele>78.7</ele></trkpt>
<trkpt lat="46.93065" lon="-122.85988">
<ele>80.3</ele></trkpt>
<trkpt lat="46.93867" lon="-122.85507">
<ele>66.3</ele></trkpt>
<trkpt lat="46.94523" lon="-122.8547">
<ele>63.9</ele></trkpt>
<trkpt lat="46.95258" lon="-122.86284">
<ele>68.8</ele></trkpt>
<trkpt lat="46.95776" lon="-122.87588">
<ele>65.2</ele></trkpt>
<trkpt lat="46.97566" lon="-122.89591">
<ele>60.8</ele></trkpt>
<trkpt lat="46.98079" lon="-122.88672">
<ele>56.5</ele></trkpt>
<trkpt lat="46.98943" lon="-122.88578">
<ele>57.6</ele></trkpt>
<trkpt lat="46.992" lon="-122.88114">
<ele>51.3</ele></trkpt>
<trkpt lat="47.02394" lon="-122.87865">
<ele>54.2</ele></trkpt>
<trkpt lat="47.02561" lon="-122.88718">
<ele>28.1</ele></trkpt>
<trkpt lat="47.03097" lon="-122.89343">
<ele>13.2</ele></trkpt>
<trkpt lat="47.0376" lon="-122.89">
<ele>6.6</ele></trkpt>
<trkpt lat="47.04382" lon="-122.8924">
<ele>6.7</ele></trkpt>
<trkpt lat="47.0427" lon="-122.9026">
<ele>5.9</ele></trkpt></trkseg></trk></gpx>
