<?xml version="1.0" encoding="UTF-8"?>
<gpx xmlns:xsi="http://www.w3.org/2001/XMLSchema-instance" xsi:schemaLocation="http://www.topografix.com/GPX/1/0 http://www.topografix.com/GPX/1/0/gpx.xsd" xmlns="http://www.topografix.com/GPX/1/0" version="1.0" creator="http://ridewithgps.com/">
<author>RideWithGPS LLC</author>
<url>http://ridewithgps.com/routes/13038277</url>
<time>2016-04-10T12:00:47Z</time>
<trk>
<name>Asta - 2016</name>
<trkseg>
<trkpt lat="45.49005" lon="-122.79777">
<ele>55.6</ele></trkpt>
<trkpt lat="45.49374" lon="-122.79773">
<ele>56.0</ele></trkpt>
<trkpt lat="45.49547" lon="-122.81273">
<ele>56.2</ele></trkpt>
<trkpt lat="45.50039" lon="-122.81326">
<ele>60.1</ele></trkpt>
<trkpt lat="45.50756" lon="-122.84064">
<ele>61.1</ele></trkpt>
<trkpt lat="45.52886" lon="-122.83981">
<ele>63.3</ele></trkpt>
<trkpt lat="45.53286" lon="-122.84695">
<ele>70.3</ele></trkpt>
<trkpt lat="45.53549" lon="-122.85744">
<ele>59.5</ele></trkpt>
<trkpt lat="45.53472" lon="-122.86162">
<ele>56.8</ele></trkpt>
<trkpt lat="45.53795" lon="-122.86525">
<ele>70.3</ele></trkpt>
<trkpt lat="45.5385" lon="-122.87197">
<ele>66.1</ele></trkpt>
<trkpt lat="45.54121" lon="-122.87504">
<ele>67.0</ele></trkpt>
<trkpt lat="45.54556" lon="-122.887">
<ele>52.0</ele></trkpt>
<trkpt lat="45.54681" lon="-122.90504">
<ele>67.2</ele></trkpt>
<trkpt lat="45.55088" lon="-122.91148">
<ele>62.2</ele></trkpt>
<trkpt lat="45.55126" lon="-122.95278">
<ele>59.8</ele></trkpt>
<trkpt lat="45.56187" lon="-122.9527">
<ele>54.1</ele></trkpt>
<trkpt lat="45.56198" lon="-122.94974">
<ele>54.3</ele></trkpt>
<trkpt lat="45.5665" lon="-122.94973">
<ele>62.4</ele></trkpt>
<trkpt lat="45.5665" lon="-122.94973">
<ele>62.4</ele></trkpt>
<trkpt lat="45.57188" lon="-122.95995">
<ele>60.0</ele></trkpt>
<trkpt lat="45.57438" lon="-123.0261">
<ele>59.9</ele></trkpt>
<trkpt lat="45.57088" lon="-123.04538">
<ele>54.8</ele></trkpt>
<trkpt lat="45.58161" lon="-123.04275">
<ele>56.2</ele></trkpt>
<trkpt lat="45.58238" lon="-123.04539">
<ele>56.1</ele></trkpt>
<trkpt lat="45.58757" lon="-123.04345">
<ele>56.5</ele></trkpt>
<trkpt lat="45.5897" lon="-123.0514">
<ele>54.3</ele></trkpt>
<trkpt lat="45.58978" lon="-123.05816">
<ele>52.9</ele></trkpt>
<trkpt lat="45.592" lon="-123.05949">
<ele>52.8</ele></trkpt>
<trkpt lat="45.59575" lon="-123.08183">
<ele>53.2</ele></trkpt>
<trkpt lat="45.59267" lon="-123.08231">
<ele>57.4</ele></trkpt>
<trkpt lat="45.59262" lon="-123.09386">
<ele>58.0</ele></trkpt>
<trkpt lat="45.56199" lon="-123.0926">
<ele>54.8</ele></trkpt>
<trkpt lat="45.56197" lon="-123.08742">
<ele>55.3</ele></trkpt>
<trkpt lat="45.54968" lon="-123.08534">
<ele>58.2</ele></trkpt>
<trkpt lat="45.54939" lon="-123.08694">
<ele>58.9</ele></trkpt>
<trkpt lat="45.51829" lon="-123.08803">
<ele>53.0</ele></trkpt>
<trkpt lat="45.51832" lon="-123.09122">
<ele>53.0</ele></trkpt>
<trkpt lat="45.51246" lon="-123.09134">
<ele>50.5</ele></trkpt>
<trkpt lat="45.50941" lon="-123.09914">
<ele>52.2</ele></trkpt>
<trkpt lat="45.50812" lon="-123.10754">
<ele>52.8</ele></trkpt>
<trkpt lat="45.50176" lon="-123.11655">
<ele>50.0</ele></trkpt>
<trkpt lat="45.48564" lon="-123.1265">
<ele>50.3</ele></trkpt>
<trkpt lat="45.47964" lon="-123.13616">
<ele>59.2</ele></trkpt>
<trkpt lat="45.47028" lon="-123.1427">
<ele>63.0</ele></trkpt>
<trkpt lat="45.46833" lon="-123.14726">
<ele>74.5</ele></trkpt>
<trkpt lat="45.4605" lon="-123.15609">
<ele>56.3</ele></trkpt>
<trkpt lat="45.44854" lon="-123.15132">
<ele>62.6</ele></trkpt>
<trkpt lat="45.44868" lon="-123.14517">
<ele>54.9</ele></trkpt>
<trkpt lat="45.43726" lon="-123.13984">
<ele>58.1</ele></trkpt>
<trkpt lat="45.43744" lon="-123.1355">
<ele>53.7</ele></trkpt>
<trkpt lat="45.44062" lon="-123.12847">
<ele>52.9</ele></trkpt>
<trkpt lat="45.44045" lon="-123.12255">
<ele>56.4</ele></trkpt>
<trkpt lat="45.43206" lon="-123.11946">
<ele>62.1</ele></trkpt>
<trkpt lat="45.43203" lon="-123.11449">
<ele>65.3</ele></trkpt>
<trkpt lat="45.42951" lon="-123.11026">
<ele>71.6</ele></trkpt>
<trkpt lat="45.41986" lon="-123.10505">
<ele>61.3</ele></trkpt>
<trkpt lat="45.40331" lon="-123.10291">
<ele>68.3</ele></trkpt>
<trkpt lat="45.38161" lon="-123.0949">
<ele>72.7</ele></trkpt>
<trkpt lat="45.37618" lon="-123.09946">
<ele>67.6</ele></trkpt>
<trkpt lat="45.36952" lon="-123.10115">
<ele>61.6</ele></trkpt>
<trkpt lat="45.35646" lon="-123.09993">
<ele>60.1</ele></trkpt>
<trkpt lat="45.34006" lon="-123.08933">
<ele>64.3</ele></trkpt>
<trkpt lat="45.33262" lon="-123.07889">
<ele>56.3</ele></trkpt>
<trkpt lat="45.33004" lon="-123.05637">
<ele>62.1</ele></trkpt>
<trkpt lat="45.3288" lon="-123.00329">
<ele>63.6</ele></trkpt>
<trkpt lat="45.31278" lon="-123.00335">
<ele>39.7</ele></trkpt>
<trkpt lat="45.31113" lon="-122.99152">
<ele>53.1</ele></trkpt>
<trkpt lat="45.30708" lon="-122.9883">
<ele>59.3</ele></trkpt>
<trkpt lat="45.30542" lon="-122.97919">
<ele>56.8</ele></trkpt>
<trkpt lat="45.29949" lon="-122.97916">
<ele>54.6</ele></trkpt>
<trkpt lat="45.29946" lon="-122.97059">
<ele>53.9</ele></trkpt>
<trkpt lat="45.29781" lon="-122.97061">
<ele>52.9</ele></trkpt>
<trkpt lat="45.29721" lon="-122.96523">
<ele>52.0</ele></trkpt>
<trkpt lat="45.28565" lon="-122.95415">
<ele>50.7</ele></trkpt>
<trkpt lat="45.28615" lon="-122.94525">
<ele>52.7</ele></trkpt>
<trkpt lat="45.25773" lon="-122.94236">
<ele>37.6</ele></trkpt>
<trkpt lat="45.25768" lon="-122.92801">
<ele>38.5</ele></trkpt>
<trkpt lat="45.25105" lon="-122.90632">
<ele>49.0</ele></trkpt>
<trkpt lat="45.25053" lon="-122.8981">
<ele>31.8</ele></trkpt>
<trkpt lat="45.24866" lon="-122.89775">
<ele>41.3</ele></trkpt>
<trkpt lat="45.24886" lon="-122.8923">
<ele>37.4</ele></trkpt>
<trkpt lat="45.24828" lon="-122.89416">
<ele>41.3</ele></trkpt>
<trkpt lat="45.24542" lon="-122.88368">
<ele>31.7</ele></trkpt>
<trkpt lat="45.24658" lon="-122.87394">
<ele>42.1</ele></trkpt>
<trkpt lat="45.24964" lon="-122.86707">
<ele>28.3</ele></trkpt>
<trkpt lat="45.25047" lon="-122.8499">
<ele>61.6</ele></trkpt>
<trkpt lat="45.25588" lon="-122.8423">
<ele>60.3</ele></trkpt>
<trkpt lat="45.26053" lon="-122.84285">
<ele>40.7</ele></trkpt>
<trkpt lat="45.26235" lon="-122.84105">
<ele>37.1</ele></trkpt>
<trkpt lat="45.25963" lon="-122.83472">
<ele>59.8</ele></trkpt>
<trkpt lat="45.25957" lon="-122.78858">
<ele>56.8</ele></trkpt>
<trkpt lat="45.26758" lon="-122.78051">
<ele>59.5</ele></trkpt>
<trkpt lat="45.27978" lon="-122.78017">
<ele>50.5</ele></trkpt>
<trkpt lat="45.28547" lon="-122.77662">
<ele>51.7</ele></trkpt>
<trkpt lat="45.28727" lon="-122.77438">
<ele>48.75236429245034</ele></trkpt>
<trkpt lat="45.28429" lon="-122.76947">
<ele>48.0853857246501</ele></trkpt>
<trkpt lat="45.28537" lon="-122.7686">
<ele>47.866993930178545</ele></trkpt>
<trkpt lat="45.30304" lon="-122.76906">
<ele>48.2</ele></trkpt>
<trkpt lat="45.3034" lon="-122.77206">
<ele>47.8</ele></trkpt>
<trkpt lat="45.306" lon="-122.76982">
<ele>52.9</ele></trkpt>
<trkpt lat="45.31022" lon="-122.76981">
<ele>54.0</ele></trkpt>
<trkpt lat="45.31022" lon="-122.77206">
<ele>49.2</ele></trkpt>
<trkpt lat="45.3174" lon="-122.77209">
<ele>58.3</ele></trkpt>
<trkpt lat="45.3174" lon="-122.77429">
<ele>54.0</ele></trkpt>
<trkpt lat="45.32219" lon="-122.77241">
<ele>64.0</ele></trkpt>
<trkpt lat="45.33824" lon="-122.77278">
<ele>80.0</ele></trkpt>
<trkpt lat="45.34877" lon="-122.77511">
<ele>103.3</ele></trkpt>
<trkpt lat="45.36967" lon="-122.77233">
<ele>73.1</ele></trkpt>
<trkpt lat="45.37913" lon="-122.76444">
<ele>42.1</ele></trkpt>
<trkpt lat="45.39444" lon="-122.76427">
<ele>36.1</ele></trkpt>
<trkpt lat="45.39371" lon="-122.76656">
<ele>37.6</ele></trkpt>
<trkpt lat="45.39594" lon="-122.76911">
<ele>37.0</ele></trkpt>
<trkpt lat="45.3982" lon="-122.76754">
<ele>37.2</ele></trkpt>
<trkpt lat="45.39869" lon="-122.76448">
<ele>39.4</ele></trkpt>
<trkpt lat="45.41503" lon="-122.76442">
<ele>55.9</ele></trkpt>
<trkpt lat="45.42608" lon="-122.76584">
<ele>48.7</ele></trkpt>
<trkpt lat="45.43" lon="-122.77226">
<ele>48.3</ele></trkpt>
<trkpt lat="45.431234" lon="-122.770294">
<ele>51.3</ele></trkpt>
<trkpt lat="45.43402" lon="-122.77789">
<ele>53.6</ele></trkpt>
<trkpt lat="45.4399" lon="-122.77987">
<ele>50.9</ele></trkpt>
<trkpt lat="45.45328" lon="-122.77415">
<ele>74.7</ele></trkpt>
<trkpt lat="45.45684" lon="-122.78246">
<ele>76.9</ele></trkpt>
<trkpt lat="45.47249" lon="-122.77309">
<ele>71.8</ele></trkpt>
<trkpt lat="45.47351" lon="-122.77479">
<ele>72.3</ele></trkpt>
<trkpt lat="45.47904" lon="-122.77499">
<ele>77.0</ele></trkpt>
<trkpt lat="45.48271" lon="-122.77958">
<ele>67.2</ele></trkpt>
<trkpt lat="45.4838" lon="-122.77848">
<ele>63.4</ele></trkpt>
<trkpt lat="45.48374" lon="-122.78734">
<ele>60.1</ele></trkpt>
<trkpt lat="45.49655" lon="-122.78739">
<ele>73.9</ele></trkpt>
<trkpt lat="45.49656" lon="-122.78552">
<ele>76.6</ele></trkpt>
<trkpt lat="45.50019" lon="-122.78698">
<ele>96.4</ele></trkpt>
<trkpt lat="45.50126" lon="-122.77997">
<ele>121.0</ele></trkpt>
<trkpt lat="45.50578" lon="-122.77814">
<ele>132.1</ele></trkpt>
<trkpt lat="45.50797" lon="-122.78427">
<ele>123.2</ele></trkpt>
<trkpt lat="45.50999" lon="-122.78374">
<ele>125.5</ele></trkpt>
<trkpt lat="45.51064" lon="-122.78144">
<ele>126.9</ele></trkpt>
<trkpt lat="45.51123" lon="-122.78479">
<ele>118.6</ele></trkpt>
<trkpt lat="45.51257" lon="-122.78453">
<ele>111.6</ele></trkpt>
<trkpt lat="45.51646" lon="-122.79192">
<ele>96.3</ele></trkpt>
<trkpt lat="45.52644" lon="-122.79277">
<ele>104.5</ele></trkpt>
<trkpt lat="45.52702" lon="-122.79974">
<ele>85.8</ele></trkpt>
<trkpt lat="45.53823" lon="-122.79954">
<ele>157.1</ele></trkpt>
<trkpt lat="45.54018" lon="-122.78925">
<ele>180.9</ele></trkpt>
<trkpt lat="45.54741" lon="-122.78248">
<ele>207.8</ele></trkpt>
<trkpt lat="45.54899" lon="-122.77656">
<ele>240.8</ele></trkpt>
<trkpt lat="45.54564" lon="-122.76963">
<ele>282.5</ele></trkpt>
<trkpt lat="45.5459" lon="-122.76414">
<ele>309.9</ele></trkpt>
<trkpt lat="45.54307" lon="-122.76206">
<ele>330.4</ele></trkpt>
<trkpt lat="45.54398" lon="-122.76073">
<ele>338.6</ele></trkpt>
<trkpt lat="45.54665" lon="-122.76249">
<ele>341.2</ele></trkpt>
<trkpt lat="45.54698" lon="-122.7666">
<ele>336.7</ele></trkpt>
<trkpt lat="45.55138" lon="-122.77139">
<ele>340.2</ele></trkpt>
<trkpt lat="45.55462" lon="-122.77876">
<ele>341.5</ele></trkpt>
<trkpt lat="45.55687" lon="-122.77958">
<ele>337.1</ele></trkpt>
<trkpt lat="45.56238" lon="-122.7872">
<ele>332.0</ele></trkpt>
<trkpt lat="45.56663" lon="-122.7904">
<ele>328.1</ele></trkpt>
<trkpt lat="45.57197" lon="-122.79035">
<ele>327.7</ele></trkpt>
<trkpt lat="45.57337" lon="-122.79459">
<ele>332.4</ele></trkpt>
<trkpt lat="45.57719" lon="-122.79437">
<ele>330.3</ele></trkpt>
<trkpt lat="45.58298" lon="-122.79946">
<ele>293.9</ele></trkpt>
<trkpt lat="45.58703" lon="-122.79706">
<ele>257.3</ele></trkpt>
<trkpt lat="45.58991" lon="-122.79136">
<ele>208.9</ele></trkpt>
<trkpt lat="45.58875" lon="-122.78848">
<ele>181.8</ele></trkpt>
<trkpt lat="45.58667" lon="-122.78842">
<ele>166.6</ele></trkpt>
<trkpt lat="45.59037" lon="-122.78273">
<ele>111.0</ele></trkpt>
<trkpt lat="45.58707" lon="-122.77378">
<ele>40.5</ele></trkpt>
<trkpt lat="45.58327" lon="-122.76867">
<ele>55.36796765340426</ele></trkpt>
<trkpt lat="45.59011" lon="-122.75449">
<ele>45.48559311478682</ele></trkpt>
<trkpt lat="45.58931" lon="-122.75199">
<ele>43.920041871003605</ele></trkpt>
<trkpt lat="45.59363" lon="-122.74832">
<ele>38.7</ele></trkpt>
<trkpt lat="45.59127" lon="-122.73837">
<ele>37.8</ele></trkpt>
<trkpt lat="45.59457" lon="-122.72722">
<ele>22.8</ele></trkpt>
<trkpt lat="45.61372" lon="-122.70386">
<ele>9.5</ele></trkpt>
<trkpt lat="45.60854" lon="-122.68822">
<ele>11.0</ele></trkpt>
<trkpt lat="45.60509" lon="-122.68064">
<ele>8.5</ele></trkpt>
<trkpt lat="45.60371" lon="-122.68059">
<ele>11.2</ele></trkpt>
<trkpt lat="45.60528" lon="-122.68204">
<ele>13.5</ele></trkpt>
<trkpt lat="45.60783" lon="-122.68092">
<ele>2.8</ele></trkpt>
<trkpt lat="45.61072" lon="-122.67756">
<ele>11.2</ele></trkpt>
<trkpt lat="45.61324" lon="-122.67784">
<ele>9.5</ele></trkpt>
<trkpt lat="45.62159" lon="-122.67172">
<ele>9.6</ele></trkpt>
<trkpt lat="45.62213" lon="-122.67389">
<ele>9.3</ele></trkpt>
<trkpt lat="45.63183" lon="-122.67384">
<ele>29.1</ele></trkpt>
<trkpt lat="45.63181" lon="-122.66939">
<ele>27.0</ele></trkpt>
<trkpt lat="45.63289" lon="-122.68477">
<ele>16.6</ele></trkpt>
<trkpt lat="45.63787" lon="-122.69425">
<ele>10.1</ele></trkpt>
<trkpt lat="45.655" lon="-122.69078">
<ele>13.2</ele></trkpt>
<trkpt lat="45.66969" lon="-122.69251">
<ele>17.9</ele></trkpt>
<trkpt lat="45.67269" lon="-122.69077">
<ele>19.8</ele></trkpt>
<trkpt lat="45.68006" lon="-122.69314">
<ele>16.9</ele></trkpt>
<trkpt lat="45.68842" lon="-122.70177">
<ele>54.8</ele></trkpt>
<trkpt lat="45.7035" lon="-122.70357">
<ele>64.7</ele></trkpt>
<trkpt lat="45.70665" lon="-122.70819">
<ele>64.8</ele></trkpt>
<trkpt lat="45.72802" lon="-122.70602">
<ele>49.8</ele></trkpt>
<trkpt lat="45.73113" lon="-122.7074">
<ele>51.3</ele></trkpt>
<trkpt lat="45.73214" lon="-122.713">
<ele>53.3</ele></trkpt>
<trkpt lat="45.74861" lon="-122.7143">
<ele>38.2</ele></trkpt>
<trkpt lat="45.77157" lon="-122.71297">
<ele>68.3</ele></trkpt>
<trkpt lat="45.77238" lon="-122.70267">
<ele>69.6</ele></trkpt>
<trkpt lat="45.78672" lon="-122.70287">
<ele>84.1</ele></trkpt>
<trkpt lat="45.79167" lon="-122.70668">
<ele>88.6</ele></trkpt>
<trkpt lat="45.79482" lon="-122.69764">
<ele>53.7</ele></trkpt>
<trkpt lat="45.79197" lon="-122.68857">
<ele>71.2</ele></trkpt>
<trkpt lat="45.79593" lon="-122.66165">
<ele>70.5</ele></trkpt>
<trkpt lat="45.83226" lon="-122.66152">
<ele>76.4</ele></trkpt>
<trkpt lat="45.84438" lon="-122.66999">
<ele>96.1</ele></trkpt>
<trkpt lat="45.84701" lon="-122.66943">
<ele>78.3</ele></trkpt>
<trkpt lat="45.85338" lon="-122.67697">
<ele>44.9</ele></trkpt>
<trkpt lat="45.85688" lon="-122.6732">
<ele>4.1</ele></trkpt>
<trkpt lat="45.86124" lon="-122.67226">
<ele>21.8</ele></trkpt>
<trkpt lat="45.86571" lon="-122.67465">
<ele>51.0</ele></trkpt>
<trkpt lat="45.86675" lon="-122.68228">
<ele>43.1</ele></trkpt>
<trkpt lat="45.87381" lon="-122.6914">
<ele>77.0</ele></trkpt>
<trkpt lat="45.8728" lon="-122.69731">
<ele>51.4</ele></trkpt>
<trkpt lat="45.87504" lon="-122.71196">
<ele>52.7</ele></trkpt>
<trkpt lat="45.88132" lon="-122.72152">
<ele>35.4</ele></trkpt>
<trkpt lat="45.88844" lon="-122.72609">
<ele>35.5</ele></trkpt>
<trkpt lat="45.88883" lon="-122.73077">
<ele>45.3</ele></trkpt>
<trkpt lat="45.89427" lon="-122.72919">
<ele>27.2</ele></trkpt>
<trkpt lat="45.89711" lon="-122.73201">
<ele>15.3</ele></trkpt>
<trkpt lat="45.90047" lon="-122.73212">
<ele>11.0</ele></trkpt>
<trkpt lat="45.90592" lon="-122.73568">
<ele>14.9</ele></trkpt>
<trkpt lat="45.90636" lon="-122.74123">
<ele>12.9</ele></trkpt>
<trkpt lat="45.9084" lon="-122.73978">
<ele>10.5</ele></trkpt>
<trkpt lat="45.91515" lon="-122.74168">
<ele>10.0</ele></trkpt>
<trkpt lat="45.92468" lon="-122.74965">
<ele>7.9</ele></trkpt>
<trkpt lat="45.96436" lon="-122.8092">
<ele>25.2</ele></trkpt>
<trkpt lat="45.98338" lon="-122.82685">
<ele>15.3</ele></trkpt>
<trkpt lat="45.98982" lon="-122.82474">
<ele>42.3</ele></trkpt>
<trkpt lat="45.99284" lon="-122.82769">
<ele>44.8</ele></trkpt>
<trkpt lat="45.99869" lon="-122.83772">
<ele>36.4</ele></trkpt>
<trkpt lat="46.00542" lon="-122.84358">
<ele>15.3</ele></trkpt>
<trkpt lat="46.01632" lon="-122.84811">
<ele>17.4</ele></trkpt>
<trkpt lat="46.01997" lon="-122.84493">
<ele>15.6</ele></trkpt>
<trkpt lat="46.02452" lon="-122.84472">
<ele>22.1</ele></trkpt>
<trkpt lat="46.03032" lon="-122.85461">
<ele>10.4</ele></trkpt>
<trkpt lat="46.03997" lon="-122.85778">
<ele>7.2</ele></trkpt>
<trkpt lat="46.04268" lon="-122.85403">
<ele>7.1</ele></trkpt>
<trkpt lat="46.05096" lon="-122.85417">
<ele>10.5</ele></trkpt>
<trkpt lat="46.05558" lon="-122.86189">
<ele>49.7</ele></trkpt>
<trkpt lat="46.06621" lon="-122.86701">
<ele>64.2</ele></trkpt>
<trkpt lat="46.06983" lon="-122.86704">
<ele>39.9</ele></trkpt>
<trkpt lat="46.07236" lon="-122.86068">
<ele>21.2</ele></trkpt>
<trkpt lat="46.0746" lon="-122.86042">
<ele>15.1</ele></trkpt>
<trkpt lat="46.07943" lon="-122.86454">
<ele>15.7</ele></trkpt>
<trkpt lat="46.10591" lon="-122.87582">
<ele>36.7</ele></trkpt>
<trkpt lat="46.10811" lon="-122.87935">
<ele>5.6</ele></trkpt>
<trkpt lat="46.1348" lon="-122.89695">
<ele>17.3</ele></trkpt>
<trkpt lat="46.14513" lon="-122.8958">
<ele>8.2</ele></trkpt>
<trkpt lat="46.14349" lon="-122.90278">
<ele>7.8</ele></trkpt>
<trkpt lat="46.14555" lon="-122.91619">
<ele>7.8</ele></trkpt>
<trkpt lat="46.1748" lon="-122.9144">
<ele>8.8</ele></trkpt>
<trkpt lat="46.17995" lon="-122.90651">
<ele>8.3</ele></trkpt>
<trkpt lat="46.18341" lon="-122.90463">
<ele>8.1</ele></trkpt>
<trkpt lat="46.19474" lon="-122.90901">
<ele>8.5</ele></trkpt>
<trkpt lat="46.1992" lon="-122.91407">
<ele>7.5</ele></trkpt>
<trkpt lat="46.20612" lon="-122.91676">
<ele>19.2</ele></trkpt>
<trkpt lat="46.21657" lon="-122.91632">
<ele>23.6</ele></trkpt>
<trkpt lat="46.23594" lon="-122.90795">
<ele>12.6</ele></trkpt>
<trkpt lat="46.24996" lon="-122.89969">
<ele>34.5</ele></trkpt>
<trkpt lat="46.25411" lon="-122.90434">
<ele>35.5</ele></trkpt>
<trkpt lat="46.25795" lon="-122.90535">
<ele>47.5</ele></trkpt>
<trkpt lat="46.26336" lon="-122.91371">
<ele>49.2</ele></trkpt>
<trkpt lat="46.26355" lon="-122.92316">
<ele>29.6</ele></trkpt>
<trkpt lat="46.26548" lon="-122.92573">
<ele>16.0</ele></trkpt>
<trkpt lat="46.28892" lon="-122.91785">
<ele>18.7</ele></trkpt>
<trkpt lat="46.30834" lon="-122.92874">
<ele>69.9</ele></trkpt>
<trkpt lat="46.31671" lon="-122.92823">
<ele>83.3</ele></trkpt>
<trkpt lat="46.32137" lon="-122.93076">
<ele>60.8</ele></trkpt>
<trkpt lat="46.32703" lon="-122.92863">
<ele>55.0</ele></trkpt>
<trkpt lat="46.33208" lon="-122.93038">
<ele>37.7</ele></trkpt>
<trkpt lat="46.33788" lon="-122.93642">
<ele>25.4</ele></trkpt>
<trkpt lat="46.34708" lon="-122.94026">
<ele>25.6</ele></trkpt>
<trkpt lat="46.35898" lon="-122.93365">
<ele>30.2</ele></trkpt>
<trkpt lat="46.36484" lon="-122.93601">
<ele>35.9</ele></trkpt>
<trkpt lat="46.37222" lon="-122.94362">
<ele>43.5</ele></trkpt>
<trkpt lat="46.37657" lon="-122.94166">
<ele>34.5</ele></trkpt>
<trkpt lat="46.38336" lon="-122.94203">
<ele>51.6</ele></trkpt>
<trkpt lat="46.40184" lon="-122.94554">
<ele>71.7</ele></trkpt>
<trkpt lat="46.40311" lon="-122.94686">
<ele>83.4</ele></trkpt>
<trkpt lat="46.402" lon="-122.94967">
<ele>76.1</ele></trkpt>
<trkpt lat="46.40198" lon="-122.96298">
<ele>44.3</ele></trkpt>
<trkpt lat="46.41457" lon="-122.96331">
<ele>47.8</ele></trkpt>
<trkpt lat="46.41522" lon="-122.96993">
<ele>55.0</ele></trkpt>
<trkpt lat="46.43012" lon="-122.97138">
<ele>56.8</ele></trkpt>
<trkpt lat="46.4437" lon="-122.96992">
<ele>67.9</ele></trkpt>
<trkpt lat="46.44929" lon="-122.9635">
<ele>64.4</ele></trkpt>
<trkpt lat="46.45487" lon="-122.96029">
<ele>65.0</ele></trkpt>
<trkpt lat="46.46265" lon="-122.95912">
<ele>72.3</ele></trkpt>
<trkpt lat="46.48006" lon="-122.95059">
<ele>85.7</ele></trkpt>
<trkpt lat="46.49115" lon="-122.93814">
<ele>92.3</ele></trkpt>
<trkpt lat="46.50271" lon="-122.94952">
<ele>134.9</ele></trkpt>
<trkpt lat="46.54351" lon="-122.9495">
<ele>116.7</ele></trkpt>
<trkpt lat="46.54434" lon="-122.95244">
<ele>114.9</ele></trkpt>
<trkpt lat="46.55734" lon="-122.95904">
<ele>88.0</ele></trkpt>
<trkpt lat="46.56218" lon="-122.96525">
<ele>81.2</ele></trkpt>
<trkpt lat="46.57069" lon="-122.96831">
<ele>73.5</ele></trkpt>
<trkpt lat="46.57611" lon="-122.97253">
<ele>78.8</ele></trkpt>
<trkpt lat="46.57741" lon="-122.97659">
<ele>84.8</ele></trkpt>
<trkpt lat="46.57818" lon="-122.97149">
<ele>119.8</ele></trkpt>
<trkpt lat="46.57993" lon="-122.97137">
<ele>125.7</ele></trkpt>
<trkpt lat="46.59149" lon="-122.97132">
<ele>98.2</ele></trkpt>
<trkpt lat="46.59282" lon="-122.97285">
<ele>112.8</ele></trkpt>
<trkpt lat="46.59608" lon="-122.97117">
<ele>115.9</ele></trkpt>
<trkpt lat="46.62339" lon="-122.97133">
<ele>120.2</ele></trkpt>
<trkpt lat="46.62487" lon="-122.96791">
<ele>119.0</ele></trkpt>
<trkpt lat="46.62722" lon="-122.96736">
<ele>102.7</ele></trkpt>
<trkpt lat="46.64093" lon="-122.97166">
<ele>57.7</ele></trkpt>
<trkpt lat="46.64143" lon="-122.97907">
<ele>64.8</ele></trkpt>
<trkpt lat="46.64346" lon="-122.98177">
<ele>56.8</ele></trkpt>
<trkpt lat="46.65838" lon="-122.97853">
<ele>55.9</ele></trkpt>
<trkpt lat="46.66015" lon="-122.9808">
<ele>55.9</ele></trkpt>
<trkpt lat="46.66287" lon="-122.9795">
<ele>55.9</ele></trkpt>
<trkpt lat="46.66766" lon="-122.98109">
<ele>57.6</ele></trkpt>
<trkpt lat="46.66957" lon="-122.98691">
<ele>55.5</ele></trkpt>
<trkpt lat="46.67385" lon="-122.98765">
<ele>50.5</ele></trkpt>
<trkpt lat="46.68566" lon="-122.98489">
<ele>52.7</ele></trkpt>
<trkpt lat="46.68779" lon="-122.97216">
<ele>52.8</ele></trkpt>
<trkpt lat="46.6975" lon="-122.97116">
<ele>52.4</ele></trkpt>
<trkpt lat="46.71161" lon="-122.97721">
<ele>52.0</ele></trkpt>
<trkpt lat="46.71191" lon="-122.97422">
<ele>50.5</ele></trkpt>
<trkpt lat="46.71408" lon="-122.97149">
<ele>53.2</ele></trkpt>
<trkpt lat="46.71742" lon="-122.97094">
<ele>54.2</ele></trkpt>
<trkpt lat="46.71893" lon="-122.96708">
<ele>55.9</ele></trkpt>
<trkpt lat="46.72241" lon="-122.96917">
<ele>50.8</ele></trkpt>
<trkpt lat="46.7266" lon="-122.97544">
<ele>55.2</ele></trkpt>
<trkpt lat="46.73083" lon="-122.98483">
<ele>55.4</ele></trkpt>
<trkpt lat="46.75115" lon="-123.00194">
<ele>51.4</ele></trkpt>
<trkpt lat="46.76218" lon="-123.00343">
<ele>53.2</ele></trkpt>
<trkpt lat="46.78507" lon="-123.01141">
<ele>49.0</ele></trkpt>
<trkpt lat="46.808" lon="-123.0117">
<ele>54.6</ele></trkpt>
<trkpt lat="46.80798" lon="-123.00771">
<ele>55.1</ele></trkpt>
<trkpt lat="46.82225" lon="-123.00729">
<ele>56.8</ele></trkpt>
<trkpt lat="46.82236" lon="-122.9993">
<ele>59.0</ele></trkpt>
<trkpt lat="46.82376" lon="-122.99696">
<ele>59.6</ele></trkpt>
<trkpt lat="46.8583" lon="-122.97501">
<ele>76.1</ele></trkpt>
<trkpt lat="46.86715" lon="-122.97551">
<ele>79.8</ele></trkpt>
<trkpt lat="46.88614" lon="-122.96525">
<ele>71.4</ele></trkpt>
<trkpt lat="46.89699" lon="-122.96611">
<ele>59.3</ele></trkpt>
<trkpt lat="46.91211" lon="-122.95875">
<ele>57.8</ele></trkpt>
<trkpt lat="46.91967" lon="-122.94829">
<ele>58.9</ele></trkpt>
<trkpt lat="46.92362" lon="-122.94703">
<ele>58.9</ele></trkpt>
<trkpt lat="46.9236" lon="-122.94312">
<ele>59.1</ele></trkpt>
<trkpt lat="46.93432" lon="-122.93452">
<ele>59.2</ele></trkpt>
<trkpt lat="46.95451" lon="-122.91247">
<ele>62.0</ele></trkpt>
<trkpt lat="46.95893" lon="-122.91007">
<ele>62.0</ele></trkpt>
<trkpt lat="46.96004" lon="-122.91027">
<ele>62.0</ele></trkpt>
<trkpt lat="46.96006" lon="-122.91318">
<ele>62.0</ele></trkpt>
<trkpt lat="46.96718" lon="-122.91332">
<ele>61.8</ele></trkpt>
<trkpt lat="46.96727" lon="-122.91838">
<ele>61.8</ele></trkpt>
<trkpt lat="46.9895" lon="-122.91898">
<ele>56.4</ele></trkpt>
<trkpt lat="46.99789" lon="-122.91263">
<ele>53.1</ele></trkpt>
<trkpt lat="46.99798" lon="-122.90791">
<ele>53.7</ele></trkpt>
<trkpt lat="47.00364" lon="-122.90935">
<ele>50.1</ele></trkpt>
<trkpt lat="47.01521" lon="-122.90249">
<ele>36.0</ele></trkpt>
<trkpt lat="47.02226" lon="-122.89567">
<ele>50.3</ele></trkpt>
<trkpt lat="47.02653" lon="-122.90081">
<ele>53.7</ele></trkpt>
<trkpt lat="47.04285" lon="-122.90137">
<ele>7.3</ele></trkpt></trkseg></trk></gpx>
