<?xml version="1.0" encoding="UTF-8"?>
<gpx xmlns="http://www.topografix.com/GPX/1/0" xmlns:xsi="http://www.w3.org/2001/XMLSchema-instance" xsi:schemaLocation="http://www.topografix.com/GPX/1/0 http://www.topografix.com/GPX/1/0/gpx.xsd" version="1.0" creator="http://ridewithgps.com/">
<author>RideWithGPS LLC</author>
<url>http://ridewithgps.com/routes/13014029</url>
<time>2016-04-09T08:58:58Z</time>
<trk>
<name>Team Sensual Mouth</name>
<trkseg>
<trkpt lat="47.5983" lon="-122.29869">
<ele>79.8</ele></trkpt>
<trkpt lat="47.59928" lon="-122.30163">
<ele>90.2</ele></trkpt>
<trkpt lat="47.59836" lon="-122.32636">
<ele>17.6</ele></trkpt>
<trkpt lat="47.59536" lon="-122.32699">
<ele>12.1</ele></trkpt>
<trkpt lat="47.58838" lon="-122.3214">
<ele>11.0</ele></trkpt>
<trkpt lat="47.55859" lon="-122.3231">
<ele>8.4</ele></trkpt>
<trkpt lat="47.55341" lon="-122.32116">
<ele>5.9</ele></trkpt>
<trkpt lat="47.54922" lon="-122.31689">
<ele>6.3</ele></trkpt>
<trkpt lat="47.53867" lon="-122.32062">
<ele>2.8</ele></trkpt>
<trkpt lat="47.52811" lon="-122.30409">
<ele>3.8</ele></trkpt>
<trkpt lat="47.50952" lon="-122.29208">
<ele>3.5</ele></trkpt>
<trkpt lat="47.4993" lon="-122.28777">
<ele>5.5</ele></trkpt>
<trkpt lat="47.49547" lon="-122.28189">
<ele>4.8</ele></trkpt>
<trkpt lat="47.49012" lon="-122.2806">
<ele>5.0</ele></trkpt>
<trkpt lat="47.49094" lon="-122.2728">
<ele>3.9</ele></trkpt>
<trkpt lat="47.48844" lon="-122.27062">
<ele>3.9</ele></trkpt>
<trkpt lat="47.48862" lon="-122.26629">
<ele>3.8</ele></trkpt>
<trkpt lat="47.4871" lon="-122.26547">
<ele>4.0</ele></trkpt>
<trkpt lat="47.48314" lon="-122.2693">
<ele>5.2</ele></trkpt>
<trkpt lat="47.47634" lon="-122.25877">
<ele>8.5</ele></trkpt>
<trkpt lat="47.47657" lon="-122.25473">
<ele>4.1</ele></trkpt>
<trkpt lat="47.4748" lon="-122.25201">
<ele>4.4</ele></trkpt>
<trkpt lat="47.47217" lon="-122.25288">
<ele>4.0</ele></trkpt>
<trkpt lat="47.46724" lon="-122.25033">
<ele>12.2</ele></trkpt>
<trkpt lat="47.46891" lon="-122.24634">
<ele>3.7</ele></trkpt>
<trkpt lat="47.46728" lon="-122.24439">
<ele>3.8</ele></trkpt>
<trkpt lat="47.46428" lon="-122.24932">
<ele>6.6</ele></trkpt>
<trkpt lat="47.45955" lon="-122.24849">
<ele>4.6</ele></trkpt>
<trkpt lat="47.45905" lon="-122.24582">
<ele>4.7</ele></trkpt>
<trkpt lat="47.45653" lon="-122.24691">
<ele>4.5</ele></trkpt>
<trkpt lat="47.45459" lon="-122.24409">
<ele>4.8</ele></trkpt>
<trkpt lat="47.45117" lon="-122.24758">
<ele>4.9</ele></trkpt>
<trkpt lat="47.448" lon="-122.24411">
<ele>5.2</ele></trkpt>
<trkpt lat="47.44478" lon="-122.24696">
<ele>5.3</ele></trkpt>
<trkpt lat="47.43933" lon="-122.24633">
<ele>5.4</ele></trkpt>
<trkpt lat="47.44097" lon="-122.25197">
<ele>5.7</ele></trkpt>
<trkpt lat="47.4333" lon="-122.25619">
<ele>5.8</ele></trkpt>
<trkpt lat="47.43364" lon="-122.26233">
<ele>5.8</ele></trkpt>
<trkpt lat="47.43041" lon="-122.25776">
<ele>5.9</ele></trkpt>
<trkpt lat="47.42864" lon="-122.26478">
<ele>6.0</ele></trkpt>
<trkpt lat="47.42547" lon="-122.26668">
<ele>6.2</ele></trkpt>
<trkpt lat="47.42116" lon="-122.2646">
<ele>8.5</ele></trkpt>
<trkpt lat="47.41669" lon="-122.26714">
<ele>11.4</ele></trkpt>
<trkpt lat="47.41342" lon="-122.2638">
<ele>7.0</ele></trkpt>
<trkpt lat="47.40342" lon="-122.27343">
<ele>8.6</ele></trkpt>
<trkpt lat="47.39816" lon="-122.27543">
<ele>9.0</ele></trkpt>
<trkpt lat="47.39623" lon="-122.27257">
<ele>9.9</ele></trkpt>
<trkpt lat="47.39364" lon="-122.27422">
<ele>9.4</ele></trkpt>
<trkpt lat="47.39104" lon="-122.27115">
<ele>9.7</ele></trkpt>
<trkpt lat="47.38875" lon="-122.27226">
<ele>10.7</ele></trkpt>
<trkpt lat="47.38797" lon="-122.2654">
<ele>8.9</ele></trkpt>
<trkpt lat="47.38643" lon="-122.2635">
<ele>12.6</ele></trkpt>
<trkpt lat="47.38478" lon="-122.26507">
<ele>8.9</ele></trkpt>
<trkpt lat="47.38498" lon="-122.26998">
<ele>8.9</ele></trkpt>
<trkpt lat="47.38376" lon="-122.27124">
<ele>12.3</ele></trkpt>
<trkpt lat="47.38075" lon="-122.26758">
<ele>12.3</ele></trkpt>
<trkpt lat="47.37717" lon="-122.26739">
<ele>12.9</ele></trkpt>
<trkpt lat="47.37883" lon="-122.25713">
<ele>8.9</ele></trkpt>
<trkpt lat="47.37184" lon="-122.25593">
<ele>11.8</ele></trkpt>
<trkpt lat="47.37657" lon="-122.2535">
<ele>9.4</ele></trkpt>
<trkpt lat="47.37703" lon="-122.24684">
<ele>9.0</ele></trkpt>
<trkpt lat="47.37033" lon="-122.24474">
<ele>10.7</ele></trkpt>
<trkpt lat="47.36982" lon="-122.24044">
<ele>10.8</ele></trkpt>
<trkpt lat="47.36507" lon="-122.23955">
<ele>11.8</ele></trkpt>
<trkpt lat="47.2964" lon="-122.23957">
<ele>25.6</ele></trkpt>
<trkpt lat="47.27602" lon="-122.25262">
<ele>23.4</ele></trkpt>
<trkpt lat="47.27541" lon="-122.24998">
<ele>28.6</ele></trkpt>
<trkpt lat="47.26464" lon="-122.25021">
<ele>23.9</ele></trkpt>
<trkpt lat="47.26467" lon="-122.24494">
<ele>25.3</ele></trkpt>
<trkpt lat="47.25012" lon="-122.24519">
<ele>20.3</ele></trkpt>
<trkpt lat="47.24995" lon="-122.23749">
<ele>21.0</ele></trkpt>
<trkpt lat="47.24592" lon="-122.23848">
<ele>23.9</ele></trkpt>
<trkpt lat="47.24491" lon="-122.23475">
<ele>17.0</ele></trkpt>
<trkpt lat="47.2402" lon="-122.23454">
<ele>16.3</ele></trkpt>
<trkpt lat="47.23556" lon="-122.23716">
<ele>16.6</ele></trkpt>
<trkpt lat="47.23543" lon="-122.23381">
<ele>17.2</ele></trkpt>
<trkpt lat="47.23354" lon="-122.23163">
<ele>17.0</ele></trkpt>
<trkpt lat="47.22813" lon="-122.22925">
<ele>18.5</ele></trkpt>
<trkpt lat="47.22763" lon="-122.23105">
<ele>16.8</ele></trkpt>
<trkpt lat="47.22244" lon="-122.23359">
<ele>16.4</ele></trkpt>
<trkpt lat="47.21895" lon="-122.23076">
<ele>16.6</ele></trkpt>
<trkpt lat="47.21624" lon="-122.23887">
<ele>12.9</ele></trkpt>
<trkpt lat="47.21212" lon="-122.24206">
<ele>16.3</ele></trkpt>
<trkpt lat="47.20222" lon="-122.24444">
<ele>21.9</ele></trkpt>
<trkpt lat="47.19596" lon="-122.25146">
<ele>16.5</ele></trkpt>
<trkpt lat="47.199" lon="-122.25937">
<ele>13.3</ele></trkpt>
<trkpt lat="47.19319" lon="-122.27967">
<ele>8.4</ele></trkpt>
<trkpt lat="47.19264" lon="-122.28764">
<ele>15.6</ele></trkpt>
<trkpt lat="47.19911" lon="-122.28827">
<ele>10.1</ele></trkpt>
<trkpt lat="47.20184" lon="-122.29247">
<ele>7.7</ele></trkpt>
<trkpt lat="47.20384" lon="-122.3116">
<ele>6.8</ele></trkpt>
<trkpt lat="47.21098" lon="-122.33715">
<ele>7.4</ele></trkpt>
<trkpt lat="47.22264" lon="-122.35874">
<ele>7.2</ele></trkpt>
<trkpt lat="47.23722" lon="-122.39637">
<ele>6.6</ele></trkpt>
<trkpt lat="47.23931" lon="-122.39866">
<ele>6.2</ele></trkpt>
<trkpt lat="47.2407" lon="-122.40965">
<ele>6.0</ele></trkpt>
<trkpt lat="47.24316" lon="-122.41122">
<ele>5.3</ele></trkpt>
<trkpt lat="47.24063" lon="-122.42952">
<ele>10.2</ele></trkpt>
<trkpt lat="47.23971" lon="-122.42929">
<ele>15.3</ele></trkpt>
<trkpt lat="47.23549" lon="-122.46963">
<ele>111.0</ele></trkpt>
<trkpt lat="47.23596" lon="-122.49816">
<ele>99.0</ele></trkpt>
<trkpt lat="47.2464" lon="-122.5049">
<ele>103.4</ele></trkpt>
<trkpt lat="47.24805" lon="-122.50876">
<ele>99.3</ele></trkpt>
<trkpt lat="47.25215" lon="-122.51242">
<ele>97.7</ele></trkpt>
<trkpt lat="47.25552" lon="-122.51304">
<ele>106.8</ele></trkpt>
<trkpt lat="47.25747" lon="-122.51783">
<ele>111.2</ele></trkpt>
<trkpt lat="47.2582" lon="-122.52617">
<ele>115.3</ele></trkpt>
<trkpt lat="47.25816" lon="-122.53127">
<ele>110.8</ele></trkpt>
<trkpt lat="47.25594" lon="-122.53134">
<ele>107.5</ele></trkpt>
<trkpt lat="47.25633" lon="-122.53451">
<ele>98.3</ele></trkpt>
<trkpt lat="47.2757" lon="-122.56029">
<ele>50.1</ele></trkpt>
<trkpt lat="47.27983" lon="-122.56201">
<ele>74.5</ele></trkpt>
<trkpt lat="47.27984" lon="-122.55796">
<ele>75.2</ele></trkpt>
<trkpt lat="47.28743" lon="-122.55795">
<ele>79.8</ele></trkpt>
<trkpt lat="47.28906" lon="-122.56128">
<ele>73.6</ele></trkpt>
<trkpt lat="47.30308" lon="-122.57366">
<ele>84.8</ele></trkpt>
<trkpt lat="47.30878" lon="-122.57511">
<ele>88.7</ele></trkpt>
<trkpt lat="47.30981" lon="-122.57968">
<ele>102.2</ele></trkpt>
<trkpt lat="47.31629" lon="-122.58548">
<ele>94.0</ele></trkpt>
<trkpt lat="47.32335" lon="-122.58771">
<ele>92.7</ele></trkpt>
<trkpt lat="47.32342" lon="-122.591">
<ele>92.6</ele></trkpt>
<trkpt lat="47.32809" lon="-122.59456">
<ele>60.5</ele></trkpt>
<trkpt lat="47.34958" lon="-122.60618">
<ele>47.6</ele></trkpt>
<trkpt lat="47.35187" lon="-122.60539">
<ele>53.1</ele></trkpt>
<trkpt lat="47.35319" lon="-122.60782">
<ele>52.8</ele></trkpt>
<trkpt lat="47.35867" lon="-122.6089">
<ele>66.1</ele></trkpt>
<trkpt lat="47.35893" lon="-122.61724">
<ele>49.8</ele></trkpt>
<trkpt lat="47.38468" lon="-122.62605">
<ele>5.3</ele></trkpt>
<trkpt lat="47.37896" lon="-122.6434">
<ele>8.7</ele></trkpt>
<trkpt lat="47.38364" lon="-122.64664">
<ele>73.5</ele></trkpt>
<trkpt lat="47.38874" lon="-122.65863">
<ele>96.2</ele></trkpt>
<trkpt lat="47.38895" lon="-122.67002">
<ele>81.0</ele></trkpt>
<trkpt lat="47.38234" lon="-122.68114">
<ele>86.7</ele></trkpt>
<trkpt lat="47.37475" lon="-122.68937">
<ele>43.9</ele></trkpt>
<trkpt lat="47.37443" lon="-122.69687">
<ele>22.0</ele></trkpt>
<trkpt lat="47.37128" lon="-122.70208">
<ele>8.7</ele></trkpt>
<trkpt lat="47.37052" lon="-122.71298">
<ele>60.1</ele></trkpt>
<trkpt lat="47.36798" lon="-122.71627">
<ele>72.7</ele></trkpt>
<trkpt lat="47.37434" lon="-122.71621">
<ele>73.8</ele></trkpt>
<trkpt lat="47.37736" lon="-122.72741">
<ele>69.6</ele></trkpt>
<trkpt lat="47.37733" lon="-122.75545">
<ele>58.4</ele></trkpt>
<trkpt lat="47.37073" lon="-122.75924">
<ele>67.6</ele></trkpt>
<trkpt lat="47.36726" lon="-122.76987">
<ele>58.2</ele></trkpt>
<trkpt lat="47.3686" lon="-122.77285">
<ele>47.1</ele></trkpt>
<trkpt lat="47.37278" lon="-122.77317">
<ele>41.6</ele></trkpt>
<trkpt lat="47.37453" lon="-122.77814">
<ele>19.0</ele></trkpt>
<trkpt lat="47.36233" lon="-122.79099">
<ele>16.4</ele></trkpt>
<trkpt lat="47.35992" lon="-122.80537">
<ele>12.1</ele></trkpt>
<trkpt lat="47.37113" lon="-122.81351">
<ele>8.5</ele></trkpt>
<trkpt lat="47.37818" lon="-122.81606">
<ele>11.3</ele></trkpt>
<trkpt lat="47.39273" lon="-122.81134">
<ele>10.2</ele></trkpt>
<trkpt lat="47.40525" lon="-122.81556">
<ele>7.3</ele></trkpt>
<trkpt lat="47.41278" lon="-122.82958">
<ele>55.4</ele></trkpt>
<trkpt lat="47.41092" lon="-122.8337">
<ele>81.5</ele></trkpt>
<trkpt lat="47.41092" lon="-122.84155">
<ele>84.7</ele></trkpt>
<trkpt lat="47.41367" lon="-122.84459">
<ele>80.1</ele></trkpt>
<trkpt lat="47.42342" lon="-122.84719">
<ele>58.8</ele></trkpt>
<trkpt lat="47.43261" lon="-122.84112">
<ele>13.4</ele></trkpt>
<trkpt lat="47.42749" lon="-122.85412">
<ele>9.2</ele></trkpt>
<trkpt lat="47.4227" lon="-122.86165">
<ele>13.9</ele></trkpt>
<trkpt lat="47.40863" lon="-122.87801">
<ele>6.3</ele></trkpt>
<trkpt lat="47.40389" lon="-122.89261">
<ele>3.9</ele></trkpt>
<trkpt lat="47.3886" lon="-122.91209">
<ele>2.6</ele></trkpt>
<trkpt lat="47.38852" lon="-122.92021">
<ele>4.6</ele></trkpt>
<trkpt lat="47.38245" lon="-122.94149">
<ele>2.8</ele></trkpt>
<trkpt lat="47.37684" lon="-122.97717">
<ele>2.8</ele></trkpt>
<trkpt lat="47.36886" lon="-122.99598">
<ele>4.1</ele></trkpt>
<trkpt lat="47.35353" lon="-123.02008">
<ele>5.0</ele></trkpt>
<trkpt lat="47.35073" lon="-123.02962">
<ele>4.3</ele></trkpt>
<trkpt lat="47.349" lon="-123.04088">
<ele>3.9</ele></trkpt>
<trkpt lat="47.34951" lon="-123.05602">
<ele>4.2</ele></trkpt>
<trkpt lat="47.34656" lon="-123.07128">
<ele>15.8</ele></trkpt>
<trkpt lat="47.3483" lon="-123.07413">
<ele>2.7</ele></trkpt>
<trkpt lat="47.35124" lon="-123.07279">
<ele>6.4</ele></trkpt>
<trkpt lat="47.35272" lon="-123.07473">
<ele>6.0</ele></trkpt>
<trkpt lat="47.35226" lon="-123.08051">
<ele>3.8</ele></trkpt>
<trkpt lat="47.35588" lon="-123.08593">
<ele>4.4</ele></trkpt>
<trkpt lat="47.35699" lon="-123.10477">
<ele>5.4</ele></trkpt>
<trkpt lat="47.337" lon="-123.11166">
<ele>6.3</ele></trkpt>
<trkpt lat="47.32872" lon="-123.1188">
<ele>6.5</ele></trkpt>
<trkpt lat="47.31858" lon="-123.13304">
<ele>7.2</ele></trkpt>
<trkpt lat="47.32034" lon="-123.14469">
<ele>4.7</ele></trkpt>
<trkpt lat="47.32323" lon="-123.15069">
<ele>4.1</ele></trkpt>
<trkpt lat="47.32704" lon="-123.15435">
<ele>7.4</ele></trkpt>
<trkpt lat="47.33305" lon="-123.15445">
<ele>6.9</ele></trkpt>
<trkpt lat="47.34034" lon="-123.16108">
<ele>7.0</ele></trkpt>
<trkpt lat="47.35312" lon="-123.16075">
<ele>7.1</ele></trkpt>
<trkpt lat="47.36109" lon="-123.15776">
<ele>7.5</ele></trkpt>
<trkpt lat="47.37067" lon="-123.15927">
<ele>5.4</ele></trkpt>
<trkpt lat="47.37564" lon="-123.15319">
<ele>22.7</ele></trkpt>
<trkpt lat="47.38575" lon="-123.14714">
<ele>8.6</ele></trkpt>
<trkpt lat="47.40592" lon="-123.14088">
<ele>6.9</ele></trkpt>
<trkpt lat="47.38424" lon="-123.14791">
<ele>7.2</ele></trkpt>
<trkpt lat="47.37534" lon="-123.15344">
<ele>23.0</ele></trkpt>
<trkpt lat="47.37037" lon="-123.15936">
<ele>4.1</ele></trkpt>
<trkpt lat="47.36081" lon="-123.15778">
<ele>7.7</ele></trkpt>
<trkpt lat="47.35278" lon="-123.1608">
<ele>7.9</ele></trkpt>
<trkpt lat="47.33432" lon="-123.16102">
<ele>12.5</ele></trkpt>
<trkpt lat="47.30607" lon="-123.17869">
<ele>7.7</ele></trkpt>
<trkpt lat="47.30904" lon="-123.18164">
<ele>8.3</ele></trkpt>
<trkpt lat="47.30846" lon="-123.18573">
<ele>8.8</ele></trkpt>
<trkpt lat="47.31266" lon="-123.1864">
<ele>10.9</ele></trkpt>
<trkpt lat="47.31269" lon="-123.20279">
<ele>9.1</ele></trkpt>
<trkpt lat="47.31627" lon="-123.20759">
<ele>12.5</ele></trkpt>
<trkpt lat="47.31626" lon="-123.22207">
<ele>13.7</ele></trkpt>
<trkpt lat="47.31259" lon="-123.22682">
<ele>15.3</ele></trkpt>
<trkpt lat="47.31163" lon="-123.23959">
<ele>17.5</ele></trkpt>
<trkpt lat="47.30911" lon="-123.23973">
<ele>19.0</ele></trkpt>
<trkpt lat="47.31001" lon="-123.24531">
<ele>61.0</ele></trkpt>
<trkpt lat="47.30661" lon="-123.23887">
<ele>110.7</ele></trkpt>
<trkpt lat="47.30628" lon="-123.23377">
<ele>143.5</ele></trkpt>
<trkpt lat="47.30257" lon="-123.23845">
<ele>154.4</ele></trkpt>
<trkpt lat="47.3025" lon="-123.24379">
<ele>153.1</ele></trkpt>
<trkpt lat="47.29028" lon="-123.2543">
<ele>157.3</ele></trkpt>
<trkpt lat="47.27763" lon="-123.247">
<ele>140.9</ele></trkpt>
<trkpt lat="47.27511" lon="-123.2557">
<ele>139.4</ele></trkpt>
<trkpt lat="47.26718" lon="-123.26708">
<ele>128.2</ele></trkpt>
<trkpt lat="47.26484" lon="-123.27387">
<ele>133.0</ele></trkpt>
<trkpt lat="47.25904" lon="-123.2706">
<ele>130.5</ele></trkpt>
<trkpt lat="47.25942" lon="-123.27707">
<ele>135.1</ele></trkpt>
<trkpt lat="47.25731" lon="-123.28204">
<ele>139.2</ele></trkpt>
<trkpt lat="47.25079" lon="-123.28469">
<ele>135.3</ele></trkpt>
<trkpt lat="47.24669" lon="-123.29115">
<ele>136.1</ele></trkpt>
<trkpt lat="47.24133" lon="-123.28808">
<ele>125.3</ele></trkpt>
<trkpt lat="47.2417" lon="-123.29237">
<ele>128.7</ele></trkpt>
<trkpt lat="47.24042" lon="-123.29299">
<ele>131.2</ele></trkpt>
<trkpt lat="47.2431" lon="-123.30371">
<ele>137.0</ele></trkpt>
<trkpt lat="47.24264" lon="-123.31994">
<ele>148.3</ele></trkpt>
<trkpt lat="47.23442" lon="-123.33762">
<ele>145.2</ele></trkpt>
<trkpt lat="47.23562" lon="-123.35105">
<ele>140.3</ele></trkpt>
<trkpt lat="47.23979" lon="-123.36672">
<ele>146.9</ele></trkpt>
<trkpt lat="47.23608" lon="-123.37539">
<ele>125.7</ele></trkpt>
<trkpt lat="47.23707" lon="-123.389">
<ele>130.8</ele></trkpt>
<trkpt lat="47.23606" lon="-123.39244">
<ele>136.8</ele></trkpt>
<trkpt lat="47.23814" lon="-123.4079">
<ele>138.9</ele></trkpt>
<trkpt lat="47.23021" lon="-123.40774">
<ele>134.1</ele></trkpt>
<trkpt lat="47.19747" lon="-123.43463">
<ele>109.7</ele></trkpt>
<trkpt lat="47.1745" lon="-123.44582">
<ele>97.4</ele></trkpt>
<trkpt lat="47.15774" lon="-123.46333">
<ele>82.4</ele></trkpt>
<trkpt lat="47.13972" lon="-123.46843">
<ele>76.6</ele></trkpt>
<trkpt lat="47.12225" lon="-123.48152">
<ele>69.0</ele></trkpt>
<trkpt lat="47.09411" lon="-123.48939">
<ele>54.8</ele></trkpt>
<trkpt lat="47.07243" lon="-123.48937">
<ele>30.9</ele></trkpt>
<trkpt lat="47.06208" lon="-123.50224">
<ele>34.6</ele></trkpt>
<trkpt lat="47.05801" lon="-123.51092">
<ele>38.2</ele></trkpt>
<trkpt lat="47.0492" lon="-123.51753">
<ele>27.9</ele></trkpt>
<trkpt lat="47.04152" lon="-123.52813">
<ele>25.4</ele></trkpt>
<trkpt lat="47.03586" lon="-123.52909">
<ele>24.6</ele></trkpt>
<trkpt lat="47.0278" lon="-123.52508">
<ele>22.1</ele></trkpt>
<trkpt lat="47.01709" lon="-123.52342">
<ele>23.8</ele></trkpt>
<trkpt lat="47.00608" lon="-123.51587">
<ele>13.5</ele></trkpt>
<trkpt lat="47.0029" lon="-123.51165">
<ele>13.5</ele></trkpt>
<trkpt lat="46.99717" lon="-123.51171">
<ele>14.8</ele></trkpt>
<trkpt lat="46.99385" lon="-123.51999">
<ele>14.5</ele></trkpt>
<trkpt lat="46.98093" lon="-123.57983">
<ele>10.5</ele></trkpt>
<trkpt lat="46.97949" lon="-123.60084">
<ele>15.1</ele></trkpt>
<trkpt lat="46.97052" lon="-123.60123">
<ele>7.2</ele></trkpt>
<trkpt lat="46.9653" lon="-123.60441">
<ele>7.2</ele></trkpt>
<trkpt lat="46.95888" lon="-123.60323">
<ele>11.5</ele></trkpt>
<trkpt lat="46.94664" lon="-123.61916">
<ele>30.0</ele></trkpt>
<trkpt lat="46.94413" lon="-123.63098">
<ele>12.8</ele></trkpt>
<trkpt lat="46.94462" lon="-123.65002">
<ele>7.2</ele></trkpt>
<trkpt lat="46.94131" lon="-123.65613">
<ele>3.7</ele></trkpt>
<trkpt lat="46.93801" lon="-123.67655">
<ele>7.2</ele></trkpt>
<trkpt lat="46.93528" lon="-123.68427">
<ele>7.2</ele></trkpt>
<trkpt lat="46.93505" lon="-123.6978">
<ele>6.9</ele></trkpt>
<trkpt lat="46.93863" lon="-123.70904">
<ele>7.2</ele></trkpt>
<trkpt lat="46.94461" lon="-123.75117">
<ele>12.2</ele></trkpt>
<trkpt lat="46.9521" lon="-123.7683">
<ele>7.3</ele></trkpt>
<trkpt lat="46.95998" lon="-123.77824">
<ele>8.1</ele></trkpt>
<trkpt lat="46.96792" lon="-123.79897">
<ele>9.0</ele></trkpt>
<trkpt lat="46.96788" lon="-123.8024">
<ele>9.7</ele></trkpt>
<trkpt lat="46.96972" lon="-123.80292">
<ele>10.2</ele></trkpt>
<trkpt lat="46.97526" lon="-123.81351">
<ele>9.0</ele></trkpt>
<trkpt lat="46.97467" lon="-123.81468">
<ele>7.8</ele></trkpt>
<trkpt lat="46.9695" lon="-123.8026">
<ele>10.2</ele></trkpt>
<trkpt lat="46.96788" lon="-123.8024">
<ele>9.7</ele></trkpt>
<trkpt lat="46.96792" lon="-123.79897">
<ele>9.0</ele></trkpt>
<trkpt lat="46.95974" lon="-123.77767">
<ele>8.1</ele></trkpt>
<trkpt lat="46.94466" lon="-123.75614">
<ele>36.3</ele></trkpt>
<trkpt lat="46.94183" lon="-123.74565">
<ele>62.9</ele></trkpt>
<trkpt lat="46.93432" lon="-123.7338">
<ele>140.1</ele></trkpt>
<trkpt lat="46.93424" lon="-123.72592">
<ele>145.6</ele></trkpt>
<trkpt lat="46.93052" lon="-123.72306">
<ele>123.0</ele></trkpt>
<trkpt lat="46.92965" lon="-123.72024">
<ele>113.7</ele></trkpt>
<trkpt lat="46.92277" lon="-123.71858">
<ele>65.9</ele></trkpt>
<trkpt lat="46.91907" lon="-123.71984">
<ele>45.4</ele></trkpt>
<trkpt lat="46.91433" lon="-123.71684">
<ele>40.7</ele></trkpt>
<trkpt lat="46.90018" lon="-123.71702">
<ele>35.3</ele></trkpt>
<trkpt lat="46.88578" lon="-123.71319">
<ele>42.1</ele></trkpt>
<trkpt lat="46.88242" lon="-123.70954">
<ele>42.9</ele></trkpt>
<trkpt lat="46.88652" lon="-123.70625">
<ele>36.7</ele></trkpt>
<trkpt lat="46.88981" lon="-123.69874">
<ele>38.0</ele></trkpt>
<trkpt lat="46.88913" lon="-123.68785">
<ele>42.5</ele></trkpt>
<trkpt lat="46.87608" lon="-123.67485">
<ele>48.2</ele></trkpt>
<trkpt lat="46.87424" lon="-123.67043">
<ele>48.5</ele></trkpt>
<trkpt lat="46.86287" lon="-123.6673">
<ele>62.3</ele></trkpt>
<trkpt lat="46.86069" lon="-123.66299">
<ele>63.7</ele></trkpt>
<trkpt lat="46.8603" lon="-123.65725">
<ele>41.0</ele></trkpt>
<trkpt lat="46.85577" lon="-123.65623">
<ele>36.4</ele></trkpt>
<trkpt lat="46.85347" lon="-123.6504">
<ele>54.5</ele></trkpt>
<trkpt lat="46.85716" lon="-123.63937">
<ele>47.1</ele></trkpt>
<trkpt lat="46.85338" lon="-123.62934">
<ele>49.6</ele></trkpt>
<trkpt lat="46.84779" lon="-123.62621">
<ele>67.2</ele></trkpt>
<trkpt lat="46.84915" lon="-123.61063">
<ele>48.7</ele></trkpt>
<trkpt lat="46.84095" lon="-123.60066">
<ele>48.8</ele></trkpt>
<trkpt lat="46.84001" lon="-123.59076">
<ele>48.5</ele></trkpt>
<trkpt lat="46.83542" lon="-123.58852">
<ele>47.6</ele></trkpt>
<trkpt lat="46.8293" lon="-123.58983">
<ele>46.8</ele></trkpt>
<trkpt lat="46.82018" lon="-123.58541">
<ele>46.8</ele></trkpt>
<trkpt lat="46.81431" lon="-123.57467">
<ele>53.1</ele></trkpt>
<trkpt lat="46.81835" lon="-123.55685">
<ele>46.8</ele></trkpt>
<trkpt lat="46.8174" lon="-123.54836">
<ele>46.8</ele></trkpt>
<trkpt lat="46.80389" lon="-123.54003">
<ele>61.1</ele></trkpt>
<trkpt lat="46.79845" lon="-123.52864">
<ele>56.4</ele></trkpt>
<trkpt lat="46.79403" lon="-123.52915">
<ele>50.4</ele></trkpt>
<trkpt lat="46.79362" lon="-123.53423">
<ele>59.7</ele></trkpt>
<trkpt lat="46.79131" lon="-123.53767">
<ele>56.2</ele></trkpt>
<trkpt lat="46.7862" lon="-123.53769">
<ele>60.3</ele></trkpt>
<trkpt lat="46.78027" lon="-123.53361">
<ele>52.1</ele></trkpt>
<trkpt lat="46.77578" lon="-123.52566">
<ele>59.7</ele></trkpt>
<trkpt lat="46.77484" lon="-123.47061">
<ele>68.9</ele></trkpt>
<trkpt lat="46.7777" lon="-123.46389">
<ele>73.0</ele></trkpt>
<trkpt lat="46.77811" lon="-123.45396">
<ele>105.8</ele></trkpt>
<trkpt lat="46.78485" lon="-123.45288">
<ele>136.8</ele></trkpt>
<trkpt lat="46.78601" lon="-123.44619">
<ele>151.3</ele></trkpt>
<trkpt lat="46.79384" lon="-123.43743">
<ele>165.7</ele></trkpt>
<trkpt lat="46.79459" lon="-123.43423">
<ele>174.5</ele></trkpt>
<trkpt lat="46.79532" lon="-123.4222">
<ele>202.6</ele></trkpt>
<trkpt lat="46.7923" lon="-123.41897">
<ele>227.7</ele></trkpt>
<trkpt lat="46.79264" lon="-123.4169">
<ele>234.7</ele></trkpt>
<trkpt lat="46.78945" lon="-123.41242">
<ele>257.9</ele></trkpt>
<trkpt lat="46.7893" lon="-123.40988">
<ele>271.3</ele></trkpt>
<trkpt lat="46.79665" lon="-123.40307">
<ele>290.7</ele></trkpt>
<trkpt lat="46.79672" lon="-123.39851">
<ele>288.8</ele></trkpt>
<trkpt lat="46.79416" lon="-123.39602">
<ele>269.3</ele></trkpt>
<trkpt lat="46.79261" lon="-123.38525">
<ele>263.2</ele></trkpt>
<trkpt lat="46.79647" lon="-123.37567">
<ele>218.6</ele></trkpt>
<trkpt lat="46.7966" lon="-123.37136">
<ele>201.0</ele></trkpt>
<trkpt lat="46.79894" lon="-123.37036">
<ele>190.9</ele></trkpt>
<trkpt lat="46.79933" lon="-123.36813">
<ele>174.9</ele></trkpt>
<trkpt lat="46.79858" lon="-123.3607">
<ele>156.8</ele></trkpt>
<trkpt lat="46.79666" lon="-123.35902">
<ele>127.7</ele></trkpt>
<trkpt lat="46.79878" lon="-123.3494">
<ele>64.1</ele></trkpt>
<trkpt lat="46.80127" lon="-123.34623">
<ele>58.8</ele></trkpt>
<trkpt lat="46.80199" lon="-123.34044">
<ele>59.7</ele></trkpt>
<trkpt lat="46.80428" lon="-123.33644">
<ele>55.1</ele></trkpt>
<trkpt lat="46.80814" lon="-123.33497">
<ele>46.2</ele></trkpt>
<trkpt lat="46.80796" lon="-123.33032">
<ele>46.2</ele></trkpt>
<trkpt lat="46.80562" lon="-123.32948">
<ele>43.9</ele></trkpt>
<trkpt lat="46.80405" lon="-123.31605">
<ele>37.6</ele></trkpt>
<trkpt lat="46.80714" lon="-123.30264">
<ele>36.3</ele></trkpt>
<trkpt lat="46.80613" lon="-123.29687">
<ele>33.9</ele></trkpt>
<trkpt lat="46.80815" lon="-123.29495">
<ele>35.3</ele></trkpt>
<trkpt lat="46.80659" lon="-123.28763">
<ele>37.2</ele></trkpt>
<trkpt lat="46.80742" lon="-123.28266">
<ele>36.9</ele></trkpt>
<trkpt lat="46.81106" lon="-123.2742">
<ele>29.9</ele></trkpt>
<trkpt lat="46.81544" lon="-123.25668">
<ele>36.6</ele></trkpt>
<trkpt lat="46.81721" lon="-123.25477">
<ele>45.3</ele></trkpt>
<trkpt lat="46.8261" lon="-123.26105">
<ele>40.8</ele></trkpt>
<trkpt lat="46.83042" lon="-123.25946">
<ele>27.4</ele></trkpt>
<trkpt lat="46.82896" lon="-123.25571">
<ele>19.3</ele></trkpt>
<trkpt lat="46.83139" lon="-123.23632">
<ele>25.6</ele></trkpt>
<trkpt lat="46.83288" lon="-123.23331">
<ele>24.2</ele></trkpt>
<trkpt lat="46.83286" lon="-123.21617">
<ele>31.5</ele></trkpt>
<trkpt lat="46.83084" lon="-123.21154">
<ele>25.8</ele></trkpt>
<trkpt lat="46.82981" lon="-123.18941">
<ele>28.9</ele></trkpt>
<trkpt lat="46.83098" lon="-123.18901">
<ele>29.7</ele></trkpt>
<trkpt lat="46.826312" lon="-123.160614">
<ele>31.2</ele></trkpt>
<trkpt lat="46.83088" lon="-123.1605">
<ele>30.5</ele></trkpt>
<trkpt lat="46.83129" lon="-123.15506">
<ele>30.1</ele></trkpt>
<trkpt lat="46.83284" lon="-123.15477">
<ele>29.4</ele></trkpt>
<trkpt lat="46.83288" lon="-123.13924">
<ele>31.5</ele></trkpt>
<trkpt lat="46.84071" lon="-123.13931">
<ele>35.7</ele></trkpt>
<trkpt lat="46.84348" lon="-123.13275">
<ele>37.6</ele></trkpt>
<trkpt lat="46.8477" lon="-123.10939">
<ele>42.5</ele></trkpt>
<trkpt lat="46.84997" lon="-123.10665">
<ele>37.0</ele></trkpt>
<trkpt lat="46.85384" lon="-123.09356">
<ele>34.6</ele></trkpt>
<trkpt lat="46.86239" lon="-123.08886">
<ele>39.1</ele></trkpt>
<trkpt lat="46.86573" lon="-123.08209">
<ele>36.7</ele></trkpt>
<trkpt lat="46.86639" lon="-123.0666">
<ele>38.8</ele></trkpt>
<trkpt lat="46.87153" lon="-123.05644">
<ele>44.0</ele></trkpt>
<trkpt lat="46.88014" lon="-123.05532">
<ele>56.2</ele></trkpt>
<trkpt lat="46.89556" lon="-123.03594">
<ele>62.5</ele></trkpt>
<trkpt lat="46.90175" lon="-123.03485">
<ele>60.7</ele></trkpt>
<trkpt lat="46.90183" lon="-123.01695">
<ele>44.5</ele></trkpt>
<trkpt lat="46.90926" lon="-123.01152">
<ele>48.5</ele></trkpt>
<trkpt lat="46.92317" lon="-122.99278">
<ele>53.6</ele></trkpt>
<trkpt lat="46.93506" lon="-122.99212">
<ele>50.1</ele></trkpt>
<trkpt lat="46.93798" lon="-122.99017">
<ele>50.0</ele></trkpt>
<trkpt lat="46.99212" lon="-122.92319">
<ele>56.1</ele></trkpt>
<trkpt lat="47.0005" lon="-122.91564">
<ele>54.3</ele></trkpt>
<trkpt lat="47.00215" lon="-122.91139">
<ele>49.8</ele></trkpt>
<trkpt lat="47.00698" lon="-122.90973">
<ele>52.9</ele></trkpt>
<trkpt lat="47.0068" lon="-122.90749">
<ele>51.0</ele></trkpt>
<trkpt lat="47.0224" lon="-122.89564">
<ele>51.4</ele></trkpt>
<trkpt lat="47.02653" lon="-122.90081">
<ele>53.7</ele></trkpt>
<trkpt lat="47.04252" lon="-122.90131">
<ele>8.0</ele></trkpt></trkseg></trk></gpx>
