<?xml version="1.0" encoding="UTF-8"?>
<gpx xmlns:xsi="http://www.w3.org/2001/XMLSchema-instance" xmlns:gpxdata="http://www.cluetrust.com/XML/GPXDATA/1/0" xmlns="http://www.topografix.com/GPX/1/0" xsi:schemaLocation="http://www.topografix.com/GPX/1/0 http://www.topografix.com/GPX/1/0/gpx.xsd http://www.cluetrust.com/XML/GPXDATA/1/0 http://www.cluetrust.com/Schemas/gpxdata10.xsd" version="1.0" creator="http://ridewithgps.com/">
  <author>RideWithGPS LLC</author>
  <url>http://ridewithgps.com/trips/4400106</url>
  <time>2015-04-10T17:36:36Z</time>
  <trk>
    <name>The Five Flechemen 2015 Actual course</name>
    <trkseg>
      <trkpt lat="47.570223" lon="-122.615256">
        <ele>12.7</ele>
        <time>2015-04-11T00:36:36Z</time>
      </trkpt>
      <trkpt lat="47.570858" lon="-122.617117">
        <ele>14.8</ele>
        <time>2015-04-11T00:44:12Z</time>
      </trkpt>
      <trkpt lat="47.569133" lon="-122.623781">
        <ele>25.2</ele>
        <time>2015-04-11T00:45:52Z</time>
      </trkpt>
      <trkpt lat="47.564892" lon="-122.624503">
        <ele>14.3</ele>
        <time>2015-04-11T00:47:10Z</time>
      </trkpt>
      <trkpt lat="47.565535" lon="-122.653345">
        <ele>10.2</ele>
        <time>2015-04-11T00:53:41Z</time>
      </trkpt>
      <trkpt lat="47.555941" lon="-122.656207">
        <ele>4.8</ele>
        <time>2015-04-11T00:56:04Z</time>
      </trkpt>
      <trkpt lat="47.54935" lon="-122.666848">
        <ele>4.8</ele>
        <time>2015-04-11T00:58:29Z</time>
      </trkpt>
      <trkpt lat="47.547377" lon="-122.67321">
        <ele>12.0</ele>
        <time>2015-04-11T00:59:55Z</time>
      </trkpt>
      <trkpt lat="47.542824" lon="-122.676065">
        <ele>5.1</ele>
        <time>2015-04-11T01:01:03Z</time>
      </trkpt>
      <trkpt lat="47.539615" lon="-122.675971">
        <ele>4.7</ele>
        <time>2015-04-11T01:01:47Z</time>
      </trkpt>
      <trkpt lat="47.538028" lon="-122.677142">
        <ele>5.5</ele>
        <time>2015-04-11T01:02:11Z</time>
      </trkpt>
      <trkpt lat="47.532812" lon="-122.687899">
        <ele>4.6</ele>
        <time>2015-04-11T01:04:19Z</time>
      </trkpt>
      <trkpt lat="47.531807" lon="-122.69253">
        <ele>5.7</ele>
        <time>2015-04-11T01:05:04Z</time>
      </trkpt>
      <trkpt lat="47.525719" lon="-122.704308">
        <ele>13.5</ele>
        <time>2015-04-11T01:07:27Z</time>
      </trkpt>
      <trkpt lat="47.526569" lon="-122.705357">
        <ele>10.1</ele>
        <time>2015-04-11T01:07:50Z</time>
      </trkpt>
      <trkpt lat="47.52908" lon="-122.703902">
        <ele>11.3</ele>
        <time>2015-04-11T01:08:58Z</time>
      </trkpt>
      <trkpt lat="47.529195" lon="-122.718467">
        <ele>26.1</ele>
        <time>2015-04-11T01:11:44Z</time>
      </trkpt>
      <trkpt lat="47.526985" lon="-122.727778">
        <ele>37.9</ele>
        <time>2015-04-11T01:13:43Z</time>
      </trkpt>
      <trkpt lat="47.5269" lon="-122.735406">
        <ele>54.7</ele>
        <time>2015-04-11T01:15:30Z</time>
      </trkpt>
      <trkpt lat="47.523656" lon="-122.746005">
        <ele>64.0</ele>
        <time>2015-04-11T01:17:55Z</time>
      </trkpt>
      <trkpt lat="47.525304" lon="-122.751361">
        <ele>73.2</ele>
        <time>2015-04-11T01:19:12Z</time>
      </trkpt>
      <trkpt lat="47.524573" lon="-122.755913">
        <ele>77.1</ele>
        <time>2015-04-11T01:20:14Z</time>
      </trkpt>
      <trkpt lat="47.525127" lon="-122.768491">
        <ele>95.2</ele>
        <time>2015-04-11T01:23:15Z</time>
      </trkpt>
      <trkpt lat="47.522816" lon="-122.771971">
        <ele>99.5</ele>
        <time>2015-04-11T01:24:09Z</time>
      </trkpt>
      <trkpt lat="47.519521" lon="-122.774572">
        <ele>87.7</ele>
        <time>2015-04-11T01:25:03Z</time>
      </trkpt>
      <trkpt lat="47.51573" lon="-122.782659">
        <ele>67.5</ele>
        <time>2015-04-11T01:26:20Z</time>
      </trkpt>
      <trkpt lat="47.511569" lon="-122.787054">
        <ele>59.3</ele>
        <time>2015-04-11T01:27:19Z</time>
      </trkpt>
      <trkpt lat="47.510916" lon="-122.795001">
        <ele>54.5</ele>
        <time>2015-04-11T01:28:28Z</time>
      </trkpt>
      <trkpt lat="47.504845" lon="-122.796058">
        <ele>48.8</ele>
        <time>2015-04-11T01:29:49Z</time>
      </trkpt>
      <trkpt lat="47.501571" lon="-122.800786">
        <ele>44.5</ele>
        <time>2015-04-11T01:30:52Z</time>
      </trkpt>
      <trkpt lat="47.496553" lon="-122.803223">
        <ele>46.0</ele>
        <time>2015-04-11T01:32:05Z</time>
      </trkpt>
      <trkpt lat="47.494041" lon="-122.81132">
        <ele>40.0</ele>
        <time>2015-04-11T01:33:24Z</time>
      </trkpt>
      <trkpt lat="47.48794" lon="-122.820575">
        <ele>31.2</ele>
        <time>2015-04-11T01:35:21Z</time>
      </trkpt>
      <trkpt lat="47.483904" lon="-122.823089">
        <ele>29.0</ele>
        <time>2015-04-11T01:36:18Z</time>
      </trkpt>
      <trkpt lat="47.480108" lon="-122.828196">
        <ele>28.6</ele>
        <time>2015-04-11T01:37:29Z</time>
      </trkpt>
      <trkpt lat="47.477432" lon="-122.830145">
        <ele>27.7</ele>
        <time>2015-04-11T01:38:05Z</time>
      </trkpt>
      <trkpt lat="47.475672" lon="-122.830905">
        <ele>26.1</ele>
        <time>2015-04-11T01:38:34Z</time>
      </trkpt>
      <trkpt lat="47.473364" lon="-122.830278">
        <ele>23.3</ele>
        <time>2015-04-11T01:39:04Z</time>
      </trkpt>
      <trkpt lat="47.470389" lon="-122.827232">
        <ele>18.1</ele>
        <time>2015-04-11T01:39:48Z</time>
      </trkpt>
      <trkpt lat="47.45128" lon="-122.827056">
        <ele>16.0</ele>
        <time>2015-04-11T01:50:24Z</time>
      </trkpt>
      <trkpt lat="47.437076" lon="-122.836405">
        <ele>14.1</ele>
        <time>2015-04-11T01:54:37Z</time>
      </trkpt>
      <trkpt lat="47.4358" lon="-122.838653">
        <ele>13.9</ele>
        <time>2015-04-11T01:55:04Z</time>
      </trkpt>
      <trkpt lat="47.432698" lon="-122.840818">
        <ele>13.2</ele>
        <time>2015-04-11T01:55:55Z</time>
      </trkpt>
      <trkpt lat="47.430335" lon="-122.84471">
        <ele>10.5</ele>
        <time>2015-04-11T01:56:52Z</time>
      </trkpt>
      <trkpt lat="47.430284" lon="-122.847511">
        <ele>9.5</ele>
        <time>2015-04-11T01:57:18Z</time>
      </trkpt>
      <trkpt lat="47.427639" lon="-122.853836">
        <ele>11.6</ele>
        <time>2015-04-11T01:58:30Z</time>
      </trkpt>
      <trkpt lat="47.422809" lon="-122.861564">
        <ele>13.4</ele>
        <time>2015-04-11T02:00:26Z</time>
      </trkpt>
      <trkpt lat="47.411013" lon="-122.876227">
        <ele>12.7</ele>
        <time>2015-04-11T02:04:24Z</time>
      </trkpt>
      <trkpt lat="47.408936" lon="-122.877504">
        <ele>7.8</ele>
        <time>2015-04-11T02:04:54Z</time>
      </trkpt>
      <trkpt lat="47.407489" lon="-122.884222">
        <ele>5.4</ele>
        <time>2015-04-11T02:05:55Z</time>
      </trkpt>
      <trkpt lat="47.404191" lon="-122.892218">
        <ele>3.7</ele>
        <time>2015-04-11T02:07:27Z</time>
      </trkpt>
      <trkpt lat="47.395787" lon="-122.902211">
        <ele>3.0</ele>
        <time>2015-04-11T02:10:13Z</time>
      </trkpt>
      <trkpt lat="47.391701" lon="-122.901235">
        <ele>50.1</ele>
        <time>2015-04-11T02:13:16Z</time>
      </trkpt>
      <trkpt lat="47.385019" lon="-122.903566">
        <ele>73.1</ele>
        <time>2015-04-11T02:16:30Z</time>
      </trkpt>
      <trkpt lat="47.383154" lon="-122.89904">
        <ele>71.8</ele>
        <time>2015-04-11T02:17:31Z</time>
      </trkpt>
      <trkpt lat="47.379994" lon="-122.897529">
        <ele>86.5</ele>
        <time>2015-04-11T02:18:44Z</time>
      </trkpt>
      <trkpt lat="47.373208" lon="-122.899398">
        <ele>85.3</ele>
        <time>2015-04-11T02:20:53Z</time>
      </trkpt>
      <trkpt lat="47.367499" lon="-122.903487">
        <ele>82.9</ele>
        <time>2015-04-11T02:22:20Z</time>
      </trkpt>
      <trkpt lat="47.36211" lon="-122.903759">
        <ele>85.9</ele>
        <time>2015-04-11T02:23:42Z</time>
      </trkpt>
      <trkpt lat="47.359131" lon="-122.905497">
        <ele>82.4</ele>
        <time>2015-04-11T02:24:33Z</time>
      </trkpt>
      <trkpt lat="47.356578" lon="-122.907952">
        <ele>81.2</ele>
        <time>2015-04-11T02:25:22Z</time>
      </trkpt>
      <trkpt lat="47.35581" lon="-122.912872">
        <ele>64.2</ele>
        <time>2015-04-11T02:26:08Z</time>
      </trkpt>
      <trkpt lat="47.353178" lon="-122.913988">
        <ele>63.7</ele>
        <time>2015-04-11T02:26:46Z</time>
      </trkpt>
      <trkpt lat="47.35136" lon="-122.917361">
        <ele>74.9</ele>
        <time>2015-04-11T02:27:52Z</time>
      </trkpt>
      <trkpt lat="47.349327" lon="-122.918926">
        <ele>80.5</ele>
        <time>2015-04-11T02:28:40Z</time>
      </trkpt>
      <trkpt lat="47.346017" lon="-122.925732">
        <ele>86.7</ele>
        <time>2015-04-11T02:30:30Z</time>
      </trkpt>
      <trkpt lat="47.339121" lon="-122.931724">
        <ele>87.3</ele>
        <time>2015-04-11T02:32:38Z</time>
      </trkpt>
      <trkpt lat="47.328494" lon="-122.945604">
        <ele>100.2</ele>
        <time>2015-04-11T02:36:49Z</time>
      </trkpt>
      <trkpt lat="47.32354" lon="-122.950524">
        <ele>83.0</ele>
        <time>2015-04-11T02:38:13Z</time>
      </trkpt>
      <trkpt lat="47.318897" lon="-122.952416">
        <ele>64.6</ele>
        <time>2015-04-11T02:39:05Z</time>
      </trkpt>
      <trkpt lat="47.316191" lon="-122.956475">
        <ele>69.8</ele>
        <time>2015-04-11T02:39:58Z</time>
      </trkpt>
      <trkpt lat="47.314187" lon="-122.961638">
        <ele>70.7</ele>
        <time>2015-04-11T02:41:04Z</time>
      </trkpt>
      <trkpt lat="47.313098" lon="-122.96865">
        <ele>75.8</ele>
        <time>2015-04-11T02:42:25Z</time>
      </trkpt>
      <trkpt lat="47.309457" lon="-122.976644">
        <ele>84.6</ele>
        <time>2015-04-11T02:44:44Z</time>
      </trkpt>
      <trkpt lat="47.308142" lon="-122.987603">
        <ele>89.3</ele>
        <time>2015-04-11T02:46:58Z</time>
      </trkpt>
      <trkpt lat="47.305427" lon="-122.995572">
        <ele>86.1</ele>
        <time>2015-04-11T02:48:30Z</time>
      </trkpt>
      <trkpt lat="47.302984" lon="-123.008011">
        <ele>83.4</ele>
        <time>2015-04-11T02:50:57Z</time>
      </trkpt>
      <trkpt lat="47.299795" lon="-123.016873">
        <ele>81.7</ele>
        <time>2015-04-11T02:52:35Z</time>
      </trkpt>
      <trkpt lat="47.29342" lon="-123.022304">
        <ele>75.7</ele>
        <time>2015-04-11T02:54:16Z</time>
      </trkpt>
      <trkpt lat="47.288142" lon="-123.031486">
        <ele>71.2</ele>
        <time>2015-04-11T02:56:13Z</time>
      </trkpt>
      <trkpt lat="47.286747" lon="-123.035654">
        <ele>80.8</ele>
        <time>2015-04-11T02:57:14Z</time>
      </trkpt>
      <trkpt lat="47.27936" lon="-123.044493">
        <ele>66.8</ele>
        <time>2015-04-11T02:59:36Z</time>
      </trkpt>
      <trkpt lat="47.277011" lon="-123.049952">
        <ele>83.9</ele>
        <time>2015-04-11T03:01:12Z</time>
      </trkpt>
      <trkpt lat="47.27227" lon="-123.054778">
        <ele>76.4</ele>
        <time>2015-04-11T03:02:43Z</time>
      </trkpt>
      <trkpt lat="47.270136" lon="-123.058463">
        <ele>78.7</ele>
        <time>2015-04-11T03:03:33Z</time>
      </trkpt>
      <trkpt lat="47.267438" lon="-123.058944">
        <ele>69.8</ele>
        <time>2015-04-11T03:04:08Z</time>
      </trkpt>
      <trkpt lat="47.265066" lon="-123.05723">
        <ele>66.7</ele>
        <time>2015-04-11T03:04:49Z</time>
      </trkpt>
      <trkpt lat="47.265068" lon="-123.062931">
        <ele>68.5</ele>
        <time>2015-04-11T03:05:49Z</time>
      </trkpt>
      <trkpt lat="47.266551" lon="-123.069553">
        <ele>69.8</ele>
        <time>2015-04-11T03:07:00Z</time>
      </trkpt>
      <trkpt lat="47.264896" lon="-123.077789">
        <ele>69.8</ele>
        <time>2015-04-11T03:08:26Z</time>
      </trkpt>
      <trkpt lat="47.265251" lon="-123.082419">
        <ele>70.6</ele>
        <time>2015-04-11T03:09:12Z</time>
      </trkpt>
      <trkpt lat="47.263891" lon="-123.08971">
        <ele>72.4</ele>
        <time>2015-04-11T03:10:27Z</time>
      </trkpt>
      <trkpt lat="47.25897" lon="-123.096363">
        <ele>64.4</ele>
        <time>2015-04-11T03:12:00Z</time>
      </trkpt>
      <trkpt lat="47.259171" lon="-123.10428">
        <ele>69.4</ele>
        <time>2015-04-11T03:13:24Z</time>
      </trkpt>
      <trkpt lat="47.254807" lon="-123.105484">
        <ele>69.0</ele>
        <time>2015-04-11T03:14:30Z</time>
      </trkpt>
      <trkpt lat="47.250212" lon="-123.105326">
        <ele>68.4</ele>
        <time>2015-04-11T03:15:37Z</time>
      </trkpt>
      <trkpt lat="47.244511" lon="-123.107517">
        <ele>74.6</ele>
        <time>2015-04-11T03:17:21Z</time>
      </trkpt>
      <trkpt lat="47.245801" lon="-123.120161">
        <ele>74.8</ele>
        <time>2015-04-11T03:19:30Z</time>
      </trkpt>
      <trkpt lat="47.24678" lon="-123.121658">
        <ele>76.6</ele>
        <time>2015-04-11T03:19:57Z</time>
      </trkpt>
      <trkpt lat="47.245551" lon="-123.125617">
        <ele>78.3</ele>
        <time>2015-04-11T03:20:50Z</time>
      </trkpt>
      <trkpt lat="47.241555" lon="-123.128902">
        <ele>81.1</ele>
        <time>2015-04-11T03:22:17Z</time>
      </trkpt>
      <trkpt lat="47.244352" lon="-123.139892">
        <ele>86.8</ele>
        <time>2015-04-11T03:41:00Z</time>
      </trkpt>
      <trkpt lat="47.252138" lon="-123.145862">
        <ele>92.0</ele>
        <time>2015-04-11T03:43:34Z</time>
      </trkpt>
      <trkpt lat="47.252279" lon="-123.162388">
        <ele>90.2</ele>
        <time>2015-04-11T03:46:20Z</time>
      </trkpt>
      <trkpt lat="47.253521" lon="-123.17525">
        <ele>89.2</ele>
        <time>2015-04-11T03:48:29Z</time>
      </trkpt>
      <trkpt lat="47.247456" lon="-123.185712">
        <ele>94.8</ele>
        <time>2015-04-11T03:51:05Z</time>
      </trkpt>
      <trkpt lat="47.243158" lon="-123.190701">
        <ele>93.1</ele>
        <time>2015-04-11T03:52:34Z</time>
      </trkpt>
      <trkpt lat="47.239821" lon="-123.200012">
        <ele>88.3</ele>
        <time>2015-04-11T03:54:22Z</time>
      </trkpt>
      <trkpt lat="47.23803" lon="-123.213352">
        <ele>81.3</ele>
        <time>2015-04-11T03:56:24Z</time>
      </trkpt>
      <trkpt lat="47.233261" lon="-123.224149">
        <ele>81.6</ele>
        <time>2015-04-11T03:58:38Z</time>
      </trkpt>
      <trkpt lat="47.231294" lon="-123.226022">
        <ele>81.0</ele>
        <time>2015-04-11T03:59:15Z</time>
      </trkpt>
      <trkpt lat="47.227219" lon="-123.226206">
        <ele>76.6</ele>
        <time>2015-04-11T04:00:18Z</time>
      </trkpt>
      <trkpt lat="47.22624" lon="-123.236651">
        <ele>85.4</ele>
        <time>2015-04-11T04:02:17Z</time>
      </trkpt>
      <trkpt lat="47.223833" lon="-123.236652">
        <ele>75.7</ele>
        <time>2015-04-11T04:02:56Z</time>
      </trkpt>
      <trkpt lat="47.217069" lon="-123.24401">
        <ele>75.3</ele>
        <time>2015-04-11T04:04:57Z</time>
      </trkpt>
      <trkpt lat="47.213423" lon="-123.245153">
        <ele>85.7</ele>
        <time>2015-04-11T04:06:03Z</time>
      </trkpt>
      <trkpt lat="47.211253" lon="-123.252128">
        <ele>101.2</ele>
        <time>2015-04-11T04:08:00Z</time>
      </trkpt>
      <trkpt lat="47.206756" lon="-123.257908">
        <ele>121.2</ele>
        <time>2015-04-11T04:10:17Z</time>
      </trkpt>
      <trkpt lat="47.201218" lon="-123.258494">
        <ele>137.0</ele>
        <time>2015-04-11T04:12:24Z</time>
      </trkpt>
      <trkpt lat="47.198019" lon="-123.256758">
        <ele>136.0</ele>
        <time>2015-04-11T04:13:42Z</time>
      </trkpt>
      <trkpt lat="47.197194" lon="-123.257159">
        <ele>134.0</ele>
        <time>2015-04-11T04:14:11Z</time>
      </trkpt>
      <trkpt lat="47.193984" lon="-123.260381">
        <ele>129.6</ele>
        <time>2015-04-11T04:15:04Z</time>
      </trkpt>
      <trkpt lat="47.189751" lon="-123.26773">
        <ele>133.7</ele>
        <time>2015-04-11T04:16:47Z</time>
      </trkpt>
      <trkpt lat="47.185793" lon="-123.272246">
        <ele>132.4</ele>
        <time>2015-04-11T04:18:08Z</time>
      </trkpt>
      <trkpt lat="47.181832" lon="-123.274278">
        <ele>127.5</ele>
        <time>2015-04-11T04:19:09Z</time>
      </trkpt>
      <trkpt lat="47.178933" lon="-123.27287">
        <ele>125.3</ele>
        <time>2015-04-11T04:19:51Z</time>
      </trkpt>
      <trkpt lat="47.173343" lon="-123.272632">
        <ele>135.4</ele>
        <time>2015-04-11T04:21:46Z</time>
      </trkpt>
      <trkpt lat="47.169259" lon="-123.274307">
        <ele>134.7</ele>
        <time>2015-04-11T04:23:05Z</time>
      </trkpt>
      <trkpt lat="47.167023" lon="-123.276813">
        <ele>134.9</ele>
        <time>2015-04-11T04:23:59Z</time>
      </trkpt>
      <trkpt lat="47.16275" lon="-123.27692">
        <ele>139.4</ele>
        <time>2015-04-11T04:25:26Z</time>
      </trkpt>
      <trkpt lat="47.160683" lon="-123.284899">
        <ele>134.3</ele>
        <time>2015-04-11T04:26:58Z</time>
      </trkpt>
      <trkpt lat="47.160838" lon="-123.290107">
        <ele>131.6</ele>
        <time>2015-04-11T04:27:50Z</time>
      </trkpt>
      <trkpt lat="47.155328" lon="-123.296888">
        <ele>124.7</ele>
        <time>2015-04-11T04:29:39Z</time>
      </trkpt>
      <trkpt lat="47.151477" lon="-123.298607">
        <ele>119.0</ele>
        <time>2015-04-11T04:30:40Z</time>
      </trkpt>
      <trkpt lat="47.145918" lon="-123.295378">
        <ele>127.1</ele>
        <time>2015-04-11T04:32:27Z</time>
      </trkpt>
      <trkpt lat="47.14285" lon="-123.295376">
        <ele>126.1</ele>
        <time>2015-04-11T04:33:19Z</time>
      </trkpt>
      <trkpt lat="47.137285" lon="-123.300969">
        <ele>114.1</ele>
        <time>2015-04-11T04:34:58Z</time>
      </trkpt>
      <trkpt lat="47.135042" lon="-123.300457">
        <ele>110.8</ele>
        <time>2015-04-11T04:35:32Z</time>
      </trkpt>
      <trkpt lat="47.135176" lon="-123.326877">
        <ele>105.1</ele>
        <time>2015-04-11T04:39:55Z</time>
      </trkpt>
      <trkpt lat="47.132086" lon="-123.328474">
        <ele>100.5</ele>
        <time>2015-04-11T04:40:42Z</time>
      </trkpt>
      <trkpt lat="47.126902" lon="-123.327896">
        <ele>97.4</ele>
        <time>2015-04-11T04:41:59Z</time>
      </trkpt>
      <trkpt lat="47.122247" lon="-123.330466">
        <ele>94.5</ele>
        <time>2015-04-11T04:43:13Z</time>
      </trkpt>
      <trkpt lat="47.117958" lon="-123.328413">
        <ele>93.2</ele>
        <time>2015-04-11T04:44:22Z</time>
      </trkpt>
      <trkpt lat="47.115635" lon="-123.329697">
        <ele>91.4</ele>
        <time>2015-04-11T04:44:59Z</time>
      </trkpt>
      <trkpt lat="47.1134" lon="-123.335703">
        <ele>95.7</ele>
        <time>2015-04-11T04:46:11Z</time>
      </trkpt>
      <trkpt lat="47.110191" lon="-123.339149">
        <ele>95.6</ele>
        <time>2015-04-11T04:47:06Z</time>
      </trkpt>
      <trkpt lat="47.108843" lon="-123.346301">
        <ele>86.3</ele>
        <time>2015-04-11T04:48:13Z</time>
      </trkpt>
      <trkpt lat="47.103793" lon="-123.356861">
        <ele>81.6</ele>
        <time>2015-04-11T04:50:24Z</time>
      </trkpt>
      <trkpt lat="47.095619" lon="-123.368696">
        <ele>74.7</ele>
        <time>2015-04-11T04:53:36Z</time>
      </trkpt>
      <trkpt lat="47.088941" lon="-123.370051">
        <ele>71.3</ele>
        <time>2015-04-11T04:55:15Z</time>
      </trkpt>
      <trkpt lat="47.087058" lon="-123.371336">
        <ele>69.1</ele>
        <time>2015-04-11T04:55:43Z</time>
      </trkpt>
      <trkpt lat="47.084614" lon="-123.370391">
        <ele>65.0</ele>
        <time>2015-04-11T04:56:19Z</time>
      </trkpt>
      <trkpt lat="47.082427" lon="-123.371762">
        <ele>67.4</ele>
        <time>2015-04-11T04:56:55Z</time>
      </trkpt>
      <trkpt lat="47.08015" lon="-123.370643">
        <ele>64.7</ele>
        <time>2015-04-11T04:57:27Z</time>
      </trkpt>
      <trkpt lat="47.078192" lon="-123.372501">
        <ele>63.9</ele>
        <time>2015-04-11T04:58:02Z</time>
      </trkpt>
      <trkpt lat="47.073912" lon="-123.372367">
        <ele>62.5</ele>
        <time>2015-04-11T04:59:01Z</time>
      </trkpt>
      <trkpt lat="47.069208" lon="-123.37495">
        <ele>61.6</ele>
        <time>2015-04-11T05:00:12Z</time>
      </trkpt>
      <trkpt lat="47.063971" lon="-123.370647">
        <ele>54.1</ele>
        <time>2015-04-11T05:01:33Z</time>
      </trkpt>
      <trkpt lat="47.057604" lon="-123.37112">
        <ele>54.9</ele>
        <time>2015-04-11T05:03:07Z</time>
      </trkpt>
      <trkpt lat="47.053018" lon="-123.365748">
        <ele>47.5</ele>
        <time>2015-04-11T05:04:30Z</time>
      </trkpt>
      <trkpt lat="47.049911" lon="-123.364249">
        <ele>46.1</ele>
        <time>2015-04-11T05:05:16Z</time>
      </trkpt>
      <trkpt lat="47.04731" lon="-123.363528">
        <ele>45.9</ele>
        <time>2015-04-11T05:05:50Z</time>
      </trkpt>
      <trkpt lat="47.036807" lon="-123.363959">
        <ele>48.0</ele>
        <time>2015-04-11T05:08:29Z</time>
      </trkpt>
      <trkpt lat="47.033839" lon="-123.363169">
        <ele>40.0</ele>
        <time>2015-04-11T05:09:06Z</time>
      </trkpt>
      <trkpt lat="47.030299" lon="-123.360469">
        <ele>42.7</ele>
        <time>2015-04-11T05:10:08Z</time>
      </trkpt>
      <trkpt lat="47.026188" lon="-123.360489">
        <ele>42.5</ele>
        <time>2015-04-11T05:11:12Z</time>
      </trkpt>
      <trkpt lat="47.021119" lon="-123.367149">
        <ele>34.9</ele>
        <time>2015-04-11T05:12:43Z</time>
      </trkpt>
      <trkpt lat="47.016374" lon="-123.376359">
        <ele>36.3</ele>
        <time>2015-04-11T05:15:02Z</time>
      </trkpt>
      <trkpt lat="47.005752" lon="-123.392703">
        <ele>17.1</ele>
        <time>2015-04-11T05:19:08Z</time>
      </trkpt>
      <trkpt lat="47.004089" lon="-123.402839">
        <ele>19.6</ele>
        <time>2015-04-11T05:21:57Z</time>
      </trkpt>
      <trkpt lat="47.002989" lon="-123.435826">
        <ele>15.8</ele>
        <time>2015-04-11T07:05:15Z</time>
      </trkpt>
      <trkpt lat="47.000605" lon="-123.444173">
        <ele>11.7</ele>
        <time>2015-04-11T07:06:44Z</time>
      </trkpt>
      <trkpt lat="47.003455" lon="-123.456325">
        <ele>12.9</ele>
        <time>2015-04-11T07:08:50Z</time>
      </trkpt>
      <trkpt lat="47.006124" lon="-123.462449">
        <ele>12.9</ele>
        <time>2015-04-11T07:10:03Z</time>
      </trkpt>
      <trkpt lat="47.005998" lon="-123.469778">
        <ele>12.9</ele>
        <time>2015-04-11T07:11:19Z</time>
      </trkpt>
      <trkpt lat="47.002675" lon="-123.481575">
        <ele>12.9</ele>
        <time>2015-04-11T07:13:39Z</time>
      </trkpt>
      <trkpt lat="46.999688" lon="-123.481791">
        <ele>9.1</ele>
        <time>2015-04-11T07:18:20Z</time>
      </trkpt>
      <trkpt lat="47.000284" lon="-123.48968">
        <ele>11.7</ele>
        <time>2015-04-11T07:19:46Z</time>
      </trkpt>
      <trkpt lat="46.999337" lon="-123.496086">
        <ele>13.3</ele>
        <time>2015-04-11T07:20:56Z</time>
      </trkpt>
      <trkpt lat="46.992254" lon="-123.519353">
        <ele>12.0</ele>
        <time>2015-04-11T07:24:45Z</time>
      </trkpt>
      <trkpt lat="46.984095" lon="-123.553662">
        <ele>12.2</ele>
        <time>2015-04-11T07:30:11Z</time>
      </trkpt>
      <trkpt lat="46.982429" lon="-123.570009">
        <ele>8.9</ele>
        <time>2015-04-11T07:32:44Z</time>
      </trkpt>
      <trkpt lat="46.976992" lon="-123.60065">
        <ele>7.9</ele>
        <time>2015-04-11T07:38:02Z</time>
      </trkpt>
      <trkpt lat="46.970344" lon="-123.60129">
        <ele>7.1</ele>
        <time>2015-04-11T07:39:47Z</time>
      </trkpt>
      <trkpt lat="46.965653" lon="-123.604456">
        <ele>6.8</ele>
        <time>2015-04-11T07:41:06Z</time>
      </trkpt>
      <trkpt lat="46.959065" lon="-123.603167">
        <ele>9.0</ele>
        <time>2015-04-11T07:42:58Z</time>
      </trkpt>
      <trkpt lat="46.954953" lon="-123.60954">
        <ele>15.9</ele>
        <time>2015-04-11T07:44:41Z</time>
      </trkpt>
      <trkpt lat="46.949632" lon="-123.613818">
        <ele>10.5</ele>
        <time>2015-04-11T07:46:11Z</time>
      </trkpt>
      <trkpt lat="46.946724" lon="-123.618969">
        <ele>25.0</ele>
        <time>2015-04-11T07:47:50Z</time>
      </trkpt>
      <trkpt lat="46.943839" lon="-123.634306">
        <ele>11.2</ele>
        <time>2015-04-11T07:50:20Z</time>
      </trkpt>
      <trkpt lat="46.945115" lon="-123.645656">
        <ele>6.6</ele>
        <time>2015-04-11T07:52:07Z</time>
      </trkpt>
      <trkpt lat="46.944607" lon="-123.649175">
        <ele>6.9</ele>
        <time>2015-04-11T07:52:44Z</time>
      </trkpt>
      <trkpt lat="46.945317" lon="-123.650153">
        <ele>4.2</ele>
        <time>2015-04-11T07:54:38Z</time>
      </trkpt>
      <trkpt lat="46.944548" lon="-123.649194">
        <ele>7.0</ele>
        <time>2015-04-11T07:56:16Z</time>
      </trkpt>
      <trkpt lat="46.939572" lon="-123.660682">
        <ele>12.4</ele>
        <time>2015-04-11T07:58:51Z</time>
      </trkpt>
      <trkpt lat="46.932036" lon="-123.694863">
        <ele>45.2</ele>
        <time>2015-04-11T08:09:13Z</time>
      </trkpt>
      <trkpt lat="46.937153" lon="-123.706867">
        <ele>27.5</ele>
        <time>2015-04-11T08:12:41Z</time>
      </trkpt>
      <trkpt lat="46.944398" lon="-123.750743">
        <ele>6.7</ele>
        <time>2015-04-11T08:22:29Z</time>
      </trkpt>
      <trkpt lat="46.950869" lon="-123.76366">
        <ele>6.3</ele>
        <time>2015-04-11T08:25:21Z</time>
      </trkpt>
      <trkpt lat="46.951536" lon="-123.767681">
        <ele>6.5</ele>
        <time>2015-04-11T08:26:33Z</time>
      </trkpt>
      <trkpt lat="46.959861" lon="-123.778125">
        <ele>3.4</ele>
        <time>2015-04-11T08:29:46Z</time>
      </trkpt>
      <trkpt lat="46.967877" lon="-123.799086">
        <ele>3.0</ele>
        <time>2015-04-11T08:34:06Z</time>
      </trkpt>
      <trkpt lat="46.967969" lon="-123.802298">
        <ele>3.5</ele>
        <time>2015-04-11T08:34:47Z</time>
      </trkpt>
      <trkpt lat="46.969618" lon="-123.802657">
        <ele>3.3</ele>
        <time>2015-04-11T08:35:19Z</time>
      </trkpt>
      <trkpt lat="46.973594" lon="-123.811588">
        <ele>4.0</ele>
        <time>2015-04-11T08:38:55Z</time>
      </trkpt>
      <trkpt lat="46.975939" lon="-123.814445">
        <ele>3.6</ele>
        <time>2015-04-11T08:39:46Z</time>
      </trkpt>
      <trkpt lat="46.971817" lon="-123.822485">
        <ele>3.8</ele>
        <time>2015-04-11T08:42:01Z</time>
      </trkpt>
      <trkpt lat="46.971191" lon="-123.821922">
        <ele>3.7</ele>
        <time>2015-04-11T08:42:18Z</time>
      </trkpt>
      <trkpt lat="46.97454" lon="-123.814695">
        <ele>3.4</ele>
        <time>2015-04-11T09:28:28Z</time>
      </trkpt>
      <trkpt lat="46.96921" lon="-123.802556">
        <ele>3.3</ele>
        <time>2015-04-11T09:31:21Z</time>
      </trkpt>
      <trkpt lat="46.962244" lon="-123.802648">
        <ele>2.4</ele>
        <time>2015-04-11T09:33:11Z</time>
      </trkpt>
      <trkpt lat="46.956358" lon="-123.806209">
        <ele>3.4</ele>
        <time>2015-04-11T09:34:49Z</time>
      </trkpt>
      <trkpt lat="46.953197" lon="-123.809395">
        <ele>8.2</ele>
        <time>2015-04-11T09:35:52Z</time>
      </trkpt>
      <trkpt lat="46.95175" lon="-123.813731">
        <ele>4.6</ele>
        <time>2015-04-11T09:36:43Z</time>
      </trkpt>
      <trkpt lat="46.951602" lon="-123.826602">
        <ele>2.9</ele>
        <time>2015-04-11T09:38:56Z</time>
      </trkpt>
      <trkpt lat="46.943632" lon="-123.847988">
        <ele>3.5</ele>
        <time>2015-04-11T09:43:04Z</time>
      </trkpt>
      <trkpt lat="46.943461" lon="-123.867228">
        <ele>3.5</ele>
        <time>2015-04-11T09:46:15Z</time>
      </trkpt>
      <trkpt lat="46.940953" lon="-123.873728">
        <ele>3.7</ele>
        <time>2015-04-11T09:47:31Z</time>
      </trkpt>
      <trkpt lat="46.931195" lon="-123.919823">
        <ele>3.5</ele>
        <time>2015-04-11T09:55:34Z</time>
      </trkpt>
      <trkpt lat="46.927748" lon="-123.928591">
        <ele>22.8</ele>
        <time>2015-04-11T09:57:55Z</time>
      </trkpt>
      <trkpt lat="46.922763" lon="-123.937325">
        <ele>33.6</ele>
        <time>2015-04-11T10:01:18Z</time>
      </trkpt>
      <trkpt lat="46.920033" lon="-123.951059">
        <ele>19.7</ele>
        <time>2015-04-11T10:04:31Z</time>
      </trkpt>
      <trkpt lat="46.910149" lon="-123.988625">
        <ele>18.5</ele>
        <time>2015-04-11T10:12:04Z</time>
      </trkpt>
      <trkpt lat="46.908282" lon="-123.992053">
        <ele>13.7</ele>
        <time>2015-04-11T10:12:51Z</time>
      </trkpt>
      <trkpt lat="46.90228" lon="-123.998166">
        <ele>4.1</ele>
        <time>2015-04-11T10:34:19Z</time>
      </trkpt>
      <trkpt lat="46.893709" lon="-124.001744">
        <ele>20.0</ele>
        <time>2015-04-11T10:37:29Z</time>
      </trkpt>
      <trkpt lat="46.892245" lon="-124.003847">
        <ele>20.4</ele>
        <time>2015-04-11T10:38:09Z</time>
      </trkpt>
      <trkpt lat="46.892388" lon="-124.044169">
        <ele>3.3</ele>
        <time>2015-04-11T10:45:34Z</time>
      </trkpt>
      <trkpt lat="46.890202" lon="-124.046575">
        <ele>3.8</ele>
        <time>2015-04-11T10:46:28Z</time>
      </trkpt>
      <trkpt lat="46.871169" lon="-124.05211">
        <ele>12.8</ele>
        <time>2015-04-11T10:52:53Z</time>
      </trkpt>
      <trkpt lat="46.866014" lon="-124.05791">
        <ele>10.7</ele>
        <time>2015-04-11T10:54:43Z</time>
      </trkpt>
      <trkpt lat="46.864386" lon="-124.061166">
        <ele>8.7</ele>
        <time>2015-04-11T10:55:31Z</time>
      </trkpt>
      <trkpt lat="46.859172" lon="-124.080092">
        <ele>6.5</ele>
        <time>2015-04-11T11:00:20Z</time>
      </trkpt>
      <trkpt lat="46.859904" lon="-124.078884">
        <ele>6.1</ele>
        <time>2015-04-11T11:00:51Z</time>
      </trkpt>
      <trkpt lat="46.858879" lon="-124.083896">
        <ele>3.7</ele>
        <time>2015-04-11T11:01:45Z</time>
      </trkpt>
      <trkpt lat="46.859186" lon="-124.099453">
        <ele>8.8</ele>
        <time>2015-04-11T11:04:45Z</time>
      </trkpt>
      <trkpt lat="46.8604" lon="-124.100556">
        <ele>12.0</ele>
        <time>2015-04-11T11:05:23Z</time>
      </trkpt>
      <trkpt lat="46.872164" lon="-124.104106">
        <ele>11.5</ele>
        <time>2015-04-11T11:08:44Z</time>
      </trkpt>
      <trkpt lat="46.890703" lon="-124.104425">
        <ele>3.3</ele>
        <time>2015-04-11T11:13:45Z</time>
      </trkpt>
      <trkpt lat="46.891814" lon="-124.103673">
        <ele>3.5</ele>
        <time>2015-04-11T11:14:43Z</time>
      </trkpt>
      <trkpt lat="46.890383" lon="-124.104526">
        <ele>3.2</ele>
        <time>2015-04-11T11:19:40Z</time>
      </trkpt>
      <trkpt lat="46.890345" lon="-124.110354">
        <ele>5.5</ele>
        <time>2015-04-11T11:21:01Z</time>
      </trkpt>
      <trkpt lat="46.889499" lon="-124.11046">
        <ele>5.6</ele>
        <time>2015-04-11T11:21:33Z</time>
      </trkpt>
      <trkpt lat="46.88935" lon="-124.111667">
        <ele>4.4</ele>
        <time>2015-04-11T11:21:52Z</time>
      </trkpt>
      <trkpt lat="46.87363" lon="-124.112183">
        <ele>4.9</ele>
        <time>2015-04-11T11:26:02Z</time>
      </trkpt>
      <trkpt lat="46.871251" lon="-124.110886">
        <ele>4.8</ele>
        <time>2015-04-11T11:26:40Z</time>
      </trkpt>
      <trkpt lat="46.866685" lon="-124.110878">
        <ele>6.0</ele>
        <time>2015-04-11T11:27:54Z</time>
      </trkpt>
      <trkpt lat="46.862501" lon="-124.109284">
        <ele>5.8</ele>
        <time>2015-04-11T11:28:59Z</time>
      </trkpt>
      <trkpt lat="46.858541" lon="-124.10908">
        <ele>6.2</ele>
        <time>2015-04-11T11:32:27Z</time>
      </trkpt>
      <trkpt lat="46.82686" lon="-124.09769">
        <ele>6.9</ele>
        <time>2015-04-11T11:40:25Z</time>
      </trkpt>
      <trkpt lat="46.817845" lon="-124.096407">
        <ele>6.0</ele>
        <time>2015-04-11T11:42:40Z</time>
      </trkpt>
      <trkpt lat="46.791573" lon="-124.088665">
        <ele>5.4</ele>
        <time>2015-04-11T11:49:37Z</time>
      </trkpt>
      <trkpt lat="46.786755" lon="-124.084832">
        <ele>4.8</ele>
        <time>2015-04-11T11:51:00Z</time>
      </trkpt>
      <trkpt lat="46.776208" lon="-124.081469">
        <ele>5.3</ele>
        <time>2015-04-11T11:53:51Z</time>
      </trkpt>
      <trkpt lat="46.775745" lon="-124.077837">
        <ele>6.1</ele>
        <time>2015-04-11T11:54:38Z</time>
      </trkpt>
      <trkpt lat="46.771416" lon="-124.07777">
        <ele>5.6</ele>
        <time>2015-04-11T11:55:55Z</time>
      </trkpt>
      <trkpt lat="46.771007" lon="-124.068348">
        <ele>9.2</ele>
        <time>2015-04-11T11:57:40Z</time>
      </trkpt>
      <trkpt lat="46.761511" lon="-124.066536">
        <ele>7.2</ele>
        <time>2015-04-11T12:00:16Z</time>
      </trkpt>
      <trkpt lat="46.736562" lon="-124.066755">
        <ele>5.7</ele>
        <time>2015-04-11T12:07:43Z</time>
      </trkpt>
      <trkpt lat="46.728323" lon="-124.054146">
        <ele>11.8</ele>
        <time>2015-04-11T12:12:02Z</time>
      </trkpt>
      <trkpt lat="46.72742" lon="-124.049948">
        <ele>6.8</ele>
        <time>2015-04-11T12:12:45Z</time>
      </trkpt>
      <trkpt lat="46.728317" lon="-124.036762">
        <ele>4.6</ele>
        <time>2015-04-11T12:15:04Z</time>
      </trkpt>
      <trkpt lat="46.726917" lon="-124.028324">
        <ele>4.6</ele>
        <time>2015-04-11T12:16:29Z</time>
      </trkpt>
      <trkpt lat="46.724235" lon="-124.020775">
        <ele>4.6</ele>
        <time>2015-04-11T12:19:35Z</time>
      </trkpt>
      <trkpt lat="46.731756" lon="-123.990586">
        <ele>8.2</ele>
        <time>2015-04-11T12:25:22Z</time>
      </trkpt>
      <trkpt lat="46.738454" lon="-123.980437">
        <ele>6.2</ele>
        <time>2015-04-11T12:27:52Z</time>
      </trkpt>
      <trkpt lat="46.740484" lon="-123.974303">
        <ele>5.4</ele>
        <time>2015-04-11T12:29:09Z</time>
      </trkpt>
      <trkpt lat="46.739648" lon="-123.970703">
        <ele>4.8</ele>
        <time>2015-04-11T12:29:52Z</time>
      </trkpt>
      <trkpt lat="46.735838" lon="-123.965821">
        <ele>8.3</ele>
        <time>2015-04-11T12:31:27Z</time>
      </trkpt>
      <trkpt lat="46.734038" lon="-123.961276">
        <ele>4.8</ele>
        <time>2015-04-11T12:32:26Z</time>
      </trkpt>
      <trkpt lat="46.731202" lon="-123.95825">
        <ele>5.3</ele>
        <time>2015-04-11T12:33:31Z</time>
      </trkpt>
      <trkpt lat="46.725796" lon="-123.947181">
        <ele>5.0</ele>
        <time>2015-04-11T12:36:11Z</time>
      </trkpt>
      <trkpt lat="46.72552" lon="-123.927078">
        <ele>5.4</ele>
        <time>2015-04-11T12:40:01Z</time>
      </trkpt>
      <trkpt lat="46.72794" lon="-123.922643">
        <ele>5.2</ele>
        <time>2015-04-11T12:41:08Z</time>
      </trkpt>
      <trkpt lat="46.732141" lon="-123.922215">
        <ele>7.2</ele>
        <time>2015-04-11T12:42:21Z</time>
      </trkpt>
      <trkpt lat="46.734749" lon="-123.920282">
        <ele>18.2</ele>
        <time>2015-04-11T12:43:37Z</time>
      </trkpt>
      <trkpt lat="46.739849" lon="-123.92039">
        <ele>12.4</ele>
        <time>2015-04-11T12:45:19Z</time>
      </trkpt>
      <trkpt lat="46.74448" lon="-123.915622">
        <ele>6.7</ele>
        <time>2015-04-11T12:47:14Z</time>
      </trkpt>
      <trkpt lat="46.747903" lon="-123.908981">
        <ele>5.3</ele>
        <time>2015-04-11T12:49:14Z</time>
      </trkpt>
      <trkpt lat="46.750541" lon="-123.900689">
        <ele>5.7</ele>
        <time>2015-04-11T12:51:18Z</time>
      </trkpt>
      <trkpt lat="46.752081" lon="-123.891561">
        <ele>5.2</ele>
        <time>2015-04-11T12:53:55Z</time>
      </trkpt>
      <trkpt lat="46.751148" lon="-123.886467">
        <ele>13.1</ele>
        <time>2015-04-11T12:55:20Z</time>
      </trkpt>
      <trkpt lat="46.749455" lon="-123.883906">
        <ele>8.5</ele>
        <time>2015-04-11T12:56:07Z</time>
      </trkpt>
      <trkpt lat="46.744219" lon="-123.884745">
        <ele>5.0</ele>
        <time>2015-04-11T12:57:31Z</time>
      </trkpt>
      <trkpt lat="46.735958" lon="-123.880432">
        <ele>6.0</ele>
        <time>2015-04-11T12:59:54Z</time>
      </trkpt>
      <trkpt lat="46.730358" lon="-123.875348">
        <ele>5.8</ele>
        <time>2015-04-11T13:01:42Z</time>
      </trkpt>
      <trkpt lat="46.729178" lon="-123.87109">
        <ele>6.8</ele>
        <time>2015-04-11T13:02:41Z</time>
      </trkpt>
      <trkpt lat="46.729427" lon="-123.857235">
        <ele>4.9</ele>
        <time>2015-04-11T13:05:34Z</time>
      </trkpt>
      <trkpt lat="46.724366" lon="-123.849604">
        <ele>7.5</ele>
        <time>2015-04-11T13:07:53Z</time>
      </trkpt>
      <trkpt lat="46.720789" lon="-123.848135">
        <ele>19.6</ele>
        <time>2015-04-11T13:09:23Z</time>
      </trkpt>
      <trkpt lat="46.719772" lon="-123.846335">
        <ele>21.1</ele>
        <time>2015-04-11T13:10:00Z</time>
      </trkpt>
      <trkpt lat="46.721747" lon="-123.838452">
        <ele>4.2</ele>
        <time>2015-04-11T13:13:41Z</time>
      </trkpt>
      <trkpt lat="46.719846" lon="-123.831009">
        <ele>9.6</ele>
        <time>2015-04-11T13:15:24Z</time>
      </trkpt>
      <trkpt lat="46.714755" lon="-123.826894">
        <ele>10.8</ele>
        <time>2015-04-11T13:17:06Z</time>
      </trkpt>
      <trkpt lat="46.710558" lon="-123.826264">
        <ele>14.9</ele>
        <time>2015-04-11T13:18:18Z</time>
      </trkpt>
      <trkpt lat="46.70754" lon="-123.823856">
        <ele>5.2</ele>
        <time>2015-04-11T13:21:31Z</time>
      </trkpt>
      <trkpt lat="46.685062" lon="-123.789392">
        <ele>4.5</ele>
        <time>2015-04-11T13:30:23Z</time>
      </trkpt>
      <trkpt lat="46.680349" lon="-123.767899">
        <ele>10.6</ele>
        <time>2015-04-11T13:35:12Z</time>
      </trkpt>
      <trkpt lat="46.686817" lon="-123.750755">
        <ele>4.6</ele>
        <time>2015-04-11T13:39:01Z</time>
      </trkpt>
      <trkpt lat="46.691831" lon="-123.749063">
        <ele>6.4</ele>
        <time>2015-04-11T13:40:33Z</time>
      </trkpt>
      <trkpt lat="46.693425" lon="-123.747378">
        <ele>9.7</ele>
        <time>2015-04-11T13:41:16Z</time>
      </trkpt>
      <trkpt lat="46.693563" lon="-123.736147">
        <ele>14.0</ele>
        <time>2015-04-11T13:43:46Z</time>
      </trkpt>
      <trkpt lat="46.690327" lon="-123.731471">
        <ele>4.6</ele>
        <time>2015-04-11T13:45:03Z</time>
      </trkpt>
      <trkpt lat="46.686383" lon="-123.733541">
        <ele>4.0</ele>
        <time>2015-04-11T14:05:19Z</time>
      </trkpt>
      <trkpt lat="46.688825" lon="-123.732425">
        <ele>4.0</ele>
        <time>2015-04-11T15:21:20Z</time>
      </trkpt>
      <trkpt lat="46.688533" lon="-123.729926">
        <ele>3.9</ele>
        <time>2015-04-11T15:22:05Z</time>
      </trkpt>
      <trkpt lat="46.683588" lon="-123.729434">
        <ele>3.7</ele>
        <time>2015-04-11T15:23:30Z</time>
      </trkpt>
      <trkpt lat="46.682371" lon="-123.73043">
        <ele>4.0</ele>
        <time>2015-04-11T15:23:58Z</time>
      </trkpt>
      <trkpt lat="46.681823" lon="-123.729664">
        <ele>3.9</ele>
        <time>2015-04-11T15:24:07Z</time>
      </trkpt>
      <trkpt lat="46.679132" lon="-123.719605">
        <ele>7.7</ele>
        <time>2015-04-11T15:25:57Z</time>
      </trkpt>
      <trkpt lat="46.677517" lon="-123.717347">
        <ele>8.5</ele>
        <time>2015-04-11T15:26:36Z</time>
      </trkpt>
      <trkpt lat="46.678024" lon="-123.710502">
        <ele>7.4</ele>
        <time>2015-04-11T15:27:49Z</time>
      </trkpt>
      <trkpt lat="46.674913" lon="-123.703599">
        <ele>9.6</ele>
        <time>2015-04-11T15:29:10Z</time>
      </trkpt>
      <trkpt lat="46.669659" lon="-123.695637">
        <ele>37.9</ele>
        <time>2015-04-11T15:32:00Z</time>
      </trkpt>
      <trkpt lat="46.652667" lon="-123.681293">
        <ele>6.2</ele>
        <time>2015-04-11T15:35:58Z</time>
      </trkpt>
      <trkpt lat="46.647009" lon="-123.662453">
        <ele>14.9</ele>
        <time>2015-04-11T15:39:33Z</time>
      </trkpt>
      <trkpt lat="46.617192" lon="-123.645017">
        <ele>21.1</ele>
        <time>2015-04-11T15:47:35Z</time>
      </trkpt>
      <trkpt lat="46.611982" lon="-123.640203">
        <ele>13.2</ele>
        <time>2015-04-11T15:49:09Z</time>
      </trkpt>
      <trkpt lat="46.596464" lon="-123.620104">
        <ele>32.1</ele>
        <time>2015-04-11T15:54:58Z</time>
      </trkpt>
      <trkpt lat="46.591726" lon="-123.618637">
        <ele>31.6</ele>
        <time>2015-04-11T15:56:21Z</time>
      </trkpt>
      <trkpt lat="46.564316" lon="-123.618545">
        <ele>40.4</ele>
        <time>2015-04-11T16:04:03Z</time>
      </trkpt>
      <trkpt lat="46.555143" lon="-123.610558">
        <ele>39.4</ele>
        <time>2015-04-11T16:06:47Z</time>
      </trkpt>
      <trkpt lat="46.554659" lon="-123.604053">
        <ele>54.7</ele>
        <time>2015-04-11T16:08:17Z</time>
      </trkpt>
      <trkpt lat="46.556644" lon="-123.599076">
        <ele>52.4</ele>
        <time>2015-04-11T16:09:27Z</time>
      </trkpt>
      <trkpt lat="46.561938" lon="-123.591316">
        <ele>51.3</ele>
        <time>2015-04-11T16:11:22Z</time>
      </trkpt>
      <trkpt lat="46.563206" lon="-123.587302">
        <ele>53.9</ele>
        <time>2015-04-11T16:12:10Z</time>
      </trkpt>
      <trkpt lat="46.563246" lon="-123.579168">
        <ele>61.1</ele>
        <time>2015-04-11T16:13:47Z</time>
      </trkpt>
      <trkpt lat="46.560873" lon="-123.555979">
        <ele>60.0</ele>
        <time>2015-04-11T16:18:11Z</time>
      </trkpt>
      <trkpt lat="46.557312" lon="-123.538998">
        <ele>57.0</ele>
        <time>2015-04-11T16:21:29Z</time>
      </trkpt>
      <trkpt lat="46.549298" lon="-123.52856">
        <ele>69.1</ele>
        <time>2015-04-11T16:24:21Z</time>
      </trkpt>
      <trkpt lat="46.545083" lon="-123.519933">
        <ele>70.9</ele>
        <time>2015-04-11T16:26:19Z</time>
      </trkpt>
      <trkpt lat="46.540989" lon="-123.496103">
        <ele>67.8</ele>
        <time>2015-04-11T16:31:04Z</time>
      </trkpt>
      <trkpt lat="46.541499" lon="-123.490265">
        <ele>79.4</ele>
        <time>2015-04-11T16:32:11Z</time>
      </trkpt>
      <trkpt lat="46.543963" lon="-123.480888">
        <ele>94.0</ele>
        <time>2015-04-11T16:34:30Z</time>
      </trkpt>
      <trkpt lat="46.544531" lon="-123.472954">
        <ele>103.1</ele>
        <time>2015-04-11T16:36:37Z</time>
      </trkpt>
      <trkpt lat="46.542278" lon="-123.465693">
        <ele>110.8</ele>
        <time>2015-04-11T16:38:22Z</time>
      </trkpt>
      <trkpt lat="46.545328" lon="-123.460964">
        <ele>120.6</ele>
        <time>2015-04-11T16:40:02Z</time>
      </trkpt>
      <trkpt lat="46.547825" lon="-123.452963">
        <ele>135.9</ele>
        <time>2015-04-11T16:42:28Z</time>
      </trkpt>
      <trkpt lat="46.548413" lon="-123.441501">
        <ele>150.4</ele>
        <time>2015-04-11T16:45:48Z</time>
      </trkpt>
      <trkpt lat="46.547491" lon="-123.43632">
        <ele>167.8</ele>
        <time>2015-04-11T16:47:22Z</time>
      </trkpt>
      <trkpt lat="46.550828" lon="-123.417611">
        <ele>219.0</ele>
        <time>2015-04-11T16:53:40Z</time>
      </trkpt>
      <trkpt lat="46.550689" lon="-123.413683">
        <ele>231.9</ele>
        <time>2015-04-11T16:55:11Z</time>
      </trkpt>
      <trkpt lat="46.549201" lon="-123.412258">
        <ele>235.8</ele>
        <time>2015-04-11T17:00:02Z</time>
      </trkpt>
      <trkpt lat="46.546692" lon="-123.405728">
        <ele>227.6</ele>
        <time>2015-04-11T17:01:16Z</time>
      </trkpt>
      <trkpt lat="46.544357" lon="-123.393771">
        <ele>223.4</ele>
        <time>2015-04-11T17:03:16Z</time>
      </trkpt>
      <trkpt lat="46.544952" lon="-123.389945">
        <ele>219.5</ele>
        <time>2015-04-11T17:03:51Z</time>
      </trkpt>
      <trkpt lat="46.551963" lon="-123.374372">
        <ele>201.0</ele>
        <time>2015-04-11T17:06:34Z</time>
      </trkpt>
      <trkpt lat="46.551638" lon="-123.353944">
        <ele>179.5</ele>
        <time>2015-04-11T17:09:32Z</time>
      </trkpt>
      <trkpt lat="46.552651" lon="-123.34978">
        <ele>180.8</ele>
        <time>2015-04-11T17:10:12Z</time>
      </trkpt>
      <trkpt lat="46.549912" lon="-123.338634">
        <ele>181.3</ele>
        <time>2015-04-11T17:12:04Z</time>
      </trkpt>
      <trkpt lat="46.553377" lon="-123.328539">
        <ele>140.7</ele>
        <time>2015-04-11T17:13:39Z</time>
      </trkpt>
      <trkpt lat="46.553463" lon="-123.318298">
        <ele>136.2</ele>
        <time>2015-04-11T17:15:18Z</time>
      </trkpt>
      <trkpt lat="46.55744" lon="-123.314194">
        <ele>140.8</ele>
        <time>2015-04-11T17:16:25Z</time>
      </trkpt>
      <trkpt lat="46.568201" lon="-123.30669">
        <ele>129.6</ele>
        <time>2015-04-11T17:19:13Z</time>
      </trkpt>
      <trkpt lat="46.570022" lon="-123.302986">
        <ele>117.2</ele>
        <time>2015-04-11T17:19:51Z</time>
      </trkpt>
      <trkpt lat="46.570097" lon="-123.297428">
        <ele>127.7</ele>
        <time>2015-04-11T17:20:57Z</time>
      </trkpt>
      <trkpt lat="46.575602" lon="-123.297172">
        <ele>120.6</ele>
        <time>2015-04-11T17:40:03Z</time>
      </trkpt>
      <trkpt lat="46.583303" lon="-123.289173">
        <ele>112.2</ele>
        <time>2015-04-11T17:42:07Z</time>
      </trkpt>
      <trkpt lat="46.585831" lon="-123.285135">
        <ele>112.9</ele>
        <time>2015-04-11T17:42:50Z</time>
      </trkpt>
      <trkpt lat="46.601876" lon="-123.275724">
        <ele>100.3</ele>
        <time>2015-04-11T17:46:16Z</time>
      </trkpt>
      <trkpt lat="46.620894" lon="-123.274143">
        <ele>111.7</ele>
        <time>2015-04-11T17:50:21Z</time>
      </trkpt>
      <trkpt lat="46.628033" lon="-123.280241">
        <ele>108.0</ele>
        <time>2015-04-11T17:52:40Z</time>
      </trkpt>
      <trkpt lat="46.629496" lon="-123.279471">
        <ele>107.0</ele>
        <time>2015-04-11T17:53:03Z</time>
      </trkpt>
      <trkpt lat="46.630483" lon="-123.276681">
        <ele>98.6</ele>
        <time>2015-04-11T17:53:28Z</time>
      </trkpt>
      <trkpt lat="46.629844" lon="-123.25379">
        <ele>97.3</ele>
        <time>2015-04-11T17:56:41Z</time>
      </trkpt>
      <trkpt lat="46.631801" lon="-123.242619">
        <ele>87.2</ele>
        <time>2015-04-11T17:58:18Z</time>
      </trkpt>
      <trkpt lat="46.630387" lon="-123.233752">
        <ele>82.9</ele>
        <time>2015-04-11T17:59:40Z</time>
      </trkpt>
      <trkpt lat="46.631068" lon="-123.221873">
        <ele>90.8</ele>
        <time>2015-04-11T18:01:38Z</time>
      </trkpt>
      <trkpt lat="46.62999" lon="-123.213831">
        <ele>84.7</ele>
        <time>2015-04-11T18:02:57Z</time>
      </trkpt>
      <trkpt lat="46.634416" lon="-123.181003">
        <ele>82.4</ele>
        <time>2015-04-11T18:08:17Z</time>
      </trkpt>
      <trkpt lat="46.632296" lon="-123.17294">
        <ele>91.1</ele>
        <time>2015-04-11T18:10:00Z</time>
      </trkpt>
      <trkpt lat="46.631192" lon="-123.169254">
        <ele>104.3</ele>
        <time>2015-04-11T18:11:24Z</time>
      </trkpt>
      <trkpt lat="46.629969" lon="-123.168337">
        <ele>108.4</ele>
        <time>2015-04-11T18:12:00Z</time>
      </trkpt>
      <trkpt lat="46.625738" lon="-123.169556">
        <ele>96.4</ele>
        <time>2015-04-11T18:13:09Z</time>
      </trkpt>
      <trkpt lat="46.616729" lon="-123.174523">
        <ele>77.9</ele>
        <time>2015-04-11T18:15:04Z</time>
      </trkpt>
      <trkpt lat="46.612051" lon="-123.173858">
        <ele>75.0</ele>
        <time>2015-04-11T18:16:16Z</time>
      </trkpt>
      <trkpt lat="46.597629" lon="-123.15848">
        <ele>75.2</ele>
        <time>2015-04-11T18:22:11Z</time>
      </trkpt>
      <trkpt lat="46.595822" lon="-123.152076">
        <ele>80.2</ele>
        <time>2015-04-11T18:23:48Z</time>
      </trkpt>
      <trkpt lat="46.598011" lon="-123.134308">
        <ele>71.6</ele>
        <time>2015-04-11T18:26:50Z</time>
      </trkpt>
      <trkpt lat="46.603134" lon="-123.123613">
        <ele>62.2</ele>
        <time>2015-04-11T18:28:59Z</time>
      </trkpt>
      <trkpt lat="46.611269" lon="-123.117119">
        <ele>78.3</ele>
        <time>2015-04-11T18:31:19Z</time>
      </trkpt>
      <trkpt lat="46.613362" lon="-123.110664">
        <ele>72.5</ele>
        <time>2015-04-11T18:32:22Z</time>
      </trkpt>
      <trkpt lat="46.61671" lon="-123.108581">
        <ele>68.8</ele>
        <time>2015-04-11T18:33:11Z</time>
      </trkpt>
      <trkpt lat="46.621983" lon="-123.098802">
        <ele>99.8</ele>
        <time>2015-04-11T18:35:44Z</time>
      </trkpt>
      <trkpt lat="46.625645" lon="-123.098286">
        <ele>89.6</ele>
        <time>2015-04-11T18:37:38Z</time>
      </trkpt>
      <trkpt lat="46.626835" lon="-123.096691">
        <ele>89.1</ele>
        <time>2015-04-11T18:38:03Z</time>
      </trkpt>
      <trkpt lat="46.626953" lon="-123.063263">
        <ele>56.9</ele>
        <time>2015-04-11T18:43:50Z</time>
      </trkpt>
      <trkpt lat="46.628095" lon="-123.049242">
        <ele>56.8</ele>
        <time>2015-04-11T18:46:26Z</time>
      </trkpt>
      <trkpt lat="46.636253" lon="-123.03652">
        <ele>60.8</ele>
        <time>2015-04-11T18:49:13Z</time>
      </trkpt>
      <trkpt lat="46.638726" lon="-123.024283">
        <ele>58.4</ele>
        <time>2015-04-11T18:51:23Z</time>
      </trkpt>
      <trkpt lat="46.647584" lon="-123.014784">
        <ele>59.8</ele>
        <time>2015-04-11T18:54:09Z</time>
      </trkpt>
      <trkpt lat="46.651887" lon="-123.018534">
        <ele>58.4</ele>
        <time>2015-04-11T18:58:19Z</time>
      </trkpt>
      <trkpt lat="46.657797" lon="-123.017801">
        <ele>58.6</ele>
        <time>2015-04-11T19:00:03Z</time>
      </trkpt>
      <trkpt lat="46.661088" lon="-123.013116">
        <ele>59.8</ele>
        <time>2015-04-11T19:01:21Z</time>
      </trkpt>
      <trkpt lat="46.669525" lon="-123.009377">
        <ele>56.0</ele>
        <time>2015-04-11T19:03:56Z</time>
      </trkpt>
      <trkpt lat="46.674235" lon="-123.002913">
        <ele>58.1</ele>
        <time>2015-04-11T19:05:54Z</time>
      </trkpt>
      <trkpt lat="46.676803" lon="-123.001602">
        <ele>53.0</ele>
        <time>2015-04-11T19:06:50Z</time>
      </trkpt>
      <trkpt lat="46.679091" lon="-122.998572">
        <ele>58.0</ele>
        <time>2015-04-11T19:08:01Z</time>
      </trkpt>
      <trkpt lat="46.683345" lon="-122.996723">
        <ele>63.6</ele>
        <time>2015-04-11T19:10:45Z</time>
      </trkpt>
      <trkpt lat="46.689549" lon="-122.997008">
        <ele>55.6</ele>
        <time>2015-04-11T19:13:12Z</time>
      </trkpt>
      <trkpt lat="46.69187" lon="-122.995133">
        <ele>65.6</ele>
        <time>2015-04-11T19:14:07Z</time>
      </trkpt>
      <trkpt lat="46.699956" lon="-122.993506">
        <ele>70.2</ele>
        <time>2015-04-11T19:17:02Z</time>
      </trkpt>
      <trkpt lat="46.702396" lon="-122.987646">
        <ele>64.0</ele>
        <time>2015-04-11T19:22:17Z</time>
      </trkpt>
      <trkpt lat="46.706325" lon="-122.986932">
        <ele>56.5</ele>
        <time>2015-04-11T19:24:42Z</time>
      </trkpt>
      <trkpt lat="46.706911" lon="-122.98262">
        <ele>54.8</ele>
        <time>2015-04-11T19:25:35Z</time>
      </trkpt>
      <trkpt lat="46.711893" lon="-122.979554">
        <ele>58.8</ele>
        <time>2015-04-11T19:27:09Z</time>
      </trkpt>
      <trkpt lat="46.710477" lon="-122.967255">
        <ele>55.1</ele>
        <time>2015-04-11T19:47:33Z</time>
      </trkpt>
      <trkpt lat="46.712395" lon="-122.962184">
        <ele>56.3</ele>
        <time>2015-04-11T19:48:38Z</time>
      </trkpt>
      <trkpt lat="46.711629" lon="-122.956217">
        <ele>56.5</ele>
        <time>2015-04-11T19:50:05Z</time>
      </trkpt>
      <trkpt lat="46.721511" lon="-122.95206">
        <ele>58.1</ele>
        <time>2015-04-11T19:53:13Z</time>
      </trkpt>
      <trkpt lat="46.728896" lon="-122.952242">
        <ele>56.9</ele>
        <time>2015-04-11T19:55:15Z</time>
      </trkpt>
      <trkpt lat="46.729143" lon="-122.953628">
        <ele>56.5</ele>
        <time>2015-04-11T19:55:40Z</time>
      </trkpt>
      <trkpt lat="46.748285" lon="-122.953833">
        <ele>61.8</ele>
        <time>2015-04-11T20:00:46Z</time>
      </trkpt>
      <trkpt lat="46.752835" lon="-122.95063">
        <ele>64.7</ele>
        <time>2015-04-11T20:02:06Z</time>
      </trkpt>
      <trkpt lat="46.754072" lon="-122.937174">
        <ele>62.7</ele>
        <time>2015-04-11T20:04:30Z</time>
      </trkpt>
      <trkpt lat="46.765299" lon="-122.928902">
        <ele>63.7</ele>
        <time>2015-04-11T20:07:36Z</time>
      </trkpt>
      <trkpt lat="46.768729" lon="-122.924117">
        <ele>65.5</ele>
        <time>2015-04-11T20:08:50Z</time>
      </trkpt>
      <trkpt lat="46.772056" lon="-122.923691">
        <ele>64.6</ele>
        <time>2015-04-11T20:09:42Z</time>
      </trkpt>
      <trkpt lat="46.774469" lon="-122.922063">
        <ele>67.8</ele>
        <time>2015-04-11T20:10:24Z</time>
      </trkpt>
      <trkpt lat="46.77825" lon="-122.917087">
        <ele>66.8</ele>
        <time>2015-04-11T20:11:35Z</time>
      </trkpt>
      <trkpt lat="46.778357" lon="-122.912374">
        <ele>68.5</ele>
        <time>2015-04-11T20:12:25Z</time>
      </trkpt>
      <trkpt lat="46.779584" lon="-122.910327">
        <ele>68.3</ele>
        <time>2015-04-11T20:12:53Z</time>
      </trkpt>
      <trkpt lat="46.788635" lon="-122.902255">
        <ele>72.8</ele>
        <time>2015-04-11T20:15:34Z</time>
      </trkpt>
      <trkpt lat="46.790947" lon="-122.898259">
        <ele>72.8</ele>
        <time>2015-04-11T20:16:27Z</time>
      </trkpt>
      <trkpt lat="46.796798" lon="-122.896436">
        <ele>80.5</ele>
        <time>2015-04-11T20:18:10Z</time>
      </trkpt>
      <trkpt lat="46.798626" lon="-122.894899">
        <ele>94.9</ele>
        <time>2015-04-11T20:19:23Z</time>
      </trkpt>
      <trkpt lat="46.799253" lon="-122.891193">
        <ele>98.7</ele>
        <time>2015-04-11T20:25:48Z</time>
      </trkpt>
      <trkpt lat="46.796329" lon="-122.882203">
        <ele>82.7</ele>
        <time>2015-04-11T20:27:12Z</time>
      </trkpt>
      <trkpt lat="46.795466" lon="-122.874993">
        <ele>83.5</ele>
        <time>2015-04-11T20:28:38Z</time>
      </trkpt>
      <trkpt lat="46.797387" lon="-122.871415">
        <ele>77.3</ele>
        <time>2015-04-11T20:29:22Z</time>
      </trkpt>
      <trkpt lat="46.806099" lon="-122.863593">
        <ele>80.9</ele>
        <time>2015-04-11T20:32:11Z</time>
      </trkpt>
      <trkpt lat="46.809144" lon="-122.862785">
        <ele>78.3</ele>
        <time>2015-04-11T20:33:03Z</time>
      </trkpt>
      <trkpt lat="46.841985" lon="-122.861449">
        <ele>86.5</ele>
        <time>2015-04-11T20:42:44Z</time>
      </trkpt>
      <trkpt lat="46.851476" lon="-122.861888">
        <ele>81.1</ele>
        <time>2015-04-11T20:45:34Z</time>
      </trkpt>
      <trkpt lat="46.852068" lon="-122.858854">
        <ele>85.0</ele>
        <time>2015-04-11T20:47:44Z</time>
      </trkpt>
      <trkpt lat="46.855064" lon="-122.858558">
        <ele>87.2</ele>
        <time>2015-04-11T20:49:02Z</time>
      </trkpt>
      <trkpt lat="46.859111" lon="-122.793191">
        <ele>99.9</ele>
        <time>2015-04-11T21:02:41Z</time>
      </trkpt>
      <trkpt lat="46.861555" lon="-122.780555">
        <ele>111.3</ele>
        <time>2015-04-11T21:20:16Z</time>
      </trkpt>
      <trkpt lat="46.861255" lon="-122.77508">
        <ele>106.8</ele>
        <time>2015-04-11T21:21:29Z</time>
      </trkpt>
      <trkpt lat="46.865559" lon="-122.766765">
        <ele>106.3</ele>
        <time>2015-04-11T21:23:22Z</time>
      </trkpt>
      <trkpt lat="46.86915" lon="-122.753815">
        <ele>113.1</ele>
        <time>2015-04-11T21:25:56Z</time>
      </trkpt>
      <trkpt lat="46.876226" lon="-122.71312">
        <ele>112.3</ele>
        <time>2015-04-11T21:33:14Z</time>
      </trkpt>
      <trkpt lat="46.888323" lon="-122.688831">
        <ele>132.3</ele>
        <time>2015-04-11T22:45:06Z</time>
      </trkpt>
      <trkpt lat="46.89144" lon="-122.692285">
        <ele>134.5</ele>
        <time>2015-04-11T22:46:25Z</time>
      </trkpt>
      <trkpt lat="46.894249" lon="-122.69246">
        <ele>141.7</ele>
        <time>2015-04-11T22:48:28Z</time>
      </trkpt>
      <trkpt lat="46.894479" lon="-122.7133">
        <ele>149.3</ele>
        <time>2015-04-11T22:53:10Z</time>
      </trkpt>
      <trkpt lat="46.903197" lon="-122.72366">
        <ele>146.6</ele>
        <time>2015-04-11T22:56:22Z</time>
      </trkpt>
      <trkpt lat="46.908738" lon="-122.732672">
        <ele>138.9</ele>
        <time>2015-04-11T22:58:24Z</time>
      </trkpt>
      <trkpt lat="46.916152" lon="-122.738142">
        <ele>120.3</ele>
        <time>2015-04-11T23:00:09Z</time>
      </trkpt>
      <trkpt lat="46.920375" lon="-122.747326">
        <ele>120.8</ele>
        <time>2015-04-11T23:02:10Z</time>
      </trkpt>
      <trkpt lat="46.927768" lon="-122.752033">
        <ele>118.1</ele>
        <time>2015-04-11T23:09:09Z</time>
      </trkpt>
      <trkpt lat="46.934794" lon="-122.759406">
        <ele>105.0</ele>
        <time>2015-04-11T23:11:19Z</time>
      </trkpt>
      <trkpt lat="46.936977" lon="-122.76348">
        <ele>94.6</ele>
        <time>2015-04-11T23:11:55Z</time>
      </trkpt>
      <trkpt lat="46.944456" lon="-122.768319">
        <ele>88.9</ele>
        <time>2015-04-11T23:13:39Z</time>
      </trkpt>
      <trkpt lat="46.951372" lon="-122.779387">
        <ele>70.7</ele>
        <time>2015-04-11T23:15:56Z</time>
      </trkpt>
      <trkpt lat="46.956093" lon="-122.783593">
        <ele>67.8</ele>
        <time>2015-04-11T23:17:06Z</time>
      </trkpt>
      <trkpt lat="46.9651" lon="-122.79495">
        <ele>79.1</ele>
        <time>2015-04-11T23:20:34Z</time>
      </trkpt>
      <trkpt lat="46.97047" lon="-122.799679">
        <ele>73.6</ele>
        <time>2015-04-11T23:22:12Z</time>
      </trkpt>
      <trkpt lat="46.974642" lon="-122.808709">
        <ele>66.5</ele>
        <time>2015-04-11T23:24:26Z</time>
      </trkpt>
      <trkpt lat="46.978329" lon="-122.81221">
        <ele>66.1</ele>
        <time>2015-04-11T23:25:52Z</time>
      </trkpt>
      <trkpt lat="46.979722" lon="-122.816692">
        <ele>60.2</ele>
        <time>2015-04-11T23:26:45Z</time>
      </trkpt>
      <trkpt lat="46.98218" lon="-122.819543">
        <ele>58.7</ele>
        <time>2015-04-11T23:27:32Z</time>
      </trkpt>
      <trkpt lat="46.990373" lon="-122.823121">
        <ele>65.4</ele>
        <time>2015-04-11T23:30:06Z</time>
      </trkpt>
      <trkpt lat="47.037406" lon="-122.823339">
        <ele>60.3</ele>
        <time>2015-04-12T00:02:17Z</time>
      </trkpt>
      <trkpt lat="47.041906" lon="-122.844476">
        <ele>66.6</ele>
        <time>2015-04-12T00:06:55Z</time>
      </trkpt>
      <trkpt lat="47.041685" lon="-122.853187">
        <ele>50.4</ele>
        <time>2015-04-12T00:08:26Z</time>
      </trkpt>
      <trkpt lat="47.046945" lon="-122.874997">
        <ele>64.1</ele>
        <time>2015-04-12T00:12:39Z</time>
      </trkpt>
      <trkpt lat="47.046143" lon="-122.896766">
        <ele>4.6</ele>
        <time>2015-04-12T00:16:10Z</time>
      </trkpt>
      <trkpt lat="47.043543" lon="-122.896605">
        <ele>5.0</ele>
        <time>2015-04-12T00:17:27Z</time>
      </trkpt>
      <trkpt lat="47.043251" lon="-122.90147">
        <ele>7.1</ele>
        <time>2015-04-12T00:18:50Z</time>
      </trkpt>
      <trkpt lat="47.04248" lon="-122.90143">
        <ele>9.5</ele>
        <time>2015-04-12T00:29:28Z</time>
      </trkpt>
    </trkseg>
  </trk>
  <desc>Recorded on an IPhone with Strava.</desc>
</gpx>
