<?xml version="1.0" encoding="UTF-8"?>
<gpx xmlns:xsi="http://www.w3.org/2001/XMLSchema-instance" xmlns:gpxdata="http://www.cluetrust.com/XML/GPXDATA/1/0" xmlns="http://www.topografix.com/GPX/1/0" xsi:schemaLocation="http://www.topografix.com/GPX/1/0 http://www.topografix.com/GPX/1/0/gpx.xsd http://www.cluetrust.com/XML/GPXDATA/1/0 http://www.cluetrust.com/Schemas/gpxdata10.xsd" version="1.0" creator="http://ridewithgps.com/">
  <author>RideWithGPS LLC</author>
  <url>http://ridewithgps.com/routes/6632587</url>
  <time>2014-12-14T13:13:56Z</time>
  <trk>
    <name>PBP08E1_Brest_Carhaix-Plouguer</name>
    <trkseg>
      <trkpt lat="48.40569" lon="-4.48085">
        <ele>55.2</ele>
      </trkpt>
      <trkpt lat="48.40596" lon="-4.47897">
        <ele>57.6</ele>
      </trkpt>
      <trkpt lat="48.40663" lon="-4.4793">
        <ele>54.8</ele>
      </trkpt>
      <trkpt lat="48.40675" lon="-4.47565">
        <ele>63.6</ele>
      </trkpt>
      <trkpt lat="48.40692" lon="-4.47463">
        <ele>63.9</ele>
      </trkpt>
      <trkpt lat="48.40802" lon="-4.47096">
        <ele>73</ele>
      </trkpt>
      <trkpt lat="48.40896" lon="-4.46662">
        <ele>77.8</ele>
      </trkpt>
      <trkpt lat="48.41284" lon="-4.45227">
        <ele>67.9</ele>
      </trkpt>
      <trkpt lat="48.41373" lon="-4.44584">
        <ele>58.5</ele>
      </trkpt>
      <trkpt lat="48.41442" lon="-4.43934">
        <ele>65</ele>
      </trkpt>
      <trkpt lat="48.41501" lon="-4.43618">
        <ele>63.8</ele>
      </trkpt>
      <trkpt lat="48.41661" lon="-4.43268">
        <ele>51.3</ele>
      </trkpt>
      <trkpt lat="48.41712" lon="-4.43112">
        <ele>55.1</ele>
      </trkpt>
      <trkpt lat="48.41731" lon="-4.431">
        <ele>57.3</ele>
      </trkpt>
      <trkpt lat="48.41826" lon="-4.42909">
        <ele>66.7</ele>
      </trkpt>
      <trkpt lat="48.41882" lon="-4.42838">
        <ele>66.8</ele>
      </trkpt>
      <trkpt lat="48.42766" lon="-4.41307">
        <ele>58.3</ele>
      </trkpt>
      <trkpt lat="48.42801" lon="-4.41211">
        <ele>56.4</ele>
      </trkpt>
      <trkpt lat="48.4284" lon="-4.41176">
        <ele>56</ele>
      </trkpt>
      <trkpt lat="48.43388" lon="-4.40218">
        <ele>83.4</ele>
      </trkpt>
      <trkpt lat="48.43502" lon="-4.40072">
        <ele>91</ele>
      </trkpt>
      <trkpt lat="48.43548" lon="-4.39986">
        <ele>92.3</ele>
      </trkpt>
      <trkpt lat="48.43586" lon="-4.38393">
        <ele>68.2</ele>
      </trkpt>
      <trkpt lat="48.43565" lon="-4.38312">
        <ele>64.4</ele>
      </trkpt>
      <trkpt lat="48.43589" lon="-4.38242">
        <ele>63.6</ele>
      </trkpt>
      <trkpt lat="48.43597" lon="-4.37841">
        <ele>48.1</ele>
      </trkpt>
      <trkpt lat="48.43469" lon="-4.3627">
        <ele>80.7</ele>
      </trkpt>
      <trkpt lat="48.43396" lon="-4.34669">
        <ele>77.1</ele>
      </trkpt>
      <trkpt lat="48.43552" lon="-4.33799">
        <ele>76.3</ele>
      </trkpt>
      <trkpt lat="48.43733" lon="-4.33016">
        <ele>99.4</ele>
      </trkpt>
      <trkpt lat="48.43878" lon="-4.32317">
        <ele>108</ele>
      </trkpt>
      <trkpt lat="48.43881" lon="-4.32248">
        <ele>105.9</ele>
      </trkpt>
      <trkpt lat="48.4393" lon="-4.32095">
        <ele>101.4</ele>
      </trkpt>
      <trkpt lat="48.44498" lon="-4.29546">
        <ele>33.7</ele>
      </trkpt>
      <trkpt lat="48.44549" lon="-4.2914">
        <ele>28.7</ele>
      </trkpt>
      <trkpt lat="48.44552" lon="-4.28886">
        <ele>24.2</ele>
      </trkpt>
      <trkpt lat="48.44526" lon="-4.28742">
        <ele>19.4</ele>
      </trkpt>
      <trkpt lat="48.44414" lon="-4.28509">
        <ele>22.2</ele>
      </trkpt>
      <trkpt lat="48.44161" lon="-4.28149">
        <ele>11.7</ele>
      </trkpt>
      <trkpt lat="48.44132" lon="-4.28035">
        <ele>9.3</ele>
      </trkpt>
      <trkpt lat="48.44132" lon="-4.27972">
        <ele>9.1</ele>
      </trkpt>
      <trkpt lat="48.4415" lon="-4.27915">
        <ele>9.7</ele>
      </trkpt>
      <trkpt lat="48.44481" lon="-4.27453">
        <ele>14.8</ele>
      </trkpt>
      <trkpt lat="48.44525" lon="-4.27366">
        <ele>14.3</ele>
      </trkpt>
      <trkpt lat="48.44566" lon="-4.27181">
        <ele>12.4</ele>
      </trkpt>
      <trkpt lat="48.44564" lon="-4.27059">
        <ele>4.8</ele>
      </trkpt>
      <trkpt lat="48.44542" lon="-4.26997">
        <ele>1</ele>
      </trkpt>
      <trkpt lat="48.44572" lon="-4.2694">
        <ele>2.5</ele>
      </trkpt>
      <trkpt lat="48.44575" lon="-4.26796">
        <ele>3</ele>
      </trkpt>
      <trkpt lat="48.44597" lon="-4.26676">
        <ele>3.2</ele>
      </trkpt>
      <trkpt lat="48.44678" lon="-4.26335">
        <ele>2.5</ele>
      </trkpt>
      <trkpt lat="48.44707" lon="-4.26252">
        <ele>6.4</ele>
      </trkpt>
      <trkpt lat="48.44763" lon="-4.26194">
        <ele>6.4</ele>
      </trkpt>
      <trkpt lat="48.44822" lon="-4.26077">
        <ele>5.3</ele>
      </trkpt>
      <trkpt lat="48.44939" lon="-4.2566">
        <ele>4.4</ele>
      </trkpt>
      <trkpt lat="48.4491" lon="-4.25456">
        <ele>5.7</ele>
      </trkpt>
      <trkpt lat="48.44933" lon="-4.25366">
        <ele>6.1</ele>
      </trkpt>
      <trkpt lat="48.44933" lon="-4.25248">
        <ele>7.5</ele>
      </trkpt>
      <trkpt lat="48.45018" lon="-4.24986">
        <ele>5.3</ele>
      </trkpt>
      <trkpt lat="48.45389" lon="-4.24481">
        <ele>6</ele>
      </trkpt>
      <trkpt lat="48.45243" lon="-4.2422">
        <ele>10.7</ele>
      </trkpt>
      <trkpt lat="48.45785" lon="-4.23293">
        <ele>27.5</ele>
      </trkpt>
      <trkpt lat="48.45827" lon="-4.23154">
        <ele>31</ele>
      </trkpt>
      <trkpt lat="48.45945" lon="-4.22589">
        <ele>44.3</ele>
      </trkpt>
      <trkpt lat="48.46284" lon="-4.21895">
        <ele>52.2</ele>
      </trkpt>
      <trkpt lat="48.46396" lon="-4.21766">
        <ele>54.9</ele>
      </trkpt>
      <trkpt lat="48.46442" lon="-4.21688">
        <ele>56.2</ele>
      </trkpt>
      <trkpt lat="48.46534" lon="-4.21361">
        <ele>58.5</ele>
      </trkpt>
      <trkpt lat="48.46687" lon="-4.2104">
        <ele>63.3</ele>
      </trkpt>
      <trkpt lat="48.46705" lon="-4.20932">
        <ele>67</ele>
      </trkpt>
      <trkpt lat="48.46586" lon="-4.20535">
        <ele>77.5</ele>
      </trkpt>
      <trkpt lat="48.46442" lon="-4.20281">
        <ele>83.7</ele>
      </trkpt>
      <trkpt lat="48.46436" lon="-4.20221">
        <ele>82.7</ele>
      </trkpt>
      <trkpt lat="48.46465" lon="-4.19978">
        <ele>76.1</ele>
      </trkpt>
      <trkpt lat="48.46448" lon="-4.1977">
        <ele>77.3</ele>
      </trkpt>
      <trkpt lat="48.46418" lon="-4.19675">
        <ele>76.8</ele>
      </trkpt>
      <trkpt lat="48.46213" lon="-4.19444">
        <ele>73.9</ele>
      </trkpt>
      <trkpt lat="48.46032" lon="-4.19353">
        <ele>79.4</ele>
      </trkpt>
      <trkpt lat="48.45873" lon="-4.19323">
        <ele>80.7</ele>
      </trkpt>
      <trkpt lat="48.4585" lon="-4.19305">
        <ele>78.2</ele>
      </trkpt>
      <trkpt lat="48.45801" lon="-4.19174">
        <ele>77.6</ele>
      </trkpt>
      <trkpt lat="48.45574" lon="-4.18879">
        <ele>87.8</ele>
      </trkpt>
      <trkpt lat="48.45373" lon="-4.18559">
        <ele>100.1</ele>
      </trkpt>
      <trkpt lat="48.44888" lon="-4.18239">
        <ele>120.3</ele>
      </trkpt>
      <trkpt lat="48.44795" lon="-4.18243">
        <ele>123.5</ele>
      </trkpt>
      <trkpt lat="48.44622" lon="-4.18371">
        <ele>130.2</ele>
      </trkpt>
      <trkpt lat="48.44535" lon="-4.18391">
        <ele>133.5</ele>
      </trkpt>
      <trkpt lat="48.43969" lon="-4.18265">
        <ele>157.7</ele>
      </trkpt>
      <trkpt lat="48.43937" lon="-4.18247">
        <ele>158.6</ele>
      </trkpt>
      <trkpt lat="48.43896" lon="-4.18189">
        <ele>160.3</ele>
      </trkpt>
      <trkpt lat="48.43864" lon="-4.18064">
        <ele>161.9</ele>
      </trkpt>
      <trkpt lat="48.43855" lon="-4.17472">
        <ele>158.7</ele>
      </trkpt>
      <trkpt lat="48.43741" lon="-4.16965">
        <ele>147.8</ele>
      </trkpt>
      <trkpt lat="48.43677" lon="-4.1638">
        <ele>151.4</ele>
      </trkpt>
      <trkpt lat="48.4326" lon="-4.15001">
        <ele>143.2</ele>
      </trkpt>
      <trkpt lat="48.43208" lon="-4.1474">
        <ele>138.6</ele>
      </trkpt>
      <trkpt lat="48.43114" lon="-4.13861">
        <ele>116.8</ele>
      </trkpt>
      <trkpt lat="48.42707" lon="-4.12705">
        <ele>85.3</ele>
      </trkpt>
      <trkpt lat="48.42668" lon="-4.1228">
        <ele>91.7</ele>
      </trkpt>
      <trkpt lat="48.42688" lon="-4.12028">
        <ele>97.2</ele>
      </trkpt>
      <trkpt lat="48.42688" lon="-4.11642">
        <ele>96.8</ele>
      </trkpt>
      <trkpt lat="48.42664" lon="-4.11471">
        <ele>99.9</ele>
      </trkpt>
      <trkpt lat="48.42579" lon="-4.11151">
        <ele>101.7</ele>
      </trkpt>
      <trkpt lat="48.42518" lon="-4.11011">
        <ele>106.2</ele>
      </trkpt>
      <trkpt lat="48.42368" lon="-4.10791">
        <ele>100.5</ele>
      </trkpt>
      <trkpt lat="48.42079" lon="-4.10297">
        <ele>94.4</ele>
      </trkpt>
      <trkpt lat="48.41983" lon="-4.10209">
        <ele>93.7</ele>
      </trkpt>
      <trkpt lat="48.41669" lon="-4.10035">
        <ele>87.2</ele>
      </trkpt>
      <trkpt lat="48.41574" lon="-4.09935">
        <ele>83.8</ele>
      </trkpt>
      <trkpt lat="48.41528" lon="-4.09837">
        <ele>83.3</ele>
      </trkpt>
      <trkpt lat="48.41422" lon="-4.09479">
        <ele>87.3</ele>
      </trkpt>
      <trkpt lat="48.4124" lon="-4.09043">
        <ele>79.8</ele>
      </trkpt>
      <trkpt lat="48.41136" lon="-4.08684">
        <ele>82</ele>
      </trkpt>
      <trkpt lat="48.41108" lon="-4.08635">
        <ele>83.1</ele>
      </trkpt>
      <trkpt lat="48.4107" lon="-4.08611">
        <ele>83.5</ele>
      </trkpt>
      <trkpt lat="48.41064" lon="-4.08544">
        <ele>84.8</ele>
      </trkpt>
      <trkpt lat="48.4099" lon="-4.08424">
        <ele>88</ele>
      </trkpt>
      <trkpt lat="48.40893" lon="-4.08336">
        <ele>93.4</ele>
      </trkpt>
      <trkpt lat="48.4066" lon="-4.08266">
        <ele>103.2</ele>
      </trkpt>
      <trkpt lat="48.40583" lon="-4.08187">
        <ele>105.5</ele>
      </trkpt>
      <trkpt lat="48.40552" lon="-4.08056">
        <ele>109.4</ele>
      </trkpt>
      <trkpt lat="48.40582" lon="-4.07659">
        <ele>107.7</ele>
      </trkpt>
      <trkpt lat="48.40564" lon="-4.07471">
        <ele>102</ele>
      </trkpt>
      <trkpt lat="48.40528" lon="-4.0736">
        <ele>101.7</ele>
      </trkpt>
      <trkpt lat="48.40348" lon="-4.06975">
        <ele>102.6</ele>
      </trkpt>
      <trkpt lat="48.40345" lon="-4.0666">
        <ele>106.3</ele>
      </trkpt>
      <trkpt lat="48.40498" lon="-4.05875">
        <ele>113.6</ele>
      </trkpt>
      <trkpt lat="48.4058" lon="-4.05637">
        <ele>108.9</ele>
      </trkpt>
      <trkpt lat="48.40774" lon="-4.05356">
        <ele>112.6</ele>
      </trkpt>
      <trkpt lat="48.40863" lon="-4.0518">
        <ele>111.9</ele>
      </trkpt>
      <trkpt lat="48.40944" lon="-4.04905">
        <ele>113.9</ele>
      </trkpt>
      <trkpt lat="48.4106" lon="-4.04399">
        <ele>123.5</ele>
      </trkpt>
      <trkpt lat="48.41166" lon="-4.04077">
        <ele>131.2</ele>
      </trkpt>
      <trkpt lat="48.4125" lon="-4.03884">
        <ele>131.4</ele>
      </trkpt>
      <trkpt lat="48.41387" lon="-4.03432">
        <ele>133.2</ele>
      </trkpt>
      <trkpt lat="48.41399" lon="-4.03212">
        <ele>137.4</ele>
      </trkpt>
      <trkpt lat="48.41382" lon="-4.0302">
        <ele>142.1</ele>
      </trkpt>
      <trkpt lat="48.4134" lon="-4.02857">
        <ele>148.6</ele>
      </trkpt>
      <trkpt lat="48.41342" lon="-4.02681">
        <ele>146.3</ele>
      </trkpt>
      <trkpt lat="48.41375" lon="-4.02559">
        <ele>145.8</ele>
      </trkpt>
      <trkpt lat="48.41571" lon="-4.02118">
        <ele>143.1</ele>
      </trkpt>
      <trkpt lat="48.416" lon="-4.02007">
        <ele>142.8</ele>
      </trkpt>
      <trkpt lat="48.41673" lon="-4.01038">
        <ele>161.5</ele>
      </trkpt>
      <trkpt lat="48.41665" lon="-4.00905">
        <ele>167.4</ele>
      </trkpt>
      <trkpt lat="48.41624" lon="-4.00771">
        <ele>171.9</ele>
      </trkpt>
      <trkpt lat="48.41443" lon="-4.00463">
        <ele>166.7</ele>
      </trkpt>
      <trkpt lat="48.41262" lon="-3.99962">
        <ele>169.9</ele>
      </trkpt>
      <trkpt lat="48.41194" lon="-3.99848">
        <ele>170.4</ele>
      </trkpt>
      <trkpt lat="48.40971" lon="-3.99549">
        <ele>174.1</ele>
      </trkpt>
      <trkpt lat="48.40879" lon="-3.99236">
        <ele>179.4</ele>
      </trkpt>
      <trkpt lat="48.40852" lon="-3.98968">
        <ele>180.8</ele>
      </trkpt>
      <trkpt lat="48.40879" lon="-3.98637">
        <ele>188.2</ele>
      </trkpt>
      <trkpt lat="48.40972" lon="-3.98339">
        <ele>197.2</ele>
      </trkpt>
      <trkpt lat="48.41186" lon="-3.97966">
        <ele>202.3</ele>
      </trkpt>
      <trkpt lat="48.41239" lon="-3.97827">
        <ele>206.6</ele>
      </trkpt>
      <trkpt lat="48.41272" lon="-3.97121">
        <ele>222.5</ele>
      </trkpt>
      <trkpt lat="48.41235" lon="-3.9699">
        <ele>225.3</ele>
      </trkpt>
      <trkpt lat="48.4106" lon="-3.9667">
        <ele>224.5</ele>
      </trkpt>
      <trkpt lat="48.41002" lon="-3.96512">
        <ele>225.1</ele>
      </trkpt>
      <trkpt lat="48.40842" lon="-3.95913">
        <ele>241</ele>
      </trkpt>
      <trkpt lat="48.40574" lon="-3.95293">
        <ele>240.5</ele>
      </trkpt>
      <trkpt lat="48.40464" lon="-3.94637">
        <ele>252</ele>
      </trkpt>
      <trkpt lat="48.40411" lon="-3.94469">
        <ele>247</ele>
      </trkpt>
      <trkpt lat="48.403" lon="-3.9426">
        <ele>250.1</ele>
      </trkpt>
      <trkpt lat="48.40265" lon="-3.93951">
        <ele>261.1</ele>
      </trkpt>
      <trkpt lat="48.40275" lon="-3.93852">
        <ele>264.5</ele>
      </trkpt>
      <trkpt lat="48.40436" lon="-3.93218">
        <ele>282.1</ele>
      </trkpt>
      <trkpt lat="48.4043" lon="-3.92701">
        <ele>283.7</ele>
      </trkpt>
      <trkpt lat="48.40658" lon="-3.91895">
        <ele>289.1</ele>
      </trkpt>
      <trkpt lat="48.40764" lon="-3.91322">
        <ele>305.6</ele>
      </trkpt>
      <trkpt lat="48.40909" lon="-3.90792">
        <ele>311.4</ele>
      </trkpt>
      <trkpt lat="48.40959" lon="-3.90651">
        <ele>315.9</ele>
      </trkpt>
      <trkpt lat="48.41091" lon="-3.90416">
        <ele>317.6</ele>
      </trkpt>
      <trkpt lat="48.41161" lon="-3.90257">
        <ele>321.3</ele>
      </trkpt>
      <trkpt lat="48.41214" lon="-3.89997">
        <ele>328.1</ele>
      </trkpt>
      <trkpt lat="48.41219" lon="-3.89881">
        <ele>330</ele>
      </trkpt>
      <trkpt lat="48.41197" lon="-3.89601">
        <ele>338.5</ele>
      </trkpt>
      <trkpt lat="48.41179" lon="-3.89552">
        <ele>341.6</ele>
      </trkpt>
      <trkpt lat="48.41095" lon="-3.88158">
        <ele>340.9</ele>
      </trkpt>
      <trkpt lat="48.40956" lon="-3.86994">
        <ele>327.4</ele>
      </trkpt>
      <trkpt lat="48.40957" lon="-3.86595">
        <ele>319.4</ele>
      </trkpt>
      <trkpt lat="48.40935" lon="-3.86449">
        <ele>315.9</ele>
      </trkpt>
      <trkpt lat="48.4085" lon="-3.86281">
        <ele>312.4</ele>
      </trkpt>
      <trkpt lat="48.40742" lon="-3.86189">
        <ele>303.8</ele>
      </trkpt>
      <trkpt lat="48.3986" lon="-3.85981">
        <ele>272.7</ele>
      </trkpt>
      <trkpt lat="48.39673" lon="-3.85982">
        <ele>266</ele>
      </trkpt>
      <trkpt lat="48.39348" lon="-3.86042">
        <ele>245.8</ele>
      </trkpt>
      <trkpt lat="48.39238" lon="-3.86034">
        <ele>246.1</ele>
      </trkpt>
      <trkpt lat="48.39089" lon="-3.85966">
        <ele>251.9</ele>
      </trkpt>
      <trkpt lat="48.38947" lon="-3.85828">
        <ele>259.6</ele>
      </trkpt>
      <trkpt lat="48.38877" lon="-3.85701">
        <ele>257</ele>
      </trkpt>
      <trkpt lat="48.38721" lon="-3.85308">
        <ele>258.7</ele>
      </trkpt>
      <trkpt lat="48.38629" lon="-3.85128">
        <ele>259</ele>
      </trkpt>
      <trkpt lat="48.38549" lon="-3.85001">
        <ele>259.6</ele>
      </trkpt>
      <trkpt lat="48.38213" lon="-3.84573">
        <ele>253.4</ele>
      </trkpt>
      <trkpt lat="48.38109" lon="-3.84378">
        <ele>248.5</ele>
      </trkpt>
      <trkpt lat="48.378" lon="-3.83385">
        <ele>254.4</ele>
      </trkpt>
      <trkpt lat="48.37658" lon="-3.82844">
        <ele>250.6</ele>
      </trkpt>
      <trkpt lat="48.37579" lon="-3.82607">
        <ele>248.8</ele>
      </trkpt>
      <trkpt lat="48.37454" lon="-3.82313">
        <ele>236</ele>
      </trkpt>
      <trkpt lat="48.36878" lon="-3.81111">
        <ele>215.8</ele>
      </trkpt>
      <trkpt lat="48.36643" lon="-3.80661">
        <ele>247.2</ele>
      </trkpt>
      <trkpt lat="48.3652" lon="-3.80462">
        <ele>257.8</ele>
      </trkpt>
      <trkpt lat="48.36199" lon="-3.80098">
        <ele>265.5</ele>
      </trkpt>
      <trkpt lat="48.36095" lon="-3.79953">
        <ele>259.8</ele>
      </trkpt>
      <trkpt lat="48.35664" lon="-3.792">
        <ele>252</ele>
      </trkpt>
      <trkpt lat="48.35313" lon="-3.78678">
        <ele>233.1</ele>
      </trkpt>
      <trkpt lat="48.35155" lon="-3.7836">
        <ele>229.8</ele>
      </trkpt>
      <trkpt lat="48.34649" lon="-3.77085">
        <ele>216.8</ele>
      </trkpt>
      <trkpt lat="48.34394" lon="-3.76338">
        <ele>233</ele>
      </trkpt>
      <trkpt lat="48.34344" lon="-3.76072">
        <ele>228.6</ele>
      </trkpt>
      <trkpt lat="48.34334" lon="-3.75886">
        <ele>226.1</ele>
      </trkpt>
      <trkpt lat="48.34344" lon="-3.75683">
        <ele>224.3</ele>
      </trkpt>
      <trkpt lat="48.34481" lon="-3.74906">
        <ele>211.2</ele>
      </trkpt>
      <trkpt lat="48.34525" lon="-3.74549">
        <ele>209.7</ele>
      </trkpt>
      <trkpt lat="48.34609" lon="-3.72888">
        <ele>192.5</ele>
      </trkpt>
      <trkpt lat="48.34588" lon="-3.72584">
        <ele>175.5</ele>
      </trkpt>
      <trkpt lat="48.3452" lon="-3.72201">
        <ele>155.5</ele>
      </trkpt>
      <trkpt lat="48.34457" lon="-3.71957">
        <ele>146.2</ele>
      </trkpt>
      <trkpt lat="48.34396" lon="-3.71794">
        <ele>144</ele>
      </trkpt>
      <trkpt lat="48.34289" lon="-3.71591">
        <ele>143.8</ele>
      </trkpt>
      <trkpt lat="48.33984" lon="-3.71197">
        <ele>138.2</ele>
      </trkpt>
      <trkpt lat="48.33772" lon="-3.70766">
        <ele>136.9</ele>
      </trkpt>
      <trkpt lat="48.33525" lon="-3.70424">
        <ele>143.1</ele>
      </trkpt>
      <trkpt lat="48.3322" lon="-3.69888">
        <ele>157</ele>
      </trkpt>
      <trkpt lat="48.32965" lon="-3.69498">
        <ele>149.4</ele>
      </trkpt>
      <trkpt lat="48.327" lon="-3.69153">
        <ele>132.3</ele>
      </trkpt>
      <trkpt lat="48.32316" lon="-3.68794">
        <ele>117.4</ele>
      </trkpt>
      <trkpt lat="48.32186" lon="-3.68573">
        <ele>102.1</ele>
      </trkpt>
      <trkpt lat="48.32054" lon="-3.68205">
        <ele>85.6</ele>
      </trkpt>
      <trkpt lat="48.31992" lon="-3.68091">
        <ele>78.5</ele>
      </trkpt>
      <trkpt lat="48.31754" lon="-3.67803">
        <ele>84.1</ele>
      </trkpt>
      <trkpt lat="48.31552" lon="-3.67504">
        <ele>81.1</ele>
      </trkpt>
      <trkpt lat="48.31041" lon="-3.66907">
        <ele>111.7</ele>
      </trkpt>
      <trkpt lat="48.30958" lon="-3.66754">
        <ele>116.2</ele>
      </trkpt>
      <trkpt lat="48.30895" lon="-3.6659">
        <ele>117.4</ele>
      </trkpt>
      <trkpt lat="48.30795" lon="-3.66107">
        <ele>119.5</ele>
      </trkpt>
      <trkpt lat="48.30738" lon="-3.65915">
        <ele>127.3</ele>
      </trkpt>
      <trkpt lat="48.30674" lon="-3.65779">
        <ele>131.2</ele>
      </trkpt>
      <trkpt lat="48.30382" lon="-3.65291">
        <ele>147.7</ele>
      </trkpt>
      <trkpt lat="48.30165" lon="-3.64741">
        <ele>137.8</ele>
      </trkpt>
      <trkpt lat="48.30049" lon="-3.64583">
        <ele>126.1</ele>
      </trkpt>
      <trkpt lat="48.29565" lon="-3.64136">
        <ele>145.8</ele>
      </trkpt>
      <trkpt lat="48.29321" lon="-3.6368">
        <ele>147.8</ele>
      </trkpt>
      <trkpt lat="48.29253" lon="-3.6346">
        <ele>131.2</ele>
      </trkpt>
      <trkpt lat="48.28883" lon="-3.61794">
        <ele>98.8</ele>
      </trkpt>
      <trkpt lat="48.28809" lon="-3.61531">
        <ele>105.3</ele>
      </trkpt>
      <trkpt lat="48.28768" lon="-3.61463">
        <ele>107</ele>
      </trkpt>
      <trkpt lat="48.2877" lon="-3.61365">
        <ele>105.9</ele>
      </trkpt>
      <trkpt lat="48.28597" lon="-3.60676">
        <ele>95.9</ele>
      </trkpt>
      <trkpt lat="48.28531" lon="-3.60231">
        <ele>93.6</ele>
      </trkpt>
      <trkpt lat="48.28457" lon="-3.60042">
        <ele>88.9</ele>
      </trkpt>
      <trkpt lat="48.28373" lon="-3.59959">
        <ele>85.6</ele>
      </trkpt>
      <trkpt lat="48.28343" lon="-3.59902">
        <ele>89.5</ele>
      </trkpt>
      <trkpt lat="48.28337" lon="-3.59848">
        <ele>90.5</ele>
      </trkpt>
      <trkpt lat="48.28362" lon="-3.59648">
        <ele>89.6</ele>
      </trkpt>
      <trkpt lat="48.28324" lon="-3.59349">
        <ele>94.3</ele>
      </trkpt>
      <trkpt lat="48.28136" lon="-3.58634">
        <ele>102.6</ele>
      </trkpt>
      <trkpt lat="48.28101" lon="-3.58539">
        <ele>105.8</ele>
      </trkpt>
      <trkpt lat="48.27983" lon="-3.58319">
        <ele>117.1</ele>
      </trkpt>
      <trkpt lat="48.27929" lon="-3.58056">
        <ele>124.5</ele>
      </trkpt>
      <trkpt lat="48.27803" lon="-3.57769">
        <ele>133.3</ele>
      </trkpt>
      <trkpt lat="48.27723" lon="-3.5766">
        <ele>137.5</ele>
      </trkpt>
      <trkpt lat="48.27601" lon="-3.57559">
        <ele>140.5</ele>
      </trkpt>
      <trkpt lat="48.27635" lon="-3.57382">
        <ele>142.9</ele>
      </trkpt>
      <trkpt lat="48.27627" lon="-3.5729">
        <ele>144.2</ele>
      </trkpt>
      <trkpt lat="48.27663" lon="-3.56965">
        <ele>143.5</ele>
      </trkpt>
      <trkpt lat="48.27715" lon="-3.56689">
        <ele>137.6</ele>
      </trkpt>
      <trkpt lat="48.2769" lon="-3.56352">
        <ele>130.3</ele>
      </trkpt>
      <trkpt lat="48.27703" lon="-3.55938">
        <ele>135.9</ele>
      </trkpt>
      <trkpt lat="48.27828" lon="-3.5534">
        <ele>147.7</ele>
      </trkpt>
      <trkpt lat="48.2782" lon="-3.55299">
        <ele>147.8</ele>
      </trkpt>
      <trkpt lat="48.27776" lon="-3.55273">
        <ele>146</ele>
      </trkpt>
      <trkpt lat="48.27771" lon="-3.55247">
        <ele>146.1</ele>
      </trkpt>
      <trkpt lat="48.27824" lon="-3.55214">
        <ele>149.8</ele>
      </trkpt>
      <trkpt lat="48.27863" lon="-3.54968">
        <ele>161.2</ele>
      </trkpt>
    </trkseg>
  </trk>
</gpx>
